%!PS-Adobe-2.0 EPSF-2.0
%%Title: images/big_vs_small_data_compare.tex
%%Creator: gnuplot 5.2 patchlevel 8
%%CreationDate: Tue Apr  6 18:21:44 2021
%%DocumentFonts:
%%BoundingBox: 50 50 410 302
%%EndComments
%%BeginProlog
/gnudict 256 dict def
gnudict begin
%
% The following true/false flags may be edited by hand if desired.
% The unit line width and grayscale image gamma correction may also be changed.
%
/Color true def
/Blacktext true def
/Solid false def
/Dashlength 1 def
/Landscape false def
/Level1 false def
/Level3 false def
/Rounded false def
/ClipToBoundingBox false def
/SuppressPDFMark false def
/TransparentPatterns false def
/gnulinewidth 5.000 def
/userlinewidth gnulinewidth def
/Gamma 1.0 def
/BackgroundColor {-1.000 -1.000 -1.000} def
%
/vshift -73 def
/dl1 {
  10.0 Dashlength userlinewidth gnulinewidth div mul mul mul
  Rounded { currentlinewidth 0.75 mul sub dup 0 le { pop 0.01 } if } if
} def
/dl2 {
  10.0 Dashlength userlinewidth gnulinewidth div mul mul mul
  Rounded { currentlinewidth 0.75 mul add } if
} def
/hpt_ 31.5 def
/vpt_ 31.5 def
/hpt hpt_ def
/vpt vpt_ def
/doclip {
  ClipToBoundingBox {
    newpath 50 50 moveto 410 50 lineto 410 302 lineto 50 302 lineto closepath
    clip
  } if
} def
%
% Gnuplot Prolog Version 5.2 (Dec 2017)
%
%/SuppressPDFMark true def
%
/M {moveto} bind def
/L {lineto} bind def
/R {rmoveto} bind def
/V {rlineto} bind def
/N {newpath moveto} bind def
/Z {closepath} bind def
/C {setrgbcolor} bind def
/f {rlineto fill} bind def
/g {setgray} bind def
/Gshow {show} def   % May be redefined later in the file to support UTF-8
/vpt2 vpt 2 mul def
/hpt2 hpt 2 mul def
/Lshow {currentpoint stroke M 0 vshift R
	Blacktext {gsave 0 setgray textshow grestore} {textshow} ifelse} def
/Rshow {currentpoint stroke M dup stringwidth pop neg vshift R
	Blacktext {gsave 0 setgray textshow grestore} {textshow} ifelse} def
/Cshow {currentpoint stroke M dup stringwidth pop -2 div vshift R
	Blacktext {gsave 0 setgray textshow grestore} {textshow} ifelse} def
/UP {dup vpt_ mul /vpt exch def hpt_ mul /hpt exch def
  /hpt2 hpt 2 mul def /vpt2 vpt 2 mul def} def
/DL {Color {setrgbcolor Solid {pop []} if 0 setdash}
 {pop pop pop 0 setgray Solid {pop []} if 0 setdash} ifelse} def
/BL {stroke userlinewidth 2 mul setlinewidth
	Rounded {1 setlinejoin 1 setlinecap} if} def
/AL {stroke userlinewidth 2 div setlinewidth
	Rounded {1 setlinejoin 1 setlinecap} if} def
/UL {dup gnulinewidth mul /userlinewidth exch def
	dup 1 lt {pop 1} if 10 mul /udl exch def} def
/PL {stroke userlinewidth setlinewidth
	Rounded {1 setlinejoin 1 setlinecap} if} def
3.8 setmiterlimit
% Classic Line colors (version 5.0)
/LCw {1 1 1} def
/LCb {0 0 0} def
/LCa {0 0 0} def
/LC0 {1 0 0} def
/LC1 {0 1 0} def
/LC2 {0 0 1} def
/LC3 {1 0 1} def
/LC4 {0 1 1} def
/LC5 {1 1 0} def
/LC6 {0 0 0} def
/LC7 {1 0.3 0} def
/LC8 {0.5 0.5 0.5} def
% Default dash patterns (version 5.0)
/LTB {BL [] LCb DL} def
/LTw {PL [] 1 setgray} def
/LTb {PL [] LCb DL} def
/LTa {AL [1 udl mul 2 udl mul] 0 setdash LCa setrgbcolor} def
/LT0 {PL [] LC0 DL} def
/LT1 {PL [2 dl1 3 dl2] LC1 DL} def
/LT2 {PL [1 dl1 1.5 dl2] LC2 DL} def
/LT3 {PL [6 dl1 2 dl2 1 dl1 2 dl2] LC3 DL} def
/LT4 {PL [1 dl1 2 dl2 6 dl1 2 dl2 1 dl1 2 dl2] LC4 DL} def
/LT5 {PL [4 dl1 2 dl2] LC5 DL} def
/LT6 {PL [1.5 dl1 1.5 dl2 1.5 dl1 1.5 dl2 1.5 dl1 6 dl2] LC6 DL} def
/LT7 {PL [3 dl1 3 dl2 1 dl1 3 dl2] LC7 DL} def
/LT8 {PL [2 dl1 2 dl2 2 dl1 6 dl2] LC8 DL} def
/SL {[] 0 setdash} def
/Pnt {stroke [] 0 setdash gsave 1 setlinecap M 0 0 V stroke grestore} def
/Dia {stroke [] 0 setdash 2 copy vpt add M
  hpt neg vpt neg V hpt vpt neg V
  hpt vpt V hpt neg vpt V closepath stroke
  Pnt} def
/Pls {stroke [] 0 setdash vpt sub M 0 vpt2 V
  currentpoint stroke M
  hpt neg vpt neg R hpt2 0 V stroke
 } def
/Box {stroke [] 0 setdash 2 copy exch hpt sub exch vpt add M
  0 vpt2 neg V hpt2 0 V 0 vpt2 V
  hpt2 neg 0 V closepath stroke
  Pnt} def
/Crs {stroke [] 0 setdash exch hpt sub exch vpt add M
  hpt2 vpt2 neg V currentpoint stroke M
  hpt2 neg 0 R hpt2 vpt2 V stroke} def
/TriU {stroke [] 0 setdash 2 copy vpt 1.12 mul add M
  hpt neg vpt -1.62 mul V
  hpt 2 mul 0 V
  hpt neg vpt 1.62 mul V closepath stroke
  Pnt} def
/Star {2 copy Pls Crs} def
/BoxF {stroke [] 0 setdash exch hpt sub exch vpt add M
  0 vpt2 neg V hpt2 0 V 0 vpt2 V
  hpt2 neg 0 V closepath fill} def
/TriUF {stroke [] 0 setdash vpt 1.12 mul add M
  hpt neg vpt -1.62 mul V
  hpt 2 mul 0 V
  hpt neg vpt 1.62 mul V closepath fill} def
/TriD {stroke [] 0 setdash 2 copy vpt 1.12 mul sub M
  hpt neg vpt 1.62 mul V
  hpt 2 mul 0 V
  hpt neg vpt -1.62 mul V closepath stroke
  Pnt} def
/TriDF {stroke [] 0 setdash vpt 1.12 mul sub M
  hpt neg vpt 1.62 mul V
  hpt 2 mul 0 V
  hpt neg vpt -1.62 mul V closepath fill} def
/DiaF {stroke [] 0 setdash vpt add M
  hpt neg vpt neg V hpt vpt neg V
  hpt vpt V hpt neg vpt V closepath fill} def
/Pent {stroke [] 0 setdash 2 copy gsave
  translate 0 hpt M 4 {72 rotate 0 hpt L} repeat
  closepath stroke grestore Pnt} def
/PentF {stroke [] 0 setdash gsave
  translate 0 hpt M 4 {72 rotate 0 hpt L} repeat
  closepath fill grestore} def
/Circle {stroke [] 0 setdash 2 copy
  hpt 0 360 arc stroke Pnt} def
/CircleF {stroke [] 0 setdash hpt 0 360 arc fill} def
/C0 {BL [] 0 setdash 2 copy moveto vpt 90 450 arc} bind def
/C1 {BL [] 0 setdash 2 copy moveto
	2 copy vpt 0 90 arc closepath fill
	vpt 0 360 arc closepath} bind def
/C2 {BL [] 0 setdash 2 copy moveto
	2 copy vpt 90 180 arc closepath fill
	vpt 0 360 arc closepath} bind def
/C3 {BL [] 0 setdash 2 copy moveto
	2 copy vpt 0 180 arc closepath fill
	vpt 0 360 arc closepath} bind def
/C4 {BL [] 0 setdash 2 copy moveto
	2 copy vpt 180 270 arc closepath fill
	vpt 0 360 arc closepath} bind def
/C5 {BL [] 0 setdash 2 copy moveto
	2 copy vpt 0 90 arc
	2 copy moveto
	2 copy vpt 180 270 arc closepath fill
	vpt 0 360 arc} bind def
/C6 {BL [] 0 setdash 2 copy moveto
	2 copy vpt 90 270 arc closepath fill
	vpt 0 360 arc closepath} bind def
/C7 {BL [] 0 setdash 2 copy moveto
	2 copy vpt 0 270 arc closepath fill
	vpt 0 360 arc closepath} bind def
/C8 {BL [] 0 setdash 2 copy moveto
	2 copy vpt 270 360 arc closepath fill
	vpt 0 360 arc closepath} bind def
/C9 {BL [] 0 setdash 2 copy moveto
	2 copy vpt 270 450 arc closepath fill
	vpt 0 360 arc closepath} bind def
/C10 {BL [] 0 setdash 2 copy 2 copy moveto vpt 270 360 arc closepath fill
	2 copy moveto
	2 copy vpt 90 180 arc closepath fill
	vpt 0 360 arc closepath} bind def
/C11 {BL [] 0 setdash 2 copy moveto
	2 copy vpt 0 180 arc closepath fill
	2 copy moveto
	2 copy vpt 270 360 arc closepath fill
	vpt 0 360 arc closepath} bind def
/C12 {BL [] 0 setdash 2 copy moveto
	2 copy vpt 180 360 arc closepath fill
	vpt 0 360 arc closepath} bind def
/C13 {BL [] 0 setdash 2 copy moveto
	2 copy vpt 0 90 arc closepath fill
	2 copy moveto
	2 copy vpt 180 360 arc closepath fill
	vpt 0 360 arc closepath} bind def
/C14 {BL [] 0 setdash 2 copy moveto
	2 copy vpt 90 360 arc closepath fill
	vpt 0 360 arc} bind def
/C15 {BL [] 0 setdash 2 copy vpt 0 360 arc closepath fill
	vpt 0 360 arc closepath} bind def
/Rec {newpath 4 2 roll moveto 1 index 0 rlineto 0 exch rlineto
	neg 0 rlineto closepath} bind def
/Square {dup Rec} bind def
/Bsquare {vpt sub exch vpt sub exch vpt2 Square} bind def
/S0 {BL [] 0 setdash 2 copy moveto 0 vpt rlineto BL Bsquare} bind def
/S1 {BL [] 0 setdash 2 copy vpt Square fill Bsquare} bind def
/S2 {BL [] 0 setdash 2 copy exch vpt sub exch vpt Square fill Bsquare} bind def
/S3 {BL [] 0 setdash 2 copy exch vpt sub exch vpt2 vpt Rec fill Bsquare} bind def
/S4 {BL [] 0 setdash 2 copy exch vpt sub exch vpt sub vpt Square fill Bsquare} bind def
/S5 {BL [] 0 setdash 2 copy 2 copy vpt Square fill
	exch vpt sub exch vpt sub vpt Square fill Bsquare} bind def
/S6 {BL [] 0 setdash 2 copy exch vpt sub exch vpt sub vpt vpt2 Rec fill Bsquare} bind def
/S7 {BL [] 0 setdash 2 copy exch vpt sub exch vpt sub vpt vpt2 Rec fill
	2 copy vpt Square fill Bsquare} bind def
/S8 {BL [] 0 setdash 2 copy vpt sub vpt Square fill Bsquare} bind def
/S9 {BL [] 0 setdash 2 copy vpt sub vpt vpt2 Rec fill Bsquare} bind def
/S10 {BL [] 0 setdash 2 copy vpt sub vpt Square fill 2 copy exch vpt sub exch vpt Square fill
	Bsquare} bind def
/S11 {BL [] 0 setdash 2 copy vpt sub vpt Square fill 2 copy exch vpt sub exch vpt2 vpt Rec fill
	Bsquare} bind def
/S12 {BL [] 0 setdash 2 copy exch vpt sub exch vpt sub vpt2 vpt Rec fill Bsquare} bind def
/S13 {BL [] 0 setdash 2 copy exch vpt sub exch vpt sub vpt2 vpt Rec fill
	2 copy vpt Square fill Bsquare} bind def
/S14 {BL [] 0 setdash 2 copy exch vpt sub exch vpt sub vpt2 vpt Rec fill
	2 copy exch vpt sub exch vpt Square fill Bsquare} bind def
/S15 {BL [] 0 setdash 2 copy Bsquare fill Bsquare} bind def
/D0 {gsave translate 45 rotate 0 0 S0 stroke grestore} bind def
/D1 {gsave translate 45 rotate 0 0 S1 stroke grestore} bind def
/D2 {gsave translate 45 rotate 0 0 S2 stroke grestore} bind def
/D3 {gsave translate 45 rotate 0 0 S3 stroke grestore} bind def
/D4 {gsave translate 45 rotate 0 0 S4 stroke grestore} bind def
/D5 {gsave translate 45 rotate 0 0 S5 stroke grestore} bind def
/D6 {gsave translate 45 rotate 0 0 S6 stroke grestore} bind def
/D7 {gsave translate 45 rotate 0 0 S7 stroke grestore} bind def
/D8 {gsave translate 45 rotate 0 0 S8 stroke grestore} bind def
/D9 {gsave translate 45 rotate 0 0 S9 stroke grestore} bind def
/D10 {gsave translate 45 rotate 0 0 S10 stroke grestore} bind def
/D11 {gsave translate 45 rotate 0 0 S11 stroke grestore} bind def
/D12 {gsave translate 45 rotate 0 0 S12 stroke grestore} bind def
/D13 {gsave translate 45 rotate 0 0 S13 stroke grestore} bind def
/D14 {gsave translate 45 rotate 0 0 S14 stroke grestore} bind def
/D15 {gsave translate 45 rotate 0 0 S15 stroke grestore} bind def
/DiaE {stroke [] 0 setdash vpt add M
  hpt neg vpt neg V hpt vpt neg V
  hpt vpt V hpt neg vpt V closepath stroke} def
/BoxE {stroke [] 0 setdash exch hpt sub exch vpt add M
  0 vpt2 neg V hpt2 0 V 0 vpt2 V
  hpt2 neg 0 V closepath stroke} def
/TriUE {stroke [] 0 setdash vpt 1.12 mul add M
  hpt neg vpt -1.62 mul V
  hpt 2 mul 0 V
  hpt neg vpt 1.62 mul V closepath stroke} def
/TriDE {stroke [] 0 setdash vpt 1.12 mul sub M
  hpt neg vpt 1.62 mul V
  hpt 2 mul 0 V
  hpt neg vpt -1.62 mul V closepath stroke} def
/PentE {stroke [] 0 setdash gsave
  translate 0 hpt M 4 {72 rotate 0 hpt L} repeat
  closepath stroke grestore} def
/CircE {stroke [] 0 setdash
  hpt 0 360 arc stroke} def
/Opaque {gsave closepath 1 setgray fill grestore 0 setgray closepath} def
/DiaW {stroke [] 0 setdash vpt add M
  hpt neg vpt neg V hpt vpt neg V
  hpt vpt V hpt neg vpt V Opaque stroke} def
/BoxW {stroke [] 0 setdash exch hpt sub exch vpt add M
  0 vpt2 neg V hpt2 0 V 0 vpt2 V
  hpt2 neg 0 V Opaque stroke} def
/TriUW {stroke [] 0 setdash vpt 1.12 mul add M
  hpt neg vpt -1.62 mul V
  hpt 2 mul 0 V
  hpt neg vpt 1.62 mul V Opaque stroke} def
/TriDW {stroke [] 0 setdash vpt 1.12 mul sub M
  hpt neg vpt 1.62 mul V
  hpt 2 mul 0 V
  hpt neg vpt -1.62 mul V Opaque stroke} def
/PentW {stroke [] 0 setdash gsave
  translate 0 hpt M 4 {72 rotate 0 hpt L} repeat
  Opaque stroke grestore} def
/CircW {stroke [] 0 setdash
  hpt 0 360 arc Opaque stroke} def
/BoxFill {gsave Rec 1 setgray fill grestore} def
/Density {
  /Fillden exch def
  currentrgbcolor
  /ColB exch def /ColG exch def /ColR exch def
  /ColR ColR Fillden mul Fillden sub 1 add def
  /ColG ColG Fillden mul Fillden sub 1 add def
  /ColB ColB Fillden mul Fillden sub 1 add def
  ColR ColG ColB setrgbcolor} def
/BoxColFill {gsave Rec PolyFill} def
/PolyFill {gsave Density fill grestore grestore} def
/h {rlineto rlineto rlineto closepath gsave fill grestore stroke} bind def
%
% PostScript Level 1 Pattern Fill routine for rectangles
% Usage: x y w h s a XX PatternFill
%	x,y = lower left corner of box to be filled
%	w,h = width and height of box
%	  a = angle in degrees between lines and x-axis
%	 XX = 0/1 for no/yes cross-hatch
%
/PatternFill {gsave /PFa [ 9 2 roll ] def
  PFa 0 get PFa 2 get 2 div add PFa 1 get PFa 3 get 2 div add translate
  PFa 2 get -2 div PFa 3 get -2 div PFa 2 get PFa 3 get Rec
  TransparentPatterns {} {gsave 1 setgray fill grestore} ifelse
  clip
  currentlinewidth 0.5 mul setlinewidth
  /PFs PFa 2 get dup mul PFa 3 get dup mul add sqrt def
  0 0 M PFa 5 get rotate PFs -2 div dup translate
  0 1 PFs PFa 4 get div 1 add floor cvi
	{PFa 4 get mul 0 M 0 PFs V} for
  0 PFa 6 get ne {
	0 1 PFs PFa 4 get div 1 add floor cvi
	{PFa 4 get mul 0 2 1 roll M PFs 0 V} for
 } if
  stroke grestore} def
%
/languagelevel where
 {pop languagelevel} {1} ifelse
dup 2 lt
	{/InterpretLevel1 true def
	 /InterpretLevel3 false def}
	{/InterpretLevel1 Level1 def
	 2 gt
	    {/InterpretLevel3 Level3 def}
	    {/InterpretLevel3 false def}
	 ifelse }
 ifelse
%
% PostScript level 2 pattern fill definitions
%
/Level2PatternFill {
/Tile8x8 {/PaintType 2 /PatternType 1 /TilingType 1 /BBox [0 0 8 8] /XStep 8 /YStep 8}
	bind def
/KeepColor {currentrgbcolor [/Pattern /DeviceRGB] setcolorspace} bind def
<< Tile8x8
 /PaintProc {0.5 setlinewidth pop 0 0 M 8 8 L 0 8 M 8 0 L stroke}
>> matrix makepattern
/Pat1 exch def
<< Tile8x8
 /PaintProc {0.5 setlinewidth pop 0 0 M 8 8 L 0 8 M 8 0 L stroke
	0 4 M 4 8 L 8 4 L 4 0 L 0 4 L stroke}
>> matrix makepattern
/Pat2 exch def
<< Tile8x8
 /PaintProc {0.5 setlinewidth pop 0 0 M 0 8 L
	8 8 L 8 0 L 0 0 L fill}
>> matrix makepattern
/Pat3 exch def
<< Tile8x8
 /PaintProc {0.5 setlinewidth pop -4 8 M 8 -4 L
	0 12 M 12 0 L stroke}
>> matrix makepattern
/Pat4 exch def
<< Tile8x8
 /PaintProc {0.5 setlinewidth pop -4 0 M 8 12 L
	0 -4 M 12 8 L stroke}
>> matrix makepattern
/Pat5 exch def
<< Tile8x8
 /PaintProc {0.5 setlinewidth pop -2 8 M 4 -4 L
	0 12 M 8 -4 L 4 12 M 10 0 L stroke}
>> matrix makepattern
/Pat6 exch def
<< Tile8x8
 /PaintProc {0.5 setlinewidth pop -2 0 M 4 12 L
	0 -4 M 8 12 L 4 -4 M 10 8 L stroke}
>> matrix makepattern
/Pat7 exch def
<< Tile8x8
 /PaintProc {0.5 setlinewidth pop 8 -2 M -4 4 L
	12 0 M -4 8 L 12 4 M 0 10 L stroke}
>> matrix makepattern
/Pat8 exch def
<< Tile8x8
 /PaintProc {0.5 setlinewidth pop 0 -2 M 12 4 L
	-4 0 M 12 8 L -4 4 M 8 10 L stroke}
>> matrix makepattern
/Pat9 exch def
/Pattern1 {PatternBgnd KeepColor Pat1 setpattern} bind def
/Pattern2 {PatternBgnd KeepColor Pat2 setpattern} bind def
/Pattern3 {PatternBgnd KeepColor Pat3 setpattern} bind def
/Pattern4 {PatternBgnd KeepColor Landscape {Pat5} {Pat4} ifelse setpattern} bind def
/Pattern5 {PatternBgnd KeepColor Landscape {Pat4} {Pat5} ifelse setpattern} bind def
/Pattern6 {PatternBgnd KeepColor Landscape {Pat9} {Pat6} ifelse setpattern} bind def
/Pattern7 {PatternBgnd KeepColor Landscape {Pat8} {Pat7} ifelse setpattern} bind def
} def
%
%
%End of PostScript Level 2 code
%
/PatternBgnd {
  TransparentPatterns {} {gsave 1 setgray fill grestore} ifelse
} def
%
% Substitute for Level 2 pattern fill codes with
% grayscale if Level 2 support is not selected.
%
/Level1PatternFill {
/Pattern1 {0.250 Density} bind def
/Pattern2 {0.500 Density} bind def
/Pattern3 {0.750 Density} bind def
/Pattern4 {0.125 Density} bind def
/Pattern5 {0.375 Density} bind def
/Pattern6 {0.625 Density} bind def
/Pattern7 {0.875 Density} bind def
} def
%
% Now test for support of Level 2 code
%
Level1 {Level1PatternFill} {Level2PatternFill} ifelse
%
/Symbol-Oblique /Symbol findfont [1 0 .167 1 0 0] makefont
dup length dict begin {1 index /FID eq {pop pop} {def} ifelse} forall
currentdict end definefont pop
%
Level1 SuppressPDFMark or
{} {
/SDict 10 dict def
systemdict /pdfmark known not {
  userdict /pdfmark systemdict /cleartomark get put
} if
SDict begin [
  /Title (images/big_vs_small_data_compare.tex)
  /Subject (gnuplot plot)
  /Creator (gnuplot 5.2 patchlevel 8)
%  /Producer (gnuplot)
%  /Keywords ()
  /CreationDate (Tue Apr  6 18:21:44 2021)
  /DOCINFO pdfmark
end
} ifelse
%
% Support for boxed text - Ethan A Merritt Sep 2016
%
/InitTextBox { userdict /TBy2 3 -1 roll put userdict /TBx2 3 -1 roll put
           userdict /TBy1 3 -1 roll put userdict /TBx1 3 -1 roll put
	   /Boxing true def } def
/ExtendTextBox { dup type /stringtype eq
    { Boxing { gsave dup false charpath pathbbox
      dup TBy2 gt {userdict /TBy2 3 -1 roll put} {pop} ifelse
      dup TBx2 gt {userdict /TBx2 3 -1 roll put} {pop} ifelse
      dup TBy1 lt {userdict /TBy1 3 -1 roll put} {pop} ifelse
      dup TBx1 lt {userdict /TBx1 3 -1 roll put} {pop} ifelse
      grestore } if }
    {} ifelse} def
/PopTextBox { newpath TBx1 TBxmargin sub TBy1 TBymargin sub M
               TBx1 TBxmargin sub TBy2 TBymargin add L
	       TBx2 TBxmargin add TBy2 TBymargin add L
	       TBx2 TBxmargin add TBy1 TBymargin sub L closepath } def
/DrawTextBox { PopTextBox stroke /Boxing false def} def
/FillTextBox { gsave PopTextBox fill grestore /Boxing false def} def
0 0 0 0 InitTextBox
/TBxmargin 20 def
/TBymargin 20 def
/Boxing false def
/textshow { ExtendTextBox Gshow } def
%
end
%%EndProlog
%%Page: 1 1
gnudict begin
gsave
doclip
50 50 translate
0.050 0.050 scale
0 setgray
newpath
1.000 UL
LTb
LCb setrgbcolor
[] 0 setdash
0.500 UL
LTa
LCa setrgbcolor
814 3224 M
5989 0 V
stroke
1.000 UL
LTb
LCb setrgbcolor
[] 0 setdash
814 3224 M
63 0 V
5926 0 R
-63 0 V
stroke
LTb
0.500 UL
LTa
LCa setrgbcolor
814 3417 M
5989 0 V
stroke
1.000 UL
LTb
LCb setrgbcolor
[] 0 setdash
814 3417 M
63 0 V
5926 0 R
-63 0 V
stroke
LTb
0.500 UL
LTa
LCa setrgbcolor
814 3609 M
5989 0 V
stroke
1.000 UL
LTb
LCb setrgbcolor
[] 0 setdash
814 3609 M
63 0 V
5926 0 R
-63 0 V
stroke
LTb
0.500 UL
LTa
LCa setrgbcolor
814 3802 M
3583 0 V
2274 0 R
132 0 V
stroke
1.000 UL
LTb
LCb setrgbcolor
[] 0 setdash
814 3802 M
63 0 V
5926 0 R
-63 0 V
stroke
LTb
0.500 UL
LTa
LCa setrgbcolor
814 3994 M
3583 0 V
2274 0 R
132 0 V
stroke
1.000 UL
LTb
LCb setrgbcolor
[] 0 setdash
814 3994 M
63 0 V
5926 0 R
-63 0 V
stroke
LTb
0.500 UL
LTa
LCa setrgbcolor
814 4187 M
3583 0 V
2274 0 R
132 0 V
stroke
1.000 UL
LTb
LCb setrgbcolor
[] 0 setdash
814 4187 M
63 0 V
5926 0 R
-63 0 V
stroke
LTb
0.500 UL
LTa
LCa setrgbcolor
814 4379 M
5989 0 V
stroke
1.000 UL
LTb
LCb setrgbcolor
[] 0 setdash
814 4379 M
63 0 V
5926 0 R
-63 0 V
stroke
LTb
0.500 UL
LTa
LCa setrgbcolor
814 3224 M
0 1155 V
stroke
1.000 UL
LTb
LCb setrgbcolor
[] 0 setdash
814 3224 M
0 63 V
0 1092 R
0 -63 V
stroke
LTb
0.500 UL
LTa
LCa setrgbcolor
1750 3224 M
0 1155 V
stroke
1.000 UL
LTb
LCb setrgbcolor
[] 0 setdash
1750 3224 M
0 63 V
0 1092 R
0 -63 V
stroke
LTb
0.500 UL
LTa
LCa setrgbcolor
2686 3224 M
0 1155 V
stroke
1.000 UL
LTb
LCb setrgbcolor
[] 0 setdash
2686 3224 M
0 63 V
0 1092 R
0 -63 V
stroke
LTb
0.500 UL
LTa
LCa setrgbcolor
3621 3224 M
0 1155 V
stroke
1.000 UL
LTb
LCb setrgbcolor
[] 0 setdash
3621 3224 M
0 63 V
0 1092 R
0 -63 V
stroke
LTb
0.500 UL
LTa
LCa setrgbcolor
4557 3224 M
0 487 V
0 605 R
0 63 V
stroke
1.000 UL
LTb
LCb setrgbcolor
[] 0 setdash
4557 3224 M
0 63 V
0 1092 R
0 -63 V
stroke
LTb
0.500 UL
LTa
LCa setrgbcolor
5493 3224 M
0 487 V
0 605 R
0 63 V
stroke
1.000 UL
LTb
LCb setrgbcolor
[] 0 setdash
5493 3224 M
0 63 V
0 1092 R
0 -63 V
stroke
LTb
0.500 UL
LTa
LCa setrgbcolor
6429 3224 M
0 487 V
0 605 R
0 63 V
stroke
1.000 UL
LTb
LCb setrgbcolor
[] 0 setdash
6429 3224 M
0 63 V
0 1092 R
0 -63 V
stroke
LTb
1.000 UL
LTb
814 4379 N
0 -1155 V
5989 0 V
0 1155 V
-5989 0 V
Z stroke
1.000 UP
1.000 UL
LTb
1.000 UL
LTb
4397 3711 N
0 605 V
2274 0 V
0 -605 V
-2274 0 V
Z stroke
% Begin plot #1
1.000 UP
1.000 UL
LTb
0.58 0.00 0.83 C
861 4341 Pls
908 4148 Pls
954 4110 Pls
1001 4110 Pls
1048 4110 Pls
1095 4225 Pls
1142 4110 Pls
1188 4110 Pls
1235 4187 Pls
1282 4187 Pls
1329 4110 Pls
1375 4110 Pls
1422 4110 Pls
1469 4110 Pls
1516 4110 Pls
1563 4225 Pls
1609 4148 Pls
1656 4110 Pls
1703 4071 Pls
1750 4110 Pls
1797 4110 Pls
1843 4110 Pls
1890 4148 Pls
1937 4071 Pls
1984 4110 Pls
2031 4148 Pls
2077 4071 Pls
2124 4110 Pls
2171 4110 Pls
2218 4148 Pls
2264 4110 Pls
2311 4110 Pls
2358 4110 Pls
2405 4110 Pls
2452 4110 Pls
2498 4302 Pls
2545 4071 Pls
2592 4148 Pls
2639 4110 Pls
2686 4110 Pls
2732 4110 Pls
2779 4110 Pls
2826 4071 Pls
2873 4071 Pls
2920 4110 Pls
2966 4187 Pls
3013 4071 Pls
3060 4110 Pls
3107 4110 Pls
3153 4110 Pls
3200 4187 Pls
3247 4148 Pls
3294 4071 Pls
3341 4071 Pls
3387 4110 Pls
3434 4148 Pls
3481 4110 Pls
3528 4110 Pls
3575 4110 Pls
3621 4071 Pls
3668 4071 Pls
3715 4110 Pls
3762 4110 Pls
3809 4110 Pls
3855 4341 Pls
3902 4264 Pls
3949 4148 Pls
3996 4110 Pls
4042 4110 Pls
4089 4110 Pls
4136 4071 Pls
4183 4110 Pls
4230 4110 Pls
4276 4110 Pls
4370 4302 Pls
4417 4110 Pls
4464 4110 Pls
4510 4110 Pls
4557 4071 Pls
4604 4110 Pls
4651 4071 Pls
4697 4071 Pls
4744 4071 Pls
4791 4110 Pls
4838 4148 Pls
4885 4110 Pls
4931 4110 Pls
4978 4071 Pls
5025 4071 Pls
5072 4148 Pls
5119 4110 Pls
5165 4110 Pls
5212 4110 Pls
5259 4071 Pls
5306 4187 Pls
5353 4110 Pls
5399 4071 Pls
5446 4110 Pls
5493 4110 Pls
5540 4110 Pls
5586 4110 Pls
5633 4110 Pls
5680 4110 Pls
5727 4110 Pls
5774 4148 Pls
5820 4110 Pls
5867 4110 Pls
5914 4110 Pls
5961 4110 Pls
6008 4110 Pls
6054 4071 Pls
6101 4110 Pls
6148 4110 Pls
6195 4110 Pls
6242 4187 Pls
6288 4071 Pls
6335 4110 Pls
6382 4110 Pls
6429 4110 Pls
6475 4110 Pls
6522 4110 Pls
6569 4148 Pls
6616 4110 Pls
6663 4110 Pls
6709 4225 Pls
6756 4110 Pls
LTw
% End plot #1
% Begin plot #2
1.000 UP
1.000 UL
LTb
LCb setrgbcolor
[] 0 setdash
0.00 0.62 0.45 C
814 3556 Crs
861 3479 Crs
908 3474 Crs
954 3474 Crs
1001 3474 Crs
1048 3477 Crs
1095 3467 Crs
1142 3515 Crs
1188 3477 Crs
1235 3469 Crs
1282 3474 Crs
1329 3474 Crs
1375 3474 Crs
1422 3474 Crs
1469 3477 Crs
1516 3472 Crs
1563 3467 Crs
1609 3503 Crs
1656 3479 Crs
1703 3477 Crs
1750 3469 Crs
1797 3477 Crs
1843 3472 Crs
1890 3489 Crs
1937 3472 Crs
1984 3467 Crs
2031 3472 Crs
2077 3518 Crs
2124 3472 Crs
2171 3465 Crs
2218 3465 Crs
2264 3472 Crs
2311 3472 Crs
2358 3472 Crs
2405 3474 Crs
2452 3472 Crs
2498 3522 Crs
2545 3474 Crs
2592 3477 Crs
2639 3472 Crs
2686 3481 Crs
2732 3479 Crs
2779 3472 Crs
2826 3474 Crs
2873 3469 Crs
2920 3479 Crs
3013 3474 Crs
3060 3472 Crs
3107 3479 Crs
3153 3472 Crs
3200 3474 Crs
3247 3474 Crs
3294 3469 Crs
3341 3469 Crs
3387 3518 Crs
3434 3481 Crs
3481 3484 Crs
3528 3472 Crs
3575 3474 Crs
3621 3477 Crs
3668 3469 Crs
3715 3474 Crs
3762 3474 Crs
3809 3472 Crs
3855 3515 Crs
3902 3467 Crs
3949 3462 Crs
3996 3484 Crs
4042 3477 Crs
4089 3472 Crs
4136 3472 Crs
4183 3477 Crs
4230 3474 Crs
4276 3474 Crs
4323 3518 Crs
4370 3484 Crs
4417 3477 Crs
4464 3472 Crs
4510 3477 Crs
4557 3474 Crs
4604 3472 Crs
4651 3474 Crs
4697 3472 Crs
4744 3510 Crs
4791 3481 Crs
4838 3477 Crs
4885 3469 Crs
4931 3472 Crs
4978 3477 Crs
5025 3486 Crs
5072 3477 Crs
5119 3474 Crs
5165 3474 Crs
5259 3472 Crs
5306 3474 Crs
5353 3474 Crs
5399 3474 Crs
5446 3477 Crs
5493 3479 Crs
5540 3469 Crs
5586 3479 Crs
5633 3513 Crs
5680 3467 Crs
5727 3467 Crs
5774 3477 Crs
5820 3462 Crs
5867 3467 Crs
5914 3460 Crs
5961 3469 Crs
6008 3465 Crs
6054 3469 Crs
6101 3520 Crs
6148 3477 Crs
6195 3479 Crs
6242 3474 Crs
6288 3477 Crs
6335 3477 Crs
6382 3474 Crs
6429 3479 Crs
6475 3477 Crs
6522 3477 Crs
6569 3510 Crs
6616 3474 Crs
6663 3472 Crs
6709 3477 Crs
6756 3474 Crs
LTw
% End plot #2
LCw setrgbcolor
1.000 4397 3711 2274 605 BoxColFill
1.000 UL
LTb
LCb setrgbcolor
[] 0 setdash
4397 3711 N
0 605 V
2274 0 V
0 -605 V
-2274 0 V
Z stroke
% Begin plot #3
1.000 UP
1.000 UL
LTb
0.58 0.00 0.83 C
LCb setrgbcolor
1.000 UP
1.000 UL
LTb
0.58 0.00 0.83 C
6243 4123 Pls
LTw
% End plot #3
% Begin plot #4
1.000 UP
1.000 UL
LTb
LCb setrgbcolor
[] 0 setdash
0.00 0.62 0.45 C
LCb setrgbcolor
1.000 UP
1.000 UL
LTb
0.00 0.62 0.45 C
6243 3903 Crs
LTw
% End plot #4
2.000 UL
LTb
LCb setrgbcolor
[] 0 setdash
1.000 UL
LTb
814 4379 N
0 -1155 V
5989 0 V
0 1155 V
-5989 0 V
Z stroke
1.000 UP
1.000 UL
LTb
1.000 UL
LTb
0.500 UL
LTa
LCa setrgbcolor
814 704 M
5989 0 V
stroke
1.000 UL
LTb
LCb setrgbcolor
[] 0 setdash
814 704 M
63 0 V
5926 0 R
-63 0 V
stroke
LTb
0.500 UL
LTa
LCa setrgbcolor
814 897 M
5989 0 V
stroke
1.000 UL
LTb
LCb setrgbcolor
[] 0 setdash
814 897 M
63 0 V
5926 0 R
-63 0 V
stroke
LTb
0.500 UL
LTa
LCa setrgbcolor
814 1089 M
5989 0 V
stroke
1.000 UL
LTb
LCb setrgbcolor
[] 0 setdash
814 1089 M
63 0 V
5926 0 R
-63 0 V
stroke
LTb
0.500 UL
LTa
LCa setrgbcolor
814 1282 M
3583 0 V
2274 0 R
132 0 V
stroke
1.000 UL
LTb
LCb setrgbcolor
[] 0 setdash
814 1282 M
63 0 V
5926 0 R
-63 0 V
stroke
LTb
0.500 UL
LTa
LCa setrgbcolor
814 1475 M
3583 0 V
2274 0 R
132 0 V
stroke
1.000 UL
LTb
LCb setrgbcolor
[] 0 setdash
814 1475 M
63 0 V
5926 0 R
-63 0 V
stroke
LTb
0.500 UL
LTa
LCa setrgbcolor
814 1667 M
3583 0 V
2274 0 R
132 0 V
stroke
1.000 UL
LTb
LCb setrgbcolor
[] 0 setdash
814 1667 M
63 0 V
5926 0 R
-63 0 V
stroke
LTb
0.500 UL
LTa
LCa setrgbcolor
814 1860 M
5989 0 V
stroke
1.000 UL
LTb
LCb setrgbcolor
[] 0 setdash
814 1860 M
63 0 V
5926 0 R
-63 0 V
stroke
LTb
0.500 UL
LTa
LCa setrgbcolor
814 704 M
0 1156 V
stroke
1.000 UL
LTb
LCb setrgbcolor
[] 0 setdash
814 704 M
0 63 V
0 1093 R
0 -63 V
stroke
LTb
0.500 UL
LTa
LCa setrgbcolor
1750 704 M
0 1156 V
stroke
1.000 UL
LTb
LCb setrgbcolor
[] 0 setdash
1750 704 M
0 63 V
0 1093 R
0 -63 V
stroke
LTb
0.500 UL
LTa
LCa setrgbcolor
2686 704 M
0 1156 V
stroke
1.000 UL
LTb
LCb setrgbcolor
[] 0 setdash
2686 704 M
0 63 V
0 1093 R
0 -63 V
stroke
LTb
0.500 UL
LTa
LCa setrgbcolor
3621 704 M
0 1156 V
stroke
1.000 UL
LTb
LCb setrgbcolor
[] 0 setdash
3621 704 M
0 63 V
0 1093 R
0 -63 V
stroke
LTb
0.500 UL
LTa
LCa setrgbcolor
4557 704 M
0 488 V
0 605 R
0 63 V
stroke
1.000 UL
LTb
LCb setrgbcolor
[] 0 setdash
4557 704 M
0 63 V
0 1093 R
0 -63 V
stroke
LTb
0.500 UL
LTa
LCa setrgbcolor
5493 704 M
0 488 V
0 605 R
0 63 V
stroke
1.000 UL
LTb
LCb setrgbcolor
[] 0 setdash
5493 704 M
0 63 V
0 1093 R
0 -63 V
stroke
LTb
0.500 UL
LTa
LCa setrgbcolor
6429 704 M
0 488 V
0 605 R
0 63 V
stroke
1.000 UL
LTb
LCb setrgbcolor
[] 0 setdash
6429 704 M
0 63 V
0 1093 R
0 -63 V
stroke
LTb
1.000 UL
LTb
814 1860 N
814 704 L
5989 0 V
0 1156 V
-5989 0 V
Z stroke
1.000 UP
1.000 UL
LTb
1.000 UL
LTb
4397 1192 N
0 605 V
2274 0 V
0 -605 V
-2274 0 V
Z stroke
% Begin plot #1
1.000 UP
1.000 UL
LTb
0.58 0.00 0.83 C
908 1821 Pls
954 1667 Pls
1001 1629 Pls
1048 1590 Pls
1095 1590 Pls
1142 1552 Pls
1188 1590 Pls
1235 1590 Pls
1282 1821 Pls
1329 1629 Pls
1375 1590 Pls
1422 1590 Pls
1469 1552 Pls
1516 1590 Pls
1563 1552 Pls
1609 1590 Pls
1656 1590 Pls
1703 1552 Pls
1750 1706 Pls
1797 1552 Pls
1843 1590 Pls
1890 1629 Pls
1937 1590 Pls
1984 1590 Pls
2031 1590 Pls
2077 1590 Pls
2124 1552 Pls
2171 1590 Pls
2218 1667 Pls
2264 1552 Pls
2311 1552 Pls
2358 1629 Pls
2405 1552 Pls
2452 1590 Pls
2498 1552 Pls
2545 1552 Pls
2592 1552 Pls
2639 1590 Pls
2686 1744 Pls
2732 1590 Pls
2779 1629 Pls
2826 1590 Pls
2873 1552 Pls
2920 1590 Pls
2966 1590 Pls
3013 1552 Pls
3060 1552 Pls
3107 1590 Pls
3153 1629 Pls
3200 1590 Pls
3247 1590 Pls
3294 1552 Pls
3341 1552 Pls
3387 1552 Pls
3434 1590 Pls
3481 1552 Pls
3528 1552 Pls
3575 1552 Pls
3621 1706 Pls
3668 1590 Pls
3715 1629 Pls
3762 1552 Pls
3809 1590 Pls
3855 1552 Pls
3902 1590 Pls
3949 1552 Pls
3996 1552 Pls
4042 1552 Pls
4089 1667 Pls
4136 1590 Pls
4183 1590 Pls
4230 1629 Pls
4276 1552 Pls
4323 1552 Pls
4370 1552 Pls
4417 1590 Pls
4464 1552 Pls
4510 1552 Pls
4557 1667 Pls
4604 1590 Pls
4651 1590 Pls
4697 1552 Pls
4744 1552 Pls
4791 1590 Pls
4838 1590 Pls
4885 1552 Pls
4931 1590 Pls
4978 1552 Pls
5025 1667 Pls
5072 1590 Pls
5119 1590 Pls
5165 1629 Pls
5212 1590 Pls
5259 1590 Pls
5306 1552 Pls
5353 1552 Pls
5399 1590 Pls
5446 1552 Pls
5493 1629 Pls
5540 1590 Pls
5586 1552 Pls
5633 1552 Pls
5680 1552 Pls
5727 1552 Pls
5774 1552 Pls
5820 1552 Pls
5867 1590 Pls
5914 1552 Pls
5961 1629 Pls
6008 1590 Pls
6054 1552 Pls
6101 1552 Pls
6148 1552 Pls
6195 1552 Pls
6242 1552 Pls
6288 1590 Pls
6335 1552 Pls
6382 1552 Pls
6429 1629 Pls
6475 1590 Pls
6522 1552 Pls
6569 1552 Pls
6616 1590 Pls
6663 1552 Pls
6709 1590 Pls
6756 1552 Pls
6803 1552 Pls
LTw
% End plot #1
% Begin plot #2
1.000 UP
1.000 UL
LTb
LCb setrgbcolor
[] 0 setdash
0.00 0.62 0.45 C
861 1060 Crs
908 979 Crs
954 962 Crs
1001 1082 Crs
1048 1087 Crs
1095 1092 Crs
1142 1089 Crs
1188 1099 Crs
1235 1092 Crs
1282 1099 Crs
1375 1104 Crs
1422 1104 Crs
1469 1111 Crs
1516 1111 Crs
1563 1113 Crs
1609 1116 Crs
1656 1113 Crs
1703 1123 Crs
1797 1133 Crs
1843 1130 Crs
1890 1140 Crs
1937 1142 Crs
1984 1145 Crs
2031 1142 Crs
2077 1147 Crs
2124 1147 Crs
2171 1152 Crs
2218 1157 Crs
2264 1154 Crs
2311 1164 Crs
2358 1162 Crs
2405 1164 Crs
2452 1169 Crs
2498 1171 Crs
2545 1212 Crs
2592 1178 Crs
2639 1174 Crs
2686 1178 Crs
2732 1183 Crs
2779 1186 Crs
2826 1181 Crs
2873 1183 Crs
2920 1193 Crs
3013 1207 Crs
3060 1198 Crs
3107 1203 Crs
3153 1210 Crs
3200 1210 Crs
3247 1212 Crs
3294 1215 Crs
3341 1217 Crs
3387 1229 Crs
3434 1222 Crs
3481 1224 Crs
3528 1231 Crs
3575 1236 Crs
3621 1236 Crs
3668 1241 Crs
3715 1243 Crs
3809 1248 Crs
3855 1256 Crs
3902 1253 Crs
3949 1253 Crs
3996 1256 Crs
4042 1263 Crs
4089 1263 Crs
4183 1265 Crs
4230 1270 Crs
4276 1277 Crs
4323 1275 Crs
4370 1282 Crs
4417 1284 Crs
4464 1294 Crs
4557 1284 Crs
4604 1280 Crs
4651 1284 Crs
4697 1287 Crs
4744 1301 Crs
4791 1304 Crs
4838 1304 Crs
4931 1313 Crs
4978 1313 Crs
5025 1316 Crs
5072 1316 Crs
5119 1325 Crs
5165 1328 Crs
5212 1330 Crs
5306 1337 Crs
5353 1342 Crs
5399 1335 Crs
5446 1345 Crs
5493 1342 Crs
5540 1349 Crs
5586 1354 Crs
5680 1357 Crs
5727 1357 Crs
5774 1366 Crs
5820 1455 Crs
5867 1458 Crs
5914 1470 Crs
5961 1460 Crs
6054 1463 Crs
6101 1455 Crs
6148 1460 Crs
6195 1467 Crs
6242 1487 Crs
6288 1479 Crs
6335 1477 Crs
6382 1492 Crs
6429 1482 Crs
6475 1487 Crs
6522 1492 Crs
6569 1492 Crs
6616 1494 Crs
6663 1501 Crs
6756 1511 Crs
6803 1513 Crs
LTw
% End plot #2
LCw setrgbcolor
1.000 4397 1192 2274 605 BoxColFill
1.000 UL
LTb
LCb setrgbcolor
[] 0 setdash
4397 1192 N
0 605 V
2274 0 V
0 -605 V
-2274 0 V
Z stroke
% Begin plot #3
1.000 UP
1.000 UL
LTb
0.58 0.00 0.83 C
LCb setrgbcolor
1.000 UP
1.000 UL
LTb
0.58 0.00 0.83 C
6243 1604 Pls
LTw
% End plot #3
% Begin plot #4
1.000 UP
1.000 UL
LTb
LCb setrgbcolor
[] 0 setdash
0.00 0.62 0.45 C
LCb setrgbcolor
1.000 UP
1.000 UL
LTb
0.00 0.62 0.45 C
6243 1384 Crs
LTw
% End plot #4
2.000 UL
LTb
LCb setrgbcolor
[] 0 setdash
1.000 UL
LTb
814 1860 N
814 704 L
5989 0 V
0 1156 V
-5989 0 V
Z stroke
1.000 UP
1.000 UL
LTb
stroke
grestore
end
showpage
%%Trailer
