%!PS-Adobe-2.0 EPSF-2.0
%%Title: images/clock_nanosleep_comparision.tex
%%Creator: gnuplot 5.2 patchlevel 8
%%CreationDate: Thu Mar 11 18:26:03 2021
%%DocumentFonts: 
%%BoundingBox: 50 50 410 302
%%EndComments
%%BeginProlog
/gnudict 256 dict def
gnudict begin
%
% The following true/false flags may be edited by hand if desired.
% The unit line width and grayscale image gamma correction may also be changed.
%
/Color true def
/Blacktext true def
/Solid false def
/Dashlength 1 def
/Landscape false def
/Level1 false def
/Level3 false def
/Rounded false def
/ClipToBoundingBox false def
/SuppressPDFMark false def
/TransparentPatterns false def
/gnulinewidth 5.000 def
/userlinewidth gnulinewidth def
/Gamma 1.0 def
/BackgroundColor {-1.000 -1.000 -1.000} def
%
/vshift -73 def
/dl1 {
  10.0 Dashlength userlinewidth gnulinewidth div mul mul mul
  Rounded { currentlinewidth 0.75 mul sub dup 0 le { pop 0.01 } if } if
} def
/dl2 {
  10.0 Dashlength userlinewidth gnulinewidth div mul mul mul
  Rounded { currentlinewidth 0.75 mul add } if
} def
/hpt_ 31.5 def
/vpt_ 31.5 def
/hpt hpt_ def
/vpt vpt_ def
/doclip {
  ClipToBoundingBox {
    newpath 50 50 moveto 410 50 lineto 410 302 lineto 50 302 lineto closepath
    clip
  } if
} def
%
% Gnuplot Prolog Version 5.2 (Dec 2017)
%
%/SuppressPDFMark true def
%
/M {moveto} bind def
/L {lineto} bind def
/R {rmoveto} bind def
/V {rlineto} bind def
/N {newpath moveto} bind def
/Z {closepath} bind def
/C {setrgbcolor} bind def
/f {rlineto fill} bind def
/g {setgray} bind def
/Gshow {show} def   % May be redefined later in the file to support UTF-8
/vpt2 vpt 2 mul def
/hpt2 hpt 2 mul def
/Lshow {currentpoint stroke M 0 vshift R 
	Blacktext {gsave 0 setgray textshow grestore} {textshow} ifelse} def
/Rshow {currentpoint stroke M dup stringwidth pop neg vshift R
	Blacktext {gsave 0 setgray textshow grestore} {textshow} ifelse} def
/Cshow {currentpoint stroke M dup stringwidth pop -2 div vshift R 
	Blacktext {gsave 0 setgray textshow grestore} {textshow} ifelse} def
/UP {dup vpt_ mul /vpt exch def hpt_ mul /hpt exch def
  /hpt2 hpt 2 mul def /vpt2 vpt 2 mul def} def
/DL {Color {setrgbcolor Solid {pop []} if 0 setdash}
 {pop pop pop 0 setgray Solid {pop []} if 0 setdash} ifelse} def
/BL {stroke userlinewidth 2 mul setlinewidth
	Rounded {1 setlinejoin 1 setlinecap} if} def
/AL {stroke userlinewidth 2 div setlinewidth
	Rounded {1 setlinejoin 1 setlinecap} if} def
/UL {dup gnulinewidth mul /userlinewidth exch def
	dup 1 lt {pop 1} if 10 mul /udl exch def} def
/PL {stroke userlinewidth setlinewidth
	Rounded {1 setlinejoin 1 setlinecap} if} def
3.8 setmiterlimit
% Classic Line colors (version 5.0)
/LCw {1 1 1} def
/LCb {0 0 0} def
/LCa {0 0 0} def
/LC0 {1 0 0} def
/LC1 {0 1 0} def
/LC2 {0 0 1} def
/LC3 {1 0 1} def
/LC4 {0 1 1} def
/LC5 {1 1 0} def
/LC6 {0 0 0} def
/LC7 {1 0.3 0} def
/LC8 {0.5 0.5 0.5} def
% Default dash patterns (version 5.0)
/LTB {BL [] LCb DL} def
/LTw {PL [] 1 setgray} def
/LTb {PL [] LCb DL} def
/LTa {AL [1 udl mul 2 udl mul] 0 setdash LCa setrgbcolor} def
/LT0 {PL [] LC0 DL} def
/LT1 {PL [2 dl1 3 dl2] LC1 DL} def
/LT2 {PL [1 dl1 1.5 dl2] LC2 DL} def
/LT3 {PL [6 dl1 2 dl2 1 dl1 2 dl2] LC3 DL} def
/LT4 {PL [1 dl1 2 dl2 6 dl1 2 dl2 1 dl1 2 dl2] LC4 DL} def
/LT5 {PL [4 dl1 2 dl2] LC5 DL} def
/LT6 {PL [1.5 dl1 1.5 dl2 1.5 dl1 1.5 dl2 1.5 dl1 6 dl2] LC6 DL} def
/LT7 {PL [3 dl1 3 dl2 1 dl1 3 dl2] LC7 DL} def
/LT8 {PL [2 dl1 2 dl2 2 dl1 6 dl2] LC8 DL} def
/SL {[] 0 setdash} def
/Pnt {stroke [] 0 setdash gsave 1 setlinecap M 0 0 V stroke grestore} def
/Dia {stroke [] 0 setdash 2 copy vpt add M
  hpt neg vpt neg V hpt vpt neg V
  hpt vpt V hpt neg vpt V closepath stroke
  Pnt} def
/Pls {stroke [] 0 setdash vpt sub M 0 vpt2 V
  currentpoint stroke M
  hpt neg vpt neg R hpt2 0 V stroke
 } def
/Box {stroke [] 0 setdash 2 copy exch hpt sub exch vpt add M
  0 vpt2 neg V hpt2 0 V 0 vpt2 V
  hpt2 neg 0 V closepath stroke
  Pnt} def
/Crs {stroke [] 0 setdash exch hpt sub exch vpt add M
  hpt2 vpt2 neg V currentpoint stroke M
  hpt2 neg 0 R hpt2 vpt2 V stroke} def
/TriU {stroke [] 0 setdash 2 copy vpt 1.12 mul add M
  hpt neg vpt -1.62 mul V
  hpt 2 mul 0 V
  hpt neg vpt 1.62 mul V closepath stroke
  Pnt} def
/Star {2 copy Pls Crs} def
/BoxF {stroke [] 0 setdash exch hpt sub exch vpt add M
  0 vpt2 neg V hpt2 0 V 0 vpt2 V
  hpt2 neg 0 V closepath fill} def
/TriUF {stroke [] 0 setdash vpt 1.12 mul add M
  hpt neg vpt -1.62 mul V
  hpt 2 mul 0 V
  hpt neg vpt 1.62 mul V closepath fill} def
/TriD {stroke [] 0 setdash 2 copy vpt 1.12 mul sub M
  hpt neg vpt 1.62 mul V
  hpt 2 mul 0 V
  hpt neg vpt -1.62 mul V closepath stroke
  Pnt} def
/TriDF {stroke [] 0 setdash vpt 1.12 mul sub M
  hpt neg vpt 1.62 mul V
  hpt 2 mul 0 V
  hpt neg vpt -1.62 mul V closepath fill} def
/DiaF {stroke [] 0 setdash vpt add M
  hpt neg vpt neg V hpt vpt neg V
  hpt vpt V hpt neg vpt V closepath fill} def
/Pent {stroke [] 0 setdash 2 copy gsave
  translate 0 hpt M 4 {72 rotate 0 hpt L} repeat
  closepath stroke grestore Pnt} def
/PentF {stroke [] 0 setdash gsave
  translate 0 hpt M 4 {72 rotate 0 hpt L} repeat
  closepath fill grestore} def
/Circle {stroke [] 0 setdash 2 copy
  hpt 0 360 arc stroke Pnt} def
/CircleF {stroke [] 0 setdash hpt 0 360 arc fill} def
/C0 {BL [] 0 setdash 2 copy moveto vpt 90 450 arc} bind def
/C1 {BL [] 0 setdash 2 copy moveto
	2 copy vpt 0 90 arc closepath fill
	vpt 0 360 arc closepath} bind def
/C2 {BL [] 0 setdash 2 copy moveto
	2 copy vpt 90 180 arc closepath fill
	vpt 0 360 arc closepath} bind def
/C3 {BL [] 0 setdash 2 copy moveto
	2 copy vpt 0 180 arc closepath fill
	vpt 0 360 arc closepath} bind def
/C4 {BL [] 0 setdash 2 copy moveto
	2 copy vpt 180 270 arc closepath fill
	vpt 0 360 arc closepath} bind def
/C5 {BL [] 0 setdash 2 copy moveto
	2 copy vpt 0 90 arc
	2 copy moveto
	2 copy vpt 180 270 arc closepath fill
	vpt 0 360 arc} bind def
/C6 {BL [] 0 setdash 2 copy moveto
	2 copy vpt 90 270 arc closepath fill
	vpt 0 360 arc closepath} bind def
/C7 {BL [] 0 setdash 2 copy moveto
	2 copy vpt 0 270 arc closepath fill
	vpt 0 360 arc closepath} bind def
/C8 {BL [] 0 setdash 2 copy moveto
	2 copy vpt 270 360 arc closepath fill
	vpt 0 360 arc closepath} bind def
/C9 {BL [] 0 setdash 2 copy moveto
	2 copy vpt 270 450 arc closepath fill
	vpt 0 360 arc closepath} bind def
/C10 {BL [] 0 setdash 2 copy 2 copy moveto vpt 270 360 arc closepath fill
	2 copy moveto
	2 copy vpt 90 180 arc closepath fill
	vpt 0 360 arc closepath} bind def
/C11 {BL [] 0 setdash 2 copy moveto
	2 copy vpt 0 180 arc closepath fill
	2 copy moveto
	2 copy vpt 270 360 arc closepath fill
	vpt 0 360 arc closepath} bind def
/C12 {BL [] 0 setdash 2 copy moveto
	2 copy vpt 180 360 arc closepath fill
	vpt 0 360 arc closepath} bind def
/C13 {BL [] 0 setdash 2 copy moveto
	2 copy vpt 0 90 arc closepath fill
	2 copy moveto
	2 copy vpt 180 360 arc closepath fill
	vpt 0 360 arc closepath} bind def
/C14 {BL [] 0 setdash 2 copy moveto
	2 copy vpt 90 360 arc closepath fill
	vpt 0 360 arc} bind def
/C15 {BL [] 0 setdash 2 copy vpt 0 360 arc closepath fill
	vpt 0 360 arc closepath} bind def
/Rec {newpath 4 2 roll moveto 1 index 0 rlineto 0 exch rlineto
	neg 0 rlineto closepath} bind def
/Square {dup Rec} bind def
/Bsquare {vpt sub exch vpt sub exch vpt2 Square} bind def
/S0 {BL [] 0 setdash 2 copy moveto 0 vpt rlineto BL Bsquare} bind def
/S1 {BL [] 0 setdash 2 copy vpt Square fill Bsquare} bind def
/S2 {BL [] 0 setdash 2 copy exch vpt sub exch vpt Square fill Bsquare} bind def
/S3 {BL [] 0 setdash 2 copy exch vpt sub exch vpt2 vpt Rec fill Bsquare} bind def
/S4 {BL [] 0 setdash 2 copy exch vpt sub exch vpt sub vpt Square fill Bsquare} bind def
/S5 {BL [] 0 setdash 2 copy 2 copy vpt Square fill
	exch vpt sub exch vpt sub vpt Square fill Bsquare} bind def
/S6 {BL [] 0 setdash 2 copy exch vpt sub exch vpt sub vpt vpt2 Rec fill Bsquare} bind def
/S7 {BL [] 0 setdash 2 copy exch vpt sub exch vpt sub vpt vpt2 Rec fill
	2 copy vpt Square fill Bsquare} bind def
/S8 {BL [] 0 setdash 2 copy vpt sub vpt Square fill Bsquare} bind def
/S9 {BL [] 0 setdash 2 copy vpt sub vpt vpt2 Rec fill Bsquare} bind def
/S10 {BL [] 0 setdash 2 copy vpt sub vpt Square fill 2 copy exch vpt sub exch vpt Square fill
	Bsquare} bind def
/S11 {BL [] 0 setdash 2 copy vpt sub vpt Square fill 2 copy exch vpt sub exch vpt2 vpt Rec fill
	Bsquare} bind def
/S12 {BL [] 0 setdash 2 copy exch vpt sub exch vpt sub vpt2 vpt Rec fill Bsquare} bind def
/S13 {BL [] 0 setdash 2 copy exch vpt sub exch vpt sub vpt2 vpt Rec fill
	2 copy vpt Square fill Bsquare} bind def
/S14 {BL [] 0 setdash 2 copy exch vpt sub exch vpt sub vpt2 vpt Rec fill
	2 copy exch vpt sub exch vpt Square fill Bsquare} bind def
/S15 {BL [] 0 setdash 2 copy Bsquare fill Bsquare} bind def
/D0 {gsave translate 45 rotate 0 0 S0 stroke grestore} bind def
/D1 {gsave translate 45 rotate 0 0 S1 stroke grestore} bind def
/D2 {gsave translate 45 rotate 0 0 S2 stroke grestore} bind def
/D3 {gsave translate 45 rotate 0 0 S3 stroke grestore} bind def
/D4 {gsave translate 45 rotate 0 0 S4 stroke grestore} bind def
/D5 {gsave translate 45 rotate 0 0 S5 stroke grestore} bind def
/D6 {gsave translate 45 rotate 0 0 S6 stroke grestore} bind def
/D7 {gsave translate 45 rotate 0 0 S7 stroke grestore} bind def
/D8 {gsave translate 45 rotate 0 0 S8 stroke grestore} bind def
/D9 {gsave translate 45 rotate 0 0 S9 stroke grestore} bind def
/D10 {gsave translate 45 rotate 0 0 S10 stroke grestore} bind def
/D11 {gsave translate 45 rotate 0 0 S11 stroke grestore} bind def
/D12 {gsave translate 45 rotate 0 0 S12 stroke grestore} bind def
/D13 {gsave translate 45 rotate 0 0 S13 stroke grestore} bind def
/D14 {gsave translate 45 rotate 0 0 S14 stroke grestore} bind def
/D15 {gsave translate 45 rotate 0 0 S15 stroke grestore} bind def
/DiaE {stroke [] 0 setdash vpt add M
  hpt neg vpt neg V hpt vpt neg V
  hpt vpt V hpt neg vpt V closepath stroke} def
/BoxE {stroke [] 0 setdash exch hpt sub exch vpt add M
  0 vpt2 neg V hpt2 0 V 0 vpt2 V
  hpt2 neg 0 V closepath stroke} def
/TriUE {stroke [] 0 setdash vpt 1.12 mul add M
  hpt neg vpt -1.62 mul V
  hpt 2 mul 0 V
  hpt neg vpt 1.62 mul V closepath stroke} def
/TriDE {stroke [] 0 setdash vpt 1.12 mul sub M
  hpt neg vpt 1.62 mul V
  hpt 2 mul 0 V
  hpt neg vpt -1.62 mul V closepath stroke} def
/PentE {stroke [] 0 setdash gsave
  translate 0 hpt M 4 {72 rotate 0 hpt L} repeat
  closepath stroke grestore} def
/CircE {stroke [] 0 setdash 
  hpt 0 360 arc stroke} def
/Opaque {gsave closepath 1 setgray fill grestore 0 setgray closepath} def
/DiaW {stroke [] 0 setdash vpt add M
  hpt neg vpt neg V hpt vpt neg V
  hpt vpt V hpt neg vpt V Opaque stroke} def
/BoxW {stroke [] 0 setdash exch hpt sub exch vpt add M
  0 vpt2 neg V hpt2 0 V 0 vpt2 V
  hpt2 neg 0 V Opaque stroke} def
/TriUW {stroke [] 0 setdash vpt 1.12 mul add M
  hpt neg vpt -1.62 mul V
  hpt 2 mul 0 V
  hpt neg vpt 1.62 mul V Opaque stroke} def
/TriDW {stroke [] 0 setdash vpt 1.12 mul sub M
  hpt neg vpt 1.62 mul V
  hpt 2 mul 0 V
  hpt neg vpt -1.62 mul V Opaque stroke} def
/PentW {stroke [] 0 setdash gsave
  translate 0 hpt M 4 {72 rotate 0 hpt L} repeat
  Opaque stroke grestore} def
/CircW {stroke [] 0 setdash 
  hpt 0 360 arc Opaque stroke} def
/BoxFill {gsave Rec 1 setgray fill grestore} def
/Density {
  /Fillden exch def
  currentrgbcolor
  /ColB exch def /ColG exch def /ColR exch def
  /ColR ColR Fillden mul Fillden sub 1 add def
  /ColG ColG Fillden mul Fillden sub 1 add def
  /ColB ColB Fillden mul Fillden sub 1 add def
  ColR ColG ColB setrgbcolor} def
/BoxColFill {gsave Rec PolyFill} def
/PolyFill {gsave Density fill grestore grestore} def
/h {rlineto rlineto rlineto closepath gsave fill grestore stroke} bind def
%
% PostScript Level 1 Pattern Fill routine for rectangles
% Usage: x y w h s a XX PatternFill
%	x,y = lower left corner of box to be filled
%	w,h = width and height of box
%	  a = angle in degrees between lines and x-axis
%	 XX = 0/1 for no/yes cross-hatch
%
/PatternFill {gsave /PFa [ 9 2 roll ] def
  PFa 0 get PFa 2 get 2 div add PFa 1 get PFa 3 get 2 div add translate
  PFa 2 get -2 div PFa 3 get -2 div PFa 2 get PFa 3 get Rec
  TransparentPatterns {} {gsave 1 setgray fill grestore} ifelse
  clip
  currentlinewidth 0.5 mul setlinewidth
  /PFs PFa 2 get dup mul PFa 3 get dup mul add sqrt def
  0 0 M PFa 5 get rotate PFs -2 div dup translate
  0 1 PFs PFa 4 get div 1 add floor cvi
	{PFa 4 get mul 0 M 0 PFs V} for
  0 PFa 6 get ne {
	0 1 PFs PFa 4 get div 1 add floor cvi
	{PFa 4 get mul 0 2 1 roll M PFs 0 V} for
 } if
  stroke grestore} def
%
/languagelevel where
 {pop languagelevel} {1} ifelse
dup 2 lt
	{/InterpretLevel1 true def
	 /InterpretLevel3 false def}
	{/InterpretLevel1 Level1 def
	 2 gt
	    {/InterpretLevel3 Level3 def}
	    {/InterpretLevel3 false def}
	 ifelse }
 ifelse
%
% PostScript level 2 pattern fill definitions
%
/Level2PatternFill {
/Tile8x8 {/PaintType 2 /PatternType 1 /TilingType 1 /BBox [0 0 8 8] /XStep 8 /YStep 8}
	bind def
/KeepColor {currentrgbcolor [/Pattern /DeviceRGB] setcolorspace} bind def
<< Tile8x8
 /PaintProc {0.5 setlinewidth pop 0 0 M 8 8 L 0 8 M 8 0 L stroke} 
>> matrix makepattern
/Pat1 exch def
<< Tile8x8
 /PaintProc {0.5 setlinewidth pop 0 0 M 8 8 L 0 8 M 8 0 L stroke
	0 4 M 4 8 L 8 4 L 4 0 L 0 4 L stroke}
>> matrix makepattern
/Pat2 exch def
<< Tile8x8
 /PaintProc {0.5 setlinewidth pop 0 0 M 0 8 L
	8 8 L 8 0 L 0 0 L fill}
>> matrix makepattern
/Pat3 exch def
<< Tile8x8
 /PaintProc {0.5 setlinewidth pop -4 8 M 8 -4 L
	0 12 M 12 0 L stroke}
>> matrix makepattern
/Pat4 exch def
<< Tile8x8
 /PaintProc {0.5 setlinewidth pop -4 0 M 8 12 L
	0 -4 M 12 8 L stroke}
>> matrix makepattern
/Pat5 exch def
<< Tile8x8
 /PaintProc {0.5 setlinewidth pop -2 8 M 4 -4 L
	0 12 M 8 -4 L 4 12 M 10 0 L stroke}
>> matrix makepattern
/Pat6 exch def
<< Tile8x8
 /PaintProc {0.5 setlinewidth pop -2 0 M 4 12 L
	0 -4 M 8 12 L 4 -4 M 10 8 L stroke}
>> matrix makepattern
/Pat7 exch def
<< Tile8x8
 /PaintProc {0.5 setlinewidth pop 8 -2 M -4 4 L
	12 0 M -4 8 L 12 4 M 0 10 L stroke}
>> matrix makepattern
/Pat8 exch def
<< Tile8x8
 /PaintProc {0.5 setlinewidth pop 0 -2 M 12 4 L
	-4 0 M 12 8 L -4 4 M 8 10 L stroke}
>> matrix makepattern
/Pat9 exch def
/Pattern1 {PatternBgnd KeepColor Pat1 setpattern} bind def
/Pattern2 {PatternBgnd KeepColor Pat2 setpattern} bind def
/Pattern3 {PatternBgnd KeepColor Pat3 setpattern} bind def
/Pattern4 {PatternBgnd KeepColor Landscape {Pat5} {Pat4} ifelse setpattern} bind def
/Pattern5 {PatternBgnd KeepColor Landscape {Pat4} {Pat5} ifelse setpattern} bind def
/Pattern6 {PatternBgnd KeepColor Landscape {Pat9} {Pat6} ifelse setpattern} bind def
/Pattern7 {PatternBgnd KeepColor Landscape {Pat8} {Pat7} ifelse setpattern} bind def
} def
%
%
%End of PostScript Level 2 code
%
/PatternBgnd {
  TransparentPatterns {} {gsave 1 setgray fill grestore} ifelse
} def
%
% Substitute for Level 2 pattern fill codes with
% grayscale if Level 2 support is not selected.
%
/Level1PatternFill {
/Pattern1 {0.250 Density} bind def
/Pattern2 {0.500 Density} bind def
/Pattern3 {0.750 Density} bind def
/Pattern4 {0.125 Density} bind def
/Pattern5 {0.375 Density} bind def
/Pattern6 {0.625 Density} bind def
/Pattern7 {0.875 Density} bind def
} def
%
% Now test for support of Level 2 code
%
Level1 {Level1PatternFill} {Level2PatternFill} ifelse
%
/Symbol-Oblique /Symbol findfont [1 0 .167 1 0 0] makefont
dup length dict begin {1 index /FID eq {pop pop} {def} ifelse} forall
currentdict end definefont pop
%
Level1 SuppressPDFMark or 
{} {
/SDict 10 dict def
systemdict /pdfmark known not {
  userdict /pdfmark systemdict /cleartomark get put
} if
SDict begin [
  /Title (images/clock_nanosleep_comparision.tex)
  /Subject (gnuplot plot)
  /Creator (gnuplot 5.2 patchlevel 8)
%  /Producer (gnuplot)
%  /Keywords ()
  /CreationDate (Thu Mar 11 18:26:03 2021)
  /DOCINFO pdfmark
end
} ifelse
%
% Support for boxed text - Ethan A Merritt Sep 2016
%
/InitTextBox { userdict /TBy2 3 -1 roll put userdict /TBx2 3 -1 roll put
           userdict /TBy1 3 -1 roll put userdict /TBx1 3 -1 roll put
	   /Boxing true def } def
/ExtendTextBox { dup type /stringtype eq
    { Boxing { gsave dup false charpath pathbbox
      dup TBy2 gt {userdict /TBy2 3 -1 roll put} {pop} ifelse
      dup TBx2 gt {userdict /TBx2 3 -1 roll put} {pop} ifelse
      dup TBy1 lt {userdict /TBy1 3 -1 roll put} {pop} ifelse
      dup TBx1 lt {userdict /TBx1 3 -1 roll put} {pop} ifelse
      grestore } if }
    {} ifelse} def
/PopTextBox { newpath TBx1 TBxmargin sub TBy1 TBymargin sub M
               TBx1 TBxmargin sub TBy2 TBymargin add L
	       TBx2 TBxmargin add TBy2 TBymargin add L
	       TBx2 TBxmargin add TBy1 TBymargin sub L closepath } def
/DrawTextBox { PopTextBox stroke /Boxing false def} def
/FillTextBox { gsave PopTextBox fill grestore /Boxing false def} def
0 0 0 0 InitTextBox
/TBxmargin 20 def
/TBymargin 20 def
/Boxing false def
/textshow { ExtendTextBox Gshow } def
%
end
%%EndProlog
%%Page: 1 1
gnudict begin
gsave
doclip
50 50 translate
0.050 0.050 scale
0 setgray
newpath
1.000 UL
LTb
LCb setrgbcolor
[] 0 setdash
0.500 UL
LTa
LCa setrgbcolor
946 1047 M
5857 0 V
stroke
1.000 UL
LTb
LCb setrgbcolor
[] 0 setdash
946 1047 M
63 0 V
5794 0 R
-63 0 V
stroke
LTb
0.500 UL
LTa
LCa setrgbcolor
946 1733 M
5857 0 V
stroke
1.000 UL
LTb
LCb setrgbcolor
[] 0 setdash
946 1733 M
63 0 V
5794 0 R
-63 0 V
stroke
LTb
0.500 UL
LTa
LCa setrgbcolor
946 2419 M
5857 0 V
stroke
1.000 UL
LTb
LCb setrgbcolor
[] 0 setdash
946 2419 M
63 0 V
5794 0 R
-63 0 V
stroke
LTb
0.500 UL
LTa
LCa setrgbcolor
946 3104 M
5857 0 V
stroke
1.000 UL
LTb
LCb setrgbcolor
[] 0 setdash
946 3104 M
63 0 V
5794 0 R
-63 0 V
stroke
LTb
0.500 UL
LTa
LCa setrgbcolor
946 3790 M
5857 0 V
stroke
1.000 UL
LTb
LCb setrgbcolor
[] 0 setdash
946 3790 M
63 0 V
5794 0 R
-63 0 V
stroke
LTb
0.500 UL
LTa
LCa setrgbcolor
946 4476 M
3814 0 V
1911 0 R
132 0 V
stroke
1.000 UL
LTb
LCb setrgbcolor
[] 0 setdash
946 4476 M
63 0 V
5794 0 R
-63 0 V
stroke
LTb
0.500 UL
LTa
LCa setrgbcolor
946 704 M
0 4115 V
stroke
1.000 UL
LTb
LCb setrgbcolor
[] 0 setdash
946 704 M
0 63 V
0 4052 R
0 -63 V
stroke
LTb
0.500 UL
LTa
LCa setrgbcolor
1597 704 M
0 4115 V
stroke
1.000 UL
LTb
LCb setrgbcolor
[] 0 setdash
1597 704 M
0 63 V
0 4052 R
0 -63 V
stroke
LTb
0.500 UL
LTa
LCa setrgbcolor
2248 704 M
0 4115 V
stroke
1.000 UL
LTb
LCb setrgbcolor
[] 0 setdash
2248 704 M
0 63 V
0 4052 R
0 -63 V
stroke
LTb
0.500 UL
LTa
LCa setrgbcolor
2898 704 M
0 4115 V
stroke
1.000 UL
LTb
LCb setrgbcolor
[] 0 setdash
2898 704 M
0 63 V
0 4052 R
0 -63 V
stroke
LTb
0.500 UL
LTa
LCa setrgbcolor
3549 704 M
0 4115 V
stroke
1.000 UL
LTb
LCb setrgbcolor
[] 0 setdash
3549 704 M
0 63 V
0 4052 R
0 -63 V
stroke
LTb
0.500 UL
LTa
LCa setrgbcolor
4200 704 M
0 4115 V
stroke
1.000 UL
LTb
LCb setrgbcolor
[] 0 setdash
4200 704 M
0 63 V
0 4052 R
0 -63 V
stroke
LTb
0.500 UL
LTa
LCa setrgbcolor
4851 704 M
0 3172 V
0 880 R
0 63 V
stroke
1.000 UL
LTb
LCb setrgbcolor
[] 0 setdash
4851 704 M
0 63 V
0 4052 R
0 -63 V
stroke
LTb
0.500 UL
LTa
LCa setrgbcolor
5501 704 M
0 3172 V
0 880 R
0 63 V
stroke
1.000 UL
LTb
LCb setrgbcolor
[] 0 setdash
5501 704 M
0 63 V
0 4052 R
0 -63 V
stroke
LTb
0.500 UL
LTa
LCa setrgbcolor
6152 704 M
0 3172 V
0 880 R
0 63 V
stroke
1.000 UL
LTb
LCb setrgbcolor
[] 0 setdash
6152 704 M
0 63 V
0 4052 R
0 -63 V
stroke
LTb
0.500 UL
LTa
LCa setrgbcolor
6803 704 M
0 4115 V
stroke
1.000 UL
LTb
LCb setrgbcolor
[] 0 setdash
6803 704 M
0 63 V
0 4052 R
0 -63 V
stroke
LTb
1.000 UL
LTb
946 4819 N
946 704 L
5857 0 V
0 4115 V
-5857 0 V
Z stroke
1.000 UP
1.000 UL
LTb
% Begin plot #1
1.000 UL
LTb
0.58 0.00 0.83 C
LCb setrgbcolor
1.000 UL
LTb
0.58 0.00 0.83 C
5948 4646 M
591 0 V
946 3904 M
7 -375 V
6 -43 V
7 -5 V
6 0 V
7 -1 V
6 -29 V
7 2 V
6 104 V
7 -64 V
6 -34 V
7 60 V
6 -58 V
7 -19 V
6 235 V
7 -224 V
6 43 V
7 -54 V
6 35 V
7 -49 V
6 75 V
7 -90 V
6 53 V
7 -17 V
6 22 V
7 -4 V
6 -37 V
7 43 V
6 -38 V
7 42 V
6 -36 V
7 14 V
6 -6 V
7 -1 V
6 33 V
7 -28 V
6 33 V
7 -44 V
6 33 V
7 -21 V
6 -14 V
7 12 V
6 20 V
7 -35 V
6 30 V
7 -16 V
6 29 V
7 1154 V
6 -1160 V
7 9 V
6 -30 V
7 16 V
6 -33 V
7 34 V
6 44 V
7 -83 V
6 56 V
7 -59 V
6 28 V
7 -28 V
6 30 V
7 -16 V
6 25 V
7 8 V
6 -57 V
7 50 V
7 -62 V
6 62 V
7 -29 V
6 13 V
7 -17 V
6 -1 V
7 59 V
6 -49 V
7 21 V
6 -27 V
7 20 V
6 -10 V
7 -10 V
6 1 V
7 -3 V
6 8 V
7 16 V
6 16 V
7 -23 V
6 -16 V
7 7 V
6 28 V
7 -42 V
6 51 V
7 -74 V
6 57 V
7 -7 V
6 -22 V
7 30 V
6 0 V
7 17 V
6 -61 V
7 73 V
6 0 V
7 -29 V
6 4 V
7 -10 V
6 63 V
7 -97 V
6 69 V
7 -54 V
6 28 V
7 -19 V
6 -17 V
7 7 V
6 -20 V
7 55 V
6 -38 V
7 24 V
6 -21 V
7 1266 V
6 -1263 V
7 23 V
6 -28 V
7 38 V
6 -38 V
7 15 V
6 -10 V
7 -9 V
6 43 V
7 -46 V
6 29 V
7 -56 V
7 53 V
6 -4 V
7 -4 V
6 60 V
7 -48 V
6 41 V
7 -84 V
6 57 V
7 -28 V
6 8 V
7 -29 V
6 36 V
7 -4 V
6 -51 V
7 106 V
6 -77 V
7 49 V
6 -40 V
7 0 V
6 -12 V
7 -16 V
6 36 V
7 -19 V
6 28 V
7 -15 V
6 -9 V
7 26 V
6 0 V
7 -28 V
6 25 V
7 -6 V
6 -6 V
7 0 V
6 -20 V
7 36 V
6 -36 V
7 32 V
6 -25 V
7 37 V
6 -44 V
7 53 V
6 -6 V
7 -45 V
6 31 V
7 -50 V
6 73 V
7 -51 V
6 32 V
7 -22 V
6 8 V
7 16 V
6 -46 V
7 79 V
6 -46 V
7 14 V
6 -21 V
7 13 V
6 -21 V
7 1063 V
6 -965 V
7 -71 V
6 -8 V
7 -21 V
6 53 V
7 -48 V
7 7 V
6 -6 V
7 34 V
6 -48 V
7 41 V
6 -10 V
7 -26 V
6 33 V
7 -9 V
6 18 V
7 -34 V
6 14 V
7 -30 V
6 53 V
7 -16 V
6 -20 V
7 7 V
6 -45 V
7 53 V
6 -15 V
7 17 V
6 -10 V
7 15 V
6 35 V
7 -161 V
6 142 V
7 -50 V
6 43 V
7 -37 V
6 33 V
7 -41 V
6 258 V
7 -246 V
6 20 V
7 22 V
6 -29 V
7 -11 V
6 25 V
7 -33 V
6 62 V
7 -15 V
6 -35 V
7 0 V
6 -4 V
7 12 V
6 19 V
7 -39 V
6 32 V
7 -38 V
6 33 V
7 -59 V
6 65 V
7 -20 V
6 5 V
stroke 2553 3453 M
7 17 V
6 -36 V
7 16 V
6 -43 V
7 49 V
6 -28 V
7 31 V
6 -23 V
7 -5 V
6 44 V
7 -29 V
7 21 V
6 -21 V
7 14 V
6 -15 V
7 -20 V
6 9 V
7 20 V
6 -6 V
7 -1 V
6 13 V
7 -24 V
6 -53 V
7 65 V
6 18 V
7 -21 V
6 65 V
7 -92 V
6 53 V
7 -11 V
6 -32 V
7 33 V
6 -22 V
7 20 V
6 -53 V
7 54 V
6 -20 V
7 14 V
6 13 V
7 -32 V
6 6 V
7 15 V
6 31 V
7 -51 V
6 41 V
7 -30 V
6 12 V
7 -16 V
6 -2 V
7 15 V
6 -12 V
7 15 V
6 -17 V
7 -18 V
6 4 V
7 18 V
6 -9 V
7 36 V
6 -17 V
7 -2 V
6 -31 V
7 37 V
6 15 V
7 -27 V
6 29 V
7 -38 V
6 28 V
7 -67 V
6 59 V
7 13 V
6 -44 V
7 38 V
6 -67 V
7 87 V
7 -88 V
6 85 V
7 -38 V
6 16 V
7 4 V
6 -55 V
7 53 V
6 -34 V
7 38 V
6 -25 V
7 52 V
6 -12 V
7 -48 V
6 29 V
7 27 V
6 -27 V
7 -30 V
6 8 V
7 -14 V
6 15 V
7 -7 V
6 32 V
7 -48 V
6 44 V
7 -36 V
6 15 V
7 4 V
6 -23 V
7 28 V
6 -14 V
7 28 V
6 -58 V
7 49 V
6 14 V
7 -40 V
6 60 V
7 -48 V
6 38 V
7 -74 V
6 51 V
7 -20 V
6 120 V
7 -69 V
6 -57 V
7 23 V
6 -12 V
7 7 V
6 -12 V
7 -18 V
6 32 V
7 9 V
6 4 V
7 -45 V
6 46 V
7 -33 V
6 -8 V
7 14 V
6 19 V
7 -22 V
6 22 V
7 5 V
6 7 V
7 -29 V
6 4 V
7 18 V
7 -1 V
6 7 V
7 -36 V
6 48 V
7 -39 V
6 30 V
7 3 V
6 -23 V
7 22 V
6 -66 V
7 61 V
6 -36 V
7 36 V
6 -14 V
7 2 V
6 15 V
7 -57 V
6 32 V
7 26 V
6 9 V
7 -49 V
6 17 V
7 30 V
6 -16 V
7 19 V
6 -36 V
7 17 V
6 2 V
7 -31 V
6 -7 V
7 38 V
6 -21 V
7 26 V
6 -24 V
7 4 V
6 17 V
7 -16 V
6 22 V
7 -40 V
6 72 V
7 -38 V
6 8 V
7 -62 V
6 57 V
7 12 V
6 -36 V
7 21 V
6 -51 V
7 63 V
6 -68 V
7 48 V
6 -13 V
7 9 V
6 5 V
7 -41 V
6 42 V
7 -48 V
6 62 V
7 -19 V
6 70 V
7 -75 V
6 2 V
7 -19 V
7 21 V
6 6 V
7 -26 V
6 16 V
7 -21 V
6 9 V
7 -16 V
6 43 V
7 -36 V
6 25 V
7 442 V
6 -448 V
7 32 V
6 -47 V
7 40 V
6 -36 V
7 21 V
6 -50 V
7 47 V
6 21 V
7 -38 V
6 51 V
7 -72 V
6 50 V
7 -55 V
6 78 V
7 -46 V
6 4 V
7 -17 V
6 17 V
7 32 V
6 -33 V
7 39 V
6 -43 V
7 14 V
6 -14 V
7 -4 V
6 11 V
7 41 V
6 -26 V
7 -21 V
6 10 V
7 168 V
6 -170 V
7 -15 V
6 6 V
7 5 V
stroke 4174 3449 M
6 76 V
7 -51 V
6 2 V
7 -9 V
6 13 V
7 -7 V
6 -19 V
7 9 V
6 -52 V
7 60 V
6 -17 V
7 11 V
6 13 V
7 -39 V
6 33 V
7 -82 V
6 92 V
7 -17 V
7 -5 V
6 -8 V
7 -16 V
6 24 V
7 -55 V
6 79 V
7 -39 V
6 26 V
7 -11 V
6 -3 V
7 -18 V
6 42 V
7 -25 V
6 -2 V
7 -4 V
6 -30 V
7 22 V
6 -1 V
7 29 V
6 -38 V
7 40 V
6 -35 V
7 26 V
6 -26 V
7 -7 V
6 46 V
7 -16 V
6 4 V
7 -51 V
6 37 V
7 -18 V
6 21 V
7 -16 V
6 -6 V
7 51 V
6 -78 V
7 54 V
6 -10 V
7 12 V
6 -18 V
7 30 V
6 -30 V
7 -5 V
6 30 V
7 50 V
6 -21 V
7 -66 V
6 -1 V
7 10 V
6 -36 V
7 38 V
6 39 V
7 -17 V
6 -21 V
7 -10 V
6 21 V
7 19 V
6 -30 V
7 21 V
6 -13 V
7 0 V
6 -37 V
7 56 V
6 -16 V
7 1 V
7 7 V
6 13 V
7 19 V
6 -72 V
7 40 V
6 30 V
7 -15 V
6 -2 V
7 -82 V
6 94 V
7 -55 V
6 39 V
7 -23 V
6 14 V
7 -24 V
6 5 V
7 11 V
6 -15 V
7 25 V
6 -15 V
7 17 V
6 25 V
7 -50 V
6 9 V
7 12 V
6 -34 V
7 39 V
6 -24 V
7 16 V
6 -24 V
7 -4 V
6 38 V
7 -38 V
6 48 V
7 -57 V
6 39 V
7 -45 V
6 42 V
7 15 V
6 -27 V
7 18 V
6 -42 V
7 35 V
6 -11 V
7 14 V
6 -8 V
7 13 V
6 4 V
7 -41 V
6 36 V
7 -12 V
6 -1 V
7 -10 V
6 775 V
7 -774 V
6 22 V
7 -7 V
6 -8 V
7 12 V
6 -23 V
7 -2 V
6 6 V
7 24 V
7 -22 V
6 19 V
7 -8 V
6 -19 V
7 -8 V
6 19 V
7 14 V
6 11 V
7 -21 V
6 -36 V
7 46 V
6 -33 V
7 31 V
6 7 V
7 -33 V
6 26 V
7 -50 V
6 60 V
7 -29 V
6 26 V
7 -34 V
6 24 V
7 8 V
6 -59 V
7 64 V
6 -50 V
7 36 V
6 -17 V
7 0 V
6 37 V
7 20 V
6 -51 V
7 22 V
6 4 V
7 -25 V
6 -14 V
7 14 V
6 59 V
7 -5 V
6 -28 V
7 -43 V
6 60 V
7 -92 V
6 54 V
7 43 V
6 -36 V
7 12 V
6 -35 V
7 22 V
6 -51 V
7 64 V
6 43 V
7 -67 V
6 27 V
7 -55 V
6 47 V
7 -49 V
6 45 V
7 -44 V
6 64 V
7 -51 V
6 26 V
7 31 V
6 -36 V
7 14 V
7 -27 V
6 21 V
7 -3 V
6 -13 V
7 -6 V
6 35 V
7 -1 V
6 -39 V
7 13 V
6 4 V
7 -14 V
6 9 V
7 -4 V
6 -2 V
7 33 V
6 -36 V
7 29 V
6 6 V
7 -17 V
6 16 V
7 -19 V
6 42 V
7 -66 V
6 52 V
7 -4 V
6 -21 V
7 9 V
6 67 V
7 -60 V
6 -38 V
7 34 V
6 33 V
7 -26 V
6 2 V
7 -60 V
6 38 V
7 -13 V
6 28 V
stroke 5794 3465 M
7 -13 V
6 -18 V
7 15 V
6 4 V
7 -16 V
6 0 V
7 17 V
6 -21 V
7 -48 V
6 61 V
7 25 V
6 -41 V
7 45 V
6 -23 V
7 65 V
6 -88 V
7 20 V
6 11 V
7 -28 V
6 49 V
7 -71 V
6 62 V
7 -65 V
6 56 V
7 15 V
6 -41 V
7 0 V
7 -9 V
6 44 V
7 -45 V
6 15 V
7 -10 V
6 39 V
7 -20 V
6 -14 V
7 64 V
6 -36 V
7 13 V
6 -37 V
7 9 V
6 105 V
7 -75 V
6 -28 V
7 -6 V
6 12 V
7 -19 V
6 -14 V
7 10 V
6 19 V
7 -17 V
6 22 V
7 -17 V
6 25 V
7 -60 V
6 42 V
7 23 V
6 -23 V
7 21 V
6 -13 V
7 6 V
6 -76 V
7 81 V
6 -26 V
7 7 V
6 6 V
7 -45 V
6 69 V
7 -77 V
6 57 V
7 -31 V
6 24 V
7 -10 V
6 -10 V
7 48 V
6 -47 V
7 30 V
6 -20 V
7 32 V
6 -45 V
7 26 V
6 -28 V
7 38 V
6 -38 V
7 54 V
6 2 V
7 -32 V
6 9 V
7 -19 V
6 14 V
7 -11 V
7 15 V
6 -63 V
7 58 V
6 4 V
7 -9 V
6 11 V
7 -22 V
6 40 V
7 -77 V
6 59 V
7 -13 V
6 20 V
7 2 V
6 -14 V
7 3 V
6 -49 V
7 69 V
6 -39 V
7 20 V
6 -19 V
7 -11 V
6 20 V
7 -41 V
6 49 V
7 -11 V
6 24 V
7 -30 V
6 -16 V
7 26 V
6 16 V
7 -22 V
6 11 V
7 18 V
6 -20 V
7 -19 V
6 15 V
7 27 V
6 -35 V
7 25 V
6 -42 V
7 12 V
6 1317 V
7 -1255 V
6 -31 V
7 -9 V
6 31 V
7 -67 V
6 53 V
7 -42 V
6 37 V
7 -34 V
6 40 V
7 -14 V
6 -35 V
7 58 V
6 -33 V
7 23 V
6 -36 V
7 -9 V
6 6 V
7 1 V
6 30 V
7 -24 V
6 21 V
7 0 V
stroke
LTw
% End plot #1
% Begin plot #2
1.000 UL
LTb
LCb setrgbcolor
[] 0 setdash
0.00 0.62 0.45 C
LCb setrgbcolor
1.000 UL
LTb
0.00 0.62 0.45 C
5948 4426 M
591 0 V
946 1560 M
7 -136 V
6 -85 V
7 26 V
6 -22 V
7 58 V
6 -44 V
7 13 V
6 -14 V
7 2 V
6 -25 V
7 19 V
6 -27 V
7 40 V
6 -44 V
7 38 V
6 -25 V
7 25 V
6 65 V
7 81 V
6 50 V
7 -75 V
6 49 V
7 -105 V
6 45 V
7 -97 V
6 172 V
7 -136 V
6 109 V
7 -62 V
6 -3 V
7 79 V
6 123 V
7 -93 V
6 -41 V
7 234 V
6 -232 V
7 -128 V
6 453 V
7 -256 V
6 -182 V
7 -37 V
6 -54 V
7 45 V
6 -43 V
7 37 V
6 -34 V
7 30 V
6 -30 V
7 30 V
6 -13 V
7 9 V
6 -24 V
7 29 V
6 -22 V
7 16 V
6 23 V
7 7 V
6 -51 V
7 20 V
6 -20 V
7 26 V
6 -35 V
7 6 V
6 11 V
7 11 V
7 -23 V
6 6 V
7 8 V
6 256 V
7 -240 V
6 -39 V
7 43 V
6 -38 V
7 23 V
6 162 V
7 -100 V
6 -84 V
7 42 V
6 -32 V
7 12 V
6 -7 V
7 23 V
6 -37 V
7 35 V
6 -15 V
7 8 V
6 -17 V
7 39 V
6 -34 V
7 9 V
6 1 V
7 9 V
6 -28 V
7 29 V
6 25 V
7 -16 V
6 -41 V
7 162 V
6 -154 V
7 -9 V
6 16 V
7 -15 V
6 11 V
7 -19 V
6 6 V
7 11 V
6 1 V
7 -10 V
6 10 V
7 18 V
6 -18 V
7 6 V
6 16 V
7 76 V
6 -87 V
7 21 V
6 -3 V
7 7 V
6 -37 V
7 9 V
6 -14 V
7 13 V
6 -12 V
7 14 V
6 -8 V
7 9 V
6 128 V
7 -120 V
7 -41 V
6 47 V
7 -55 V
6 31 V
7 106 V
6 -24 V
7 115 V
6 -181 V
7 -8 V
6 5 V
7 37 V
6 -45 V
7 6 V
6 -14 V
7 25 V
6 -29 V
7 35 V
6 -26 V
7 0 V
6 0 V
7 14 V
6 -17 V
7 16 V
6 -6 V
7 93 V
6 -88 V
7 5 V
6 178 V
7 -164 V
6 -64 V
7 40 V
6 -32 V
7 34 V
6 -39 V
7 68 V
6 -61 V
7 39 V
6 -27 V
7 35 V
6 -48 V
7 45 V
6 -38 V
7 33 V
6 -25 V
7 43 V
6 -54 V
7 47 V
6 -41 V
7 23 V
6 -25 V
7 29 V
6 -34 V
7 39 V
6 -34 V
7 34 V
6 -29 V
7 28 V
6 -27 V
7 209 V
6 -206 V
7 -9 V
6 29 V
7 -12 V
6 18 V
7 -2 V
7 0 V
6 -30 V
7 4 V
6 12 V
7 -3 V
6 0 V
7 2 V
6 -2 V
7 16 V
6 -23 V
7 18 V
6 -20 V
7 30 V
6 -28 V
7 18 V
6 -25 V
7 26 V
6 19 V
7 -17 V
6 -18 V
7 8 V
6 -16 V
7 37 V
6 -35 V
7 197 V
6 -173 V
7 -23 V
6 4 V
7 -5 V
6 8 V
7 14 V
6 -17 V
7 9 V
6 -19 V
7 6 V
6 0 V
7 11 V
6 26 V
7 -7 V
6 -25 V
7 9 V
6 -8 V
7 9 V
6 -8 V
7 7 V
6 -10 V
7 22 V
6 -26 V
7 7 V
6 8 V
7 5 V
6 -18 V
7 16 V
6 -13 V
stroke 2553 1333 M
7 16 V
6 124 V
7 -58 V
6 -100 V
7 39 V
6 -33 V
7 61 V
6 -36 V
7 8 V
6 -36 V
7 33 V
7 -30 V
6 33 V
7 -7 V
6 4 V
7 -14 V
6 15 V
7 -19 V
6 -6 V
7 8 V
6 6 V
7 26 V
6 -17 V
7 11 V
6 -30 V
7 13 V
6 -21 V
7 26 V
6 -25 V
7 26 V
6 -26 V
7 31 V
6 -40 V
7 40 V
6 -52 V
7 48 V
6 -41 V
7 39 V
6 -33 V
7 38 V
6 179 V
7 -170 V
6 -40 V
7 58 V
6 -47 V
7 25 V
6 -24 V
7 22 V
6 -27 V
7 25 V
6 -23 V
7 19 V
6 -23 V
7 21 V
6 -18 V
7 13 V
6 -10 V
7 15 V
6 -21 V
7 19 V
6 18 V
7 -4 V
6 -41 V
7 15 V
6 -16 V
7 3 V
6 18 V
7 -17 V
6 12 V
7 -4 V
6 22 V
7 -11 V
6 -3 V
7 -5 V
7 -7 V
6 33 V
7 -23 V
6 18 V
7 -14 V
6 20 V
7 -28 V
6 -11 V
7 5 V
6 -2 V
7 30 V
6 -34 V
7 34 V
6 -25 V
7 19 V
6 -26 V
7 28 V
6 -31 V
7 40 V
6 -37 V
7 7 V
6 4 V
7 -12 V
6 11 V
7 -9 V
6 -101 V
7 124 V
6 -15 V
7 14 V
6 -13 V
7 0 V
6 -4 V
7 24 V
6 -14 V
7 22 V
6 -24 V
7 5 V
6 -17 V
7 12 V
6 42 V
7 -19 V
6 284 V
7 -287 V
6 -43 V
7 37 V
6 153 V
7 -141 V
6 -49 V
7 43 V
6 -43 V
7 35 V
6 -27 V
7 19 V
6 -11 V
7 42 V
6 -32 V
7 1 V
6 -11 V
7 15 V
6 -7 V
7 8 V
6 -5 V
7 13 V
6 5 V
7 -16 V
7 -4 V
6 17 V
7 -29 V
6 94 V
7 -77 V
6 6 V
7 -18 V
6 -5 V
7 8 V
6 -16 V
7 20 V
6 -7 V
7 -2 V
6 1 V
7 4 V
6 2 V
7 -11 V
6 159 V
7 -119 V
6 -13 V
7 -7 V
6 12 V
7 -29 V
6 29 V
7 -33 V
6 30 V
7 -15 V
6 -1 V
7 -6 V
6 -5 V
7 29 V
6 -31 V
7 26 V
6 -18 V
7 23 V
6 -31 V
7 16 V
6 3 V
7 5 V
6 -18 V
7 -3 V
6 0 V
7 1 V
6 2 V
7 -5 V
6 10 V
7 -7 V
6 -4 V
7 10 V
6 31 V
7 -13 V
6 -24 V
7 24 V
6 -27 V
7 20 V
6 -11 V
7 -6 V
6 3 V
7 -5 V
6 4 V
7 -6 V
6 32 V
7 -24 V
7 1 V
6 9 V
7 -9 V
6 11 V
7 -18 V
6 14 V
7 -21 V
6 44 V
7 -54 V
6 34 V
7 -37 V
6 46 V
7 84 V
6 -176 V
7 58 V
6 39 V
7 -47 V
6 41 V
7 -28 V
6 60 V
7 -32 V
6 2 V
7 -21 V
6 21 V
7 -28 V
6 24 V
7 -24 V
6 22 V
7 -14 V
6 0 V
7 -6 V
6 -6 V
7 33 V
6 -21 V
7 6 V
6 10 V
7 7 V
6 -42 V
7 37 V
6 -49 V
7 54 V
6 -49 V
7 45 V
6 -32 V
7 30 V
6 -34 V
7 28 V
stroke 4174 1346 M
6 -37 V
7 42 V
6 -32 V
7 35 V
6 -5 V
7 16 V
6 -53 V
7 28 V
6 -30 V
7 31 V
6 -23 V
7 30 V
6 -28 V
7 22 V
6 -13 V
7 20 V
6 -27 V
7 32 V
7 -23 V
6 27 V
7 -24 V
6 10 V
7 2 V
6 -17 V
7 34 V
6 118 V
7 -149 V
6 2 V
7 -2 V
6 -8 V
7 11 V
6 2 V
7 5 V
6 8 V
7 -14 V
6 5 V
7 6 V
6 3 V
7 -19 V
6 16 V
7 -8 V
6 33 V
7 -40 V
6 46 V
7 -40 V
6 20 V
7 -31 V
6 -2 V
7 5 V
6 1 V
7 27 V
6 -28 V
7 -2 V
6 4 V
7 -5 V
6 7 V
7 -3 V
6 8 V
7 -18 V
6 51 V
7 -40 V
6 -4 V
7 -17 V
6 37 V
7 0 V
6 -16 V
7 19 V
6 -16 V
7 11 V
6 -18 V
7 25 V
6 -23 V
7 27 V
6 -25 V
7 25 V
6 -28 V
7 13 V
6 -18 V
7 21 V
6 -11 V
7 21 V
6 -23 V
7 33 V
7 -25 V
6 42 V
7 -77 V
6 38 V
7 -29 V
6 42 V
7 -46 V
6 48 V
7 -41 V
6 42 V
7 -38 V
6 21 V
7 -18 V
6 33 V
7 -21 V
6 9 V
7 -9 V
6 17 V
7 -5 V
6 12 V
7 -42 V
6 40 V
7 -30 V
6 20 V
7 -20 V
6 32 V
7 -33 V
6 5 V
7 2 V
6 1 V
7 -12 V
6 -5 V
7 42 V
6 -47 V
7 40 V
6 -42 V
7 52 V
6 59 V
7 -41 V
6 -54 V
7 14 V
6 -25 V
7 43 V
6 -21 V
7 26 V
6 -30 V
7 25 V
6 -18 V
7 14 V
6 -21 V
7 22 V
6 -21 V
7 19 V
6 -27 V
7 22 V
6 -18 V
7 17 V
6 -1 V
7 20 V
6 -49 V
7 26 V
6 -21 V
7 9 V
7 5 V
6 -2 V
7 16 V
6 -24 V
7 12 V
6 0 V
7 -7 V
6 10 V
7 -8 V
6 -9 V
7 12 V
6 0 V
7 -3 V
6 29 V
7 -24 V
6 -26 V
7 19 V
6 16 V
7 -14 V
6 3 V
7 -9 V
6 12 V
7 -3 V
6 -2 V
7 -4 V
6 2 V
7 0 V
6 -5 V
7 -2 V
6 -3 V
7 155 V
6 -151 V
7 -1 V
6 38 V
7 101 V
6 -125 V
7 -10 V
6 2 V
7 7 V
6 -10 V
7 14 V
6 -11 V
7 8 V
6 -10 V
7 13 V
6 -6 V
7 23 V
6 -26 V
7 3 V
6 -10 V
7 38 V
6 -22 V
7 24 V
6 -30 V
7 12 V
6 -25 V
7 31 V
6 -16 V
7 3 V
6 7 V
7 -7 V
6 -38 V
7 53 V
6 -37 V
7 36 V
7 -42 V
6 48 V
7 -49 V
6 50 V
7 -44 V
6 49 V
7 188 V
6 -187 V
7 -27 V
6 7 V
7 -26 V
6 20 V
7 -7 V
6 13 V
7 -27 V
6 32 V
7 -34 V
6 29 V
7 -16 V
6 9 V
7 -21 V
6 30 V
7 -17 V
6 19 V
7 -23 V
6 24 V
7 -17 V
6 146 V
7 -149 V
6 -6 V
7 10 V
6 -5 V
7 1 V
6 12 V
7 -12 V
6 31 V
7 -29 V
6 20 V
stroke 5794 1356 M
7 -24 V
6 22 V
7 -11 V
6 6 V
7 -22 V
6 10 V
7 -12 V
6 22 V
7 13 V
6 -37 V
7 25 V
6 -17 V
7 1 V
6 15 V
7 -25 V
6 1 V
7 18 V
6 -4 V
7 -10 V
6 8 V
7 -7 V
6 47 V
7 -43 V
6 0 V
7 19 V
6 -16 V
7 6 V
7 -24 V
6 -1 V
7 19 V
6 -9 V
7 13 V
6 -27 V
7 15 V
6 3 V
7 11 V
6 -11 V
7 -2 V
6 -2 V
7 6 V
6 16 V
7 -21 V
6 13 V
7 148 V
6 -127 V
7 -51 V
6 58 V
7 104 V
6 -94 V
7 -36 V
6 12 V
7 -31 V
6 32 V
7 -26 V
6 29 V
7 -37 V
6 37 V
7 -26 V
6 63 V
7 -59 V
6 13 V
7 -5 V
6 -5 V
7 -2 V
6 16 V
7 13 V
6 -11 V
7 -18 V
6 16 V
7 -26 V
6 -3 V
7 17 V
6 -9 V
7 17 V
6 -17 V
7 27 V
6 -38 V
7 36 V
6 -39 V
7 26 V
6 -37 V
7 44 V
6 -10 V
7 15 V
6 -44 V
7 45 V
6 -44 V
7 38 V
6 -23 V
7 14 V
7 -14 V
6 21 V
7 -10 V
6 10 V
7 -15 V
6 19 V
7 -26 V
6 18 V
7 -15 V
6 24 V
7 -18 V
6 5 V
7 -18 V
6 22 V
7 17 V
6 5 V
7 -34 V
6 -4 V
7 -5 V
6 27 V
7 3 V
6 -19 V
7 1 V
6 -4 V
7 -9 V
6 15 V
7 4 V
6 -11 V
7 -1 V
6 26 V
7 -13 V
6 22 V
7 -28 V
6 103 V
7 -96 V
6 21 V
7 -31 V
6 12 V
7 -10 V
6 19 V
7 -23 V
6 17 V
7 -21 V
6 21 V
7 -14 V
6 -8 V
7 23 V
6 -21 V
7 -2 V
6 12 V
7 -9 V
6 2 V
7 95 V
6 -186 V
7 103 V
6 -8 V
7 -2 V
6 3 V
7 7 V
6 -17 V
7 21 V
6 -17 V
7 41 V
6 -32 V
7 1 V
stroke
LTw
% End plot #2
% Begin plot #3
1.000 UL
LTb
LCb setrgbcolor
[] 0 setdash
0.34 0.71 0.91 C
LCb setrgbcolor
1.000 UL
LTb
0.34 0.71 0.91 C
5948 4206 M
591 0 V
946 1490 M
7 -109 V
6 8 V
7 -47 V
6 11 V
7 16 V
6 -7 V
7 -24 V
6 14 V
7 -20 V
6 23 V
7 -30 V
6 33 V
7 -33 V
6 36 V
7 -27 V
6 79 V
7 -29 V
6 -33 V
7 -19 V
6 5 V
7 -2 V
6 -1 V
7 -16 V
6 0 V
7 23 V
6 -23 V
7 23 V
6 -2 V
7 15 V
6 -29 V
7 13 V
6 -1 V
7 11 V
6 -1 V
7 -7 V
6 -4 V
7 19 V
6 -25 V
7 30 V
6 -33 V
7 22 V
6 -22 V
7 22 V
6 -25 V
7 22 V
6 -19 V
7 27 V
6 -19 V
7 2 V
6 0 V
7 -9 V
6 9 V
7 -2 V
6 12 V
7 16 V
6 -59 V
7 34 V
6 -1 V
7 1 V
6 -8 V
7 22 V
6 -23 V
7 25 V
6 -15 V
7 42 V
7 -41 V
6 2 V
7 0 V
6 6 V
7 -6 V
6 44 V
7 -59 V
6 12 V
7 -7 V
6 64 V
7 -67 V
6 22 V
7 -13 V
6 17 V
7 -35 V
6 32 V
7 -37 V
6 36 V
7 -37 V
6 47 V
7 -40 V
6 9 V
7 -7 V
6 11 V
7 -8 V
6 1 V
7 30 V
6 -29 V
7 3 V
6 32 V
7 -3 V
6 -19 V
7 20 V
6 -34 V
7 33 V
6 -35 V
7 31 V
6 -28 V
7 11 V
6 -4 V
7 9 V
6 -13 V
7 20 V
6 -12 V
7 17 V
6 -31 V
7 23 V
6 -13 V
7 42 V
6 -29 V
7 32 V
6 -43 V
7 25 V
6 -45 V
7 41 V
6 -44 V
7 63 V
6 -40 V
7 22 V
6 -29 V
7 25 V
6 -23 V
7 13 V
7 -13 V
6 19 V
7 -23 V
6 24 V
7 28 V
6 -30 V
7 -16 V
6 19 V
7 -29 V
6 25 V
7 -17 V
6 27 V
7 -38 V
6 181 V
7 -161 V
6 -5 V
7 -7 V
6 8 V
7 -15 V
6 13 V
7 -8 V
6 -14 V
7 17 V
6 153 V
7 -114 V
6 -13 V
7 -21 V
6 3 V
7 20 V
6 -24 V
7 18 V
6 -13 V
7 7 V
6 -18 V
7 16 V
6 -6 V
7 8 V
6 -18 V
7 14 V
6 -10 V
7 12 V
6 -10 V
7 9 V
6 -1 V
7 233 V
6 -227 V
7 -13 V
6 -7 V
7 12 V
6 -11 V
7 2 V
6 6 V
7 -9 V
6 11 V
7 -15 V
6 12 V
7 17 V
6 -19 V
7 17 V
6 -18 V
7 25 V
6 -31 V
7 32 V
6 -36 V
7 26 V
7 -22 V
6 8 V
7 1 V
6 12 V
7 8 V
6 -7 V
7 -17 V
6 38 V
7 -40 V
6 19 V
7 -24 V
6 19 V
7 -31 V
6 37 V
7 -23 V
6 44 V
7 178 V
6 -165 V
7 -57 V
6 36 V
7 -31 V
6 1 V
7 -3 V
6 6 V
7 15 V
6 -13 V
7 8 V
6 -18 V
7 22 V
6 -23 V
7 29 V
6 -26 V
7 34 V
6 -23 V
7 19 V
6 -28 V
7 8 V
6 -9 V
7 12 V
6 -14 V
7 4 V
6 -10 V
7 44 V
6 -54 V
7 29 V
6 -24 V
7 30 V
6 -25 V
7 20 V
6 -30 V
7 17 V
6 -8 V
7 50 V
6 -41 V
stroke 2553 1331 M
7 21 V
6 -41 V
7 71 V
6 -56 V
7 26 V
6 -26 V
7 22 V
6 -26 V
7 27 V
6 -10 V
7 6 V
7 -20 V
6 31 V
7 -29 V
6 52 V
7 -49 V
6 27 V
7 -27 V
6 18 V
7 -15 V
6 -4 V
7 21 V
6 -15 V
7 0 V
6 8 V
7 -7 V
6 15 V
7 -18 V
6 -22 V
7 25 V
6 -20 V
7 39 V
6 -15 V
7 18 V
6 -28 V
7 26 V
6 -23 V
7 5 V
6 -2 V
7 11 V
6 -15 V
7 9 V
6 -31 V
7 48 V
6 -21 V
7 14 V
6 -23 V
7 18 V
6 -18 V
7 22 V
6 -24 V
7 157 V
6 -122 V
7 -37 V
6 14 V
7 -5 V
6 45 V
7 -35 V
6 -6 V
7 -36 V
6 41 V
7 -9 V
6 2 V
7 22 V
6 -20 V
7 20 V
6 -16 V
7 12 V
6 -2 V
7 -12 V
6 -3 V
7 18 V
6 17 V
7 -15 V
7 -21 V
6 28 V
7 -35 V
6 16 V
7 7 V
6 14 V
7 112 V
6 -84 V
7 -75 V
6 36 V
7 -36 V
6 71 V
7 -68 V
6 30 V
7 -33 V
6 33 V
7 -27 V
6 28 V
7 -34 V
6 24 V
7 2 V
6 -17 V
7 18 V
6 -13 V
7 7 V
6 4 V
7 6 V
6 -24 V
7 29 V
6 -5 V
7 -12 V
6 0 V
7 10 V
6 -2 V
7 10 V
6 -12 V
7 -1 V
6 130 V
7 -120 V
6 -41 V
7 45 V
6 -8 V
7 13 V
6 -18 V
7 -3 V
6 0 V
7 18 V
6 -16 V
7 15 V
6 -24 V
7 25 V
6 -26 V
7 21 V
6 -18 V
7 14 V
6 -10 V
7 24 V
6 -31 V
7 30 V
6 -19 V
7 74 V
6 -80 V
7 -5 V
6 2 V
7 6 V
7 -13 V
6 0 V
7 10 V
6 -9 V
7 6 V
6 -2 V
7 23 V
6 -28 V
7 10 V
6 24 V
7 -20 V
6 20 V
7 -33 V
6 20 V
7 -13 V
6 4 V
7 -5 V
6 31 V
7 -1 V
6 -28 V
7 5 V
6 8 V
7 -9 V
6 1 V
7 -2 V
6 15 V
7 122 V
6 -130 V
7 -39 V
6 53 V
7 -54 V
6 50 V
7 -45 V
6 28 V
7 -26 V
6 14 V
7 -30 V
6 49 V
7 -14 V
6 -7 V
7 16 V
6 -6 V
7 13 V
6 -2 V
7 3 V
6 2 V
7 -4 V
6 -9 V
7 5 V
6 -8 V
7 9 V
6 16 V
7 -25 V
6 5 V
7 10 V
6 -7 V
7 19 V
6 -24 V
7 16 V
6 -36 V
7 50 V
6 -61 V
7 60 V
7 -35 V
6 22 V
7 -27 V
6 27 V
7 -39 V
6 32 V
7 -27 V
6 29 V
7 -12 V
6 34 V
7 -34 V
6 22 V
7 -23 V
6 19 V
7 -2 V
6 8 V
7 -34 V
6 31 V
7 -40 V
6 33 V
7 -22 V
6 16 V
7 -20 V
6 24 V
7 -26 V
6 32 V
7 -22 V
6 5 V
7 1 V
6 3 V
7 -2 V
6 -6 V
7 0 V
6 -18 V
7 57 V
6 -54 V
7 37 V
6 -38 V
7 38 V
6 -38 V
7 38 V
6 -20 V
7 22 V
6 -12 V
7 5 V
6 -6 V
7 22 V
stroke 4174 1367 M
6 -29 V
7 43 V
6 -38 V
7 18 V
6 -21 V
7 8 V
6 -18 V
7 23 V
6 -26 V
7 31 V
6 -23 V
7 -5 V
6 8 V
7 -22 V
6 12 V
7 -5 V
6 10 V
7 -3 V
7 14 V
6 -5 V
7 -11 V
6 4 V
7 -3 V
6 173 V
7 -154 V
6 7 V
7 -14 V
6 0 V
7 -1 V
6 9 V
7 -10 V
6 28 V
7 -34 V
6 18 V
7 -12 V
6 4 V
7 -16 V
6 20 V
7 -6 V
6 17 V
7 -23 V
6 13 V
7 18 V
6 -18 V
7 -39 V
6 46 V
7 -54 V
6 27 V
7 -6 V
6 19 V
7 -11 V
6 7 V
7 -10 V
6 4 V
7 10 V
6 0 V
7 9 V
6 -8 V
7 10 V
6 -24 V
7 10 V
6 -1 V
7 -6 V
6 4 V
7 12 V
6 -12 V
7 3 V
6 -5 V
7 25 V
6 -25 V
7 20 V
6 -25 V
7 16 V
6 -10 V
7 5 V
6 -18 V
7 33 V
6 -40 V
7 39 V
6 -36 V
7 32 V
6 172 V
7 -130 V
7 -63 V
6 31 V
7 -42 V
6 32 V
7 -13 V
6 5 V
7 -2 V
6 10 V
7 -18 V
6 18 V
7 -18 V
6 17 V
7 -19 V
6 88 V
7 -50 V
6 -23 V
7 -11 V
6 12 V
0 -641 V
58 0 R
1 659 V
6 -24 V
7 -9 V
6 5 V
7 2 V
6 0 V
7 -8 V
6 20 V
7 -25 V
6 26 V
7 -21 V
6 29 V
7 -16 V
6 11 V
7 -21 V
6 20 V
7 -22 V
6 16 V
7 -11 V
6 33 V
7 -38 V
6 22 V
7 -1 V
6 -3 V
7 -23 V
6 21 V
7 -31 V
6 43 V
7 -48 V
6 40 V
7 -30 V
6 6 V
7 6 V
6 -4 V
7 1 V
6 6 V
7 -5 V
7 8 V
6 -25 V
7 21 V
6 17 V
7 -11 V
6 41 V
7 -47 V
6 4 V
7 5 V
6 5 V
7 -22 V
6 28 V
7 -9 V
6 2 V
7 -12 V
6 25 V
7 -37 V
6 25 V
7 -16 V
6 28 V
7 -28 V
6 20 V
7 -34 V
6 36 V
7 -31 V
6 28 V
7 -38 V
6 40 V
7 -39 V
6 38 V
7 -43 V
6 44 V
7 -47 V
6 44 V
7 -9 V
6 10 V
7 -19 V
6 18 V
7 -22 V
6 26 V
7 -27 V
6 17 V
7 -9 V
6 11 V
7 -17 V
6 26 V
7 -18 V
6 17 V
7 -19 V
6 19 V
7 -24 V
6 26 V
7 -21 V
6 -12 V
7 9 V
6 -19 V
7 43 V
6 -6 V
7 26 V
6 251 V
7 -252 V
6 -55 V
7 31 V
6 -33 V
7 25 V
7 -8 V
6 20 V
7 -13 V
6 15 V
7 -16 V
6 6 V
7 -20 V
6 33 V
7 -21 V
6 5 V
7 -14 V
6 18 V
7 -13 V
6 14 V
7 -17 V
6 25 V
7 -33 V
6 23 V
7 -12 V
6 -3 V
7 13 V
6 21 V
7 -27 V
6 -7 V
7 2 V
6 9 V
7 -16 V
6 5 V
7 96 V
6 -73 V
7 -20 V
6 18 V
7 -22 V
6 11 V
7 -14 V
6 26 V
7 -27 V
6 27 V
7 -31 V
6 26 V
7 -19 V
6 26 V
7 -26 V
6 21 V
stroke 5833 1351 M
7 -30 V
6 29 V
7 -36 V
6 33 V
7 -33 V
6 37 V
7 -42 V
6 45 V
7 0 V
6 18 V
7 -47 V
6 31 V
7 -18 V
6 14 V
7 -9 V
6 15 V
7 -24 V
6 12 V
7 -8 V
6 -3 V
7 -4 V
7 30 V
6 -28 V
7 -5 V
6 -3 V
7 5 V
6 36 V
7 -36 V
6 2 V
7 17 V
6 9 V
7 -44 V
6 44 V
7 -41 V
6 45 V
7 -41 V
6 35 V
7 -38 V
6 42 V
7 -49 V
6 32 V
7 -30 V
6 52 V
7 -9 V
6 4 V
7 -25 V
6 21 V
7 -9 V
6 75 V
7 -77 V
6 11 V
7 -22 V
6 21 V
7 -13 V
6 9 V
7 -5 V
6 -4 V
7 -14 V
6 24 V
7 -20 V
6 12 V
7 -8 V
6 1 V
7 -9 V
6 2 V
7 11 V
6 -8 V
7 6 V
6 -1 V
7 -13 V
6 14 V
7 -8 V
6 3 V
7 -4 V
6 31 V
7 -25 V
6 22 V
7 -37 V
6 34 V
7 -20 V
6 11 V
7 -17 V
6 20 V
7 -13 V
7 -2 V
6 5 V
7 -5 V
6 21 V
7 -28 V
6 24 V
7 -30 V
6 33 V
7 -26 V
6 27 V
7 -26 V
6 32 V
7 -27 V
6 -5 V
7 -2 V
6 12 V
7 -11 V
6 4 V
7 2 V
6 -5 V
7 5 V
6 -27 V
7 22 V
6 27 V
7 4 V
6 -9 V
7 -2 V
6 0 V
7 -11 V
6 14 V
7 -25 V
6 26 V
7 -12 V
6 20 V
7 -27 V
6 13 V
7 -15 V
6 14 V
7 -10 V
6 26 V
7 -29 V
6 18 V
7 -35 V
6 47 V
7 -51 V
6 37 V
7 -35 V
6 37 V
7 -29 V
6 29 V
7 -36 V
6 34 V
7 -38 V
6 36 V
7 -12 V
6 17 V
7 -12 V
6 13 V
7 -18 V
6 16 V
7 -30 V
6 22 V
7 17 V
6 -35 V
7 16 V
stroke
LTw
% End plot #3
% Begin plot #4
1.000 UL
LTb
LCb setrgbcolor
[] 0 setdash
0.90 0.62 0.00 C
LCb setrgbcolor
1.000 UL
LTb
0.90 0.62 0.00 C
5948 3986 M
591 0 V
946 1384 M
7 -36 V
6 55 V
7 -51 V
6 16 V
7 -19 V
6 24 V
7 -38 V
6 21 V
7 36 V
6 -64 V
7 40 V
6 -52 V
7 30 V
6 -28 V
7 37 V
6 -33 V
7 98 V
6 -97 V
7 35 V
6 -26 V
7 7 V
6 12 V
7 0 V
6 0 V
7 -14 V
6 24 V
7 -16 V
6 -3 V
7 16 V
6 9 V
7 -4 V
6 -34 V
7 26 V
6 -28 V
7 19 V
6 -18 V
7 2 V
6 30 V
7 -22 V
6 17 V
7 -17 V
6 10 V
7 -9 V
6 14 V
7 -23 V
6 14 V
7 14 V
6 -23 V
7 102 V
6 -11 V
7 -80 V
6 3 V
7 27 V
6 -13 V
7 -30 V
6 26 V
7 13 V
6 -8 V
7 -36 V
6 46 V
7 -58 V
6 49 V
7 -36 V
6 16 V
7 -15 V
7 7 V
6 -16 V
7 6 V
6 0 V
7 19 V
6 8 V
7 21 V
6 -26 V
7 2 V
6 -10 V
7 5 V
6 4 V
7 11 V
6 -40 V
7 2 V
6 22 V
7 -6 V
6 75 V
7 -75 V
6 15 V
7 -33 V
6 35 V
7 -27 V
6 -10 V
7 2 V
6 18 V
7 -7 V
6 4 V
7 12 V
6 -2 V
7 -13 V
6 30 V
7 -37 V
6 34 V
7 -36 V
6 29 V
7 -26 V
6 31 V
7 -40 V
6 40 V
7 -45 V
6 31 V
7 -10 V
6 -4 V
7 32 V
6 -26 V
7 28 V
6 -34 V
7 17 V
6 -12 V
7 9 V
6 -1 V
7 -4 V
6 6 V
7 5 V
6 6 V
7 -23 V
6 18 V
7 18 V
6 -32 V
7 9 V
6 -28 V
7 24 V
7 -18 V
6 53 V
7 -76 V
6 66 V
7 -27 V
6 0 V
7 -8 V
6 26 V
7 -18 V
6 -9 V
7 3 V
6 -6 V
7 1 V
6 14 V
7 -16 V
6 31 V
7 -49 V
6 36 V
7 -22 V
6 30 V
7 3 V
6 -20 V
7 20 V
6 -3 V
7 10 V
6 -24 V
7 13 V
6 -6 V
7 17 V
6 -28 V
7 -5 V
6 44 V
7 217 V
6 -158 V
7 32 V
6 155 V
7 -166 V
6 -84 V
7 171 V
6 -27 V
7 50 V
6 -102 V
7 172 V
6 -192 V
7 30 V
6 -83 V
7 -30 V
6 -19 V
7 295 V
6 -171 V
7 26 V
6 -74 V
7 -89 V
6 200 V
7 -28 V
6 -98 V
7 -51 V
6 91 V
7 31 V
6 73 V
7 -42 V
6 91 V
7 -123 V
6 -2 V
7 -73 V
7 49 V
6 715 V
7 -781 V
6 -40 V
7 17 V
6 -43 V
7 54 V
6 38 V
7 -19 V
6 -36 V
7 1 V
6 -17 V
7 16 V
6 15 V
7 -33 V
6 2 V
7 9 V
6 -8 V
7 -3 V
6 17 V
7 -8 V
6 46 V
7 -27 V
6 -11 V
7 17 V
6 -30 V
7 21 V
6 6 V
7 19 V
6 -36 V
7 31 V
6 -21 V
7 -36 V
6 33 V
7 -35 V
6 60 V
7 -51 V
6 27 V
7 -30 V
6 10 V
7 17 V
6 162 V
7 -112 V
6 -45 V
7 -12 V
6 -10 V
7 36 V
6 -43 V
7 29 V
6 3 V
7 -43 V
6 37 V
7 -26 V
6 21 V
stroke 2553 1348 M
7 50 V
6 -42 V
7 -24 V
6 -2 V
7 47 V
6 -33 V
7 19 V
6 -20 V
7 11 V
6 -11 V
7 9 V
7 -20 V
6 18 V
7 -2 V
6 -20 V
7 7 V
6 0 V
7 1 V
6 2 V
7 -6 V
6 62 V
7 -43 V
6 36 V
7 -64 V
6 35 V
7 -26 V
6 22 V
7 -9 V
6 13 V
7 -32 V
6 13 V
7 1 V
6 -11 V
7 43 V
6 -38 V
7 26 V
6 -16 V
7 14 V
6 0 V
7 -17 V
6 24 V
7 -40 V
6 28 V
7 -11 V
6 6 V
7 -6 V
6 10 V
7 14 V
6 -38 V
7 32 V
6 -18 V
7 16 V
6 154 V
7 -105 V
6 -111 V
7 39 V
6 36 V
7 -33 V
6 7 V
7 4 V
6 58 V
7 -54 V
6 77 V
7 -80 V
6 -39 V
7 58 V
6 5 V
7 5 V
6 -63 V
7 36 V
6 -29 V
7 22 V
6 -9 V
7 11 V
7 18 V
6 -30 V
7 20 V
6 -20 V
7 25 V
6 -16 V
7 15 V
6 -25 V
7 5 V
6 -3 V
7 1 V
6 15 V
7 13 V
6 -7 V
7 -10 V
6 8 V
7 -12 V
6 -12 V
7 15 V
6 -24 V
7 52 V
6 -47 V
7 39 V
6 -42 V
7 28 V
6 -6 V
7 -3 V
6 -12 V
7 6 V
6 8 V
7 -7 V
6 -2 V
7 10 V
6 14 V
7 -15 V
6 -9 V
7 28 V
6 -23 V
7 -6 V
6 -8 V
7 23 V
6 -10 V
7 22 V
6 -26 V
7 3 V
6 35 V
7 -49 V
6 31 V
7 -28 V
6 29 V
7 -17 V
6 -4 V
7 26 V
6 -28 V
7 16 V
6 -3 V
7 -11 V
6 17 V
7 6 V
6 -26 V
7 -6 V
6 35 V
7 -36 V
6 18 V
7 -16 V
7 54 V
6 -57 V
7 24 V
6 -27 V
7 15 V
6 -2 V
7 2 V
6 -2 V
7 6 V
6 -14 V
7 0 V
6 15 V
7 6 V
6 23 V
7 -18 V
6 -8 V
7 15 V
6 -22 V
7 5 V
6 -3 V
7 3 V
6 -8 V
7 3 V
6 14 V
7 -2 V
6 13 V
7 -34 V
6 37 V
7 116 V
6 -131 V
7 -31 V
6 13 V
7 10 V
6 17 V
7 -25 V
6 -10 V
7 4 V
6 8 V
7 -8 V
6 24 V
7 -54 V
6 72 V
7 -42 V
6 20 V
7 -13 V
6 13 V
7 -19 V
6 25 V
7 -19 V
6 -5 V
7 11 V
6 -1 V
7 -10 V
6 3 V
7 28 V
6 -30 V
7 20 V
6 7 V
7 -5 V
6 -8 V
7 -8 V
6 15 V
7 -8 V
7 5 V
6 -12 V
7 -4 V
6 44 V
7 15 V
6 -40 V
7 -45 V
6 42 V
7 -29 V
6 33 V
7 -42 V
6 26 V
7 -4 V
6 -8 V
7 11 V
6 -6 V
7 16 V
6 -9 V
7 1 V
6 -5 V
7 21 V
6 -15 V
7 1 V
6 11 V
7 -15 V
6 39 V
7 -54 V
6 30 V
7 0 V
6 -12 V
7 13 V
6 -15 V
7 24 V
6 -24 V
7 12 V
6 -9 V
7 56 V
6 -54 V
7 -2 V
6 7 V
7 -7 V
6 14 V
7 -15 V
6 123 V
7 -115 V
6 -13 V
7 17 V
stroke 4174 1353 M
6 -33 V
7 64 V
6 -54 V
7 15 V
6 -18 V
7 38 V
6 -41 V
7 29 V
6 -7 V
7 3 V
6 -29 V
7 26 V
6 48 V
7 -64 V
6 7 V
7 -2 V
6 9 V
7 29 V
7 -36 V
6 16 V
7 -14 V
6 12 V
7 5 V
6 4 V
7 -20 V
6 -5 V
7 31 V
6 -24 V
7 40 V
6 -48 V
7 32 V
6 -38 V
7 62 V
6 -31 V
7 -17 V
6 14 V
7 -10 V
6 -7 V
7 2 V
6 4 V
7 -10 V
6 4 V
7 14 V
6 -25 V
7 10 V
6 -15 V
7 30 V
6 -23 V
7 14 V
6 54 V
7 -26 V
6 -56 V
7 11 V
6 22 V
7 -21 V
6 41 V
7 -32 V
6 20 V
7 -27 V
6 24 V
7 -9 V
6 9 V
7 1 V
6 -27 V
7 19 V
6 -6 V
7 9 V
6 -18 V
7 37 V
6 -8 V
7 -27 V
6 7 V
7 8 V
6 -1 V
7 -18 V
6 71 V
7 -104 V
6 57 V
7 -38 V
6 29 V
7 -7 V
6 1 V
7 -2 V
7 15 V
6 15 V
7 -7 V
6 -56 V
7 60 V
6 -28 V
7 6 V
6 -1 V
7 9 V
6 -13 V
7 8 V
6 -4 V
7 -4 V
6 -1 V
7 -6 V
6 0 V
7 4 V
6 6 V
7 -18 V
6 55 V
7 -48 V
6 6 V
7 23 V
6 -8 V
7 -1 V
0 -645 V
12 0 R
1 629 V
6 34 V
7 -33 V
6 138 V
7 -130 V
6 -16 V
7 58 V
6 -59 V
7 41 V
6 -46 V
7 29 V
6 -36 V
7 31 V
6 26 V
7 -2 V
6 -32 V
7 -7 V
6 17 V
7 -11 V
6 113 V
7 -114 V
6 22 V
7 -12 V
6 -26 V
7 38 V
6 -26 V
7 14 V
6 -6 V
7 2 V
6 -6 V
7 4 V
6 28 V
7 -20 V
6 15 V
7 -22 V
6 16 V
7 -12 V
7 31 V
6 -41 V
7 32 V
6 -18 V
7 11 V
6 -12 V
7 -18 V
6 11 V
7 -14 V
6 12 V
7 -4 V
6 -8 V
7 31 V
6 -15 V
7 14 V
6 229 V
7 -216 V
6 -18 V
7 11 V
6 -41 V
7 20 V
6 -10 V
7 0 V
6 26 V
7 -14 V
6 18 V
7 -25 V
6 21 V
7 -15 V
6 13 V
7 4 V
6 -16 V
7 1 V
6 2 V
7 3 V
6 17 V
7 -23 V
6 -5 V
7 -2 V
6 14 V
7 -14 V
6 19 V
7 164 V
6 -153 V
7 -52 V
6 34 V
7 -23 V
6 86 V
7 -82 V
6 40 V
7 -47 V
6 16 V
7 15 V
6 -18 V
7 5 V
6 9 V
7 -14 V
6 34 V
7 -52 V
6 54 V
7 -54 V
6 31 V
7 1 V
6 -8 V
7 18 V
7 -24 V
6 8 V
7 1 V
6 34 V
7 -45 V
6 19 V
7 -10 V
6 -9 V
7 16 V
6 4 V
7 2 V
6 -9 V
7 4 V
6 -9 V
7 11 V
6 4 V
7 141 V
6 -136 V
7 -38 V
6 31 V
7 -27 V
6 28 V
7 -35 V
6 59 V
7 -28 V
6 10 V
7 -26 V
6 22 V
7 -16 V
6 2 V
7 -31 V
6 36 V
7 7 V
6 -24 V
7 -7 V
6 26 V
7 16 V
stroke 5788 1365 M
6 0 V
7 -23 V
6 0 V
7 -6 V
6 12 V
7 -7 V
6 -14 V
7 36 V
6 -31 V
7 29 V
6 -30 V
7 24 V
6 -27 V
7 45 V
6 -43 V
7 18 V
6 10 V
7 -19 V
6 -6 V
7 85 V
6 -26 V
7 -41 V
6 2 V
7 7 V
6 -40 V
7 22 V
6 55 V
7 -38 V
7 -52 V
6 69 V
7 -54 V
6 29 V
7 -12 V
6 -4 V
7 34 V
6 -39 V
7 17 V
6 -10 V
7 19 V
6 -14 V
7 11 V
6 17 V
7 -34 V
6 18 V
7 -20 V
6 29 V
7 -28 V
6 19 V
7 -20 V
6 0 V
7 5 V
6 -4 V
7 70 V
6 -64 V
7 27 V
6 -23 V
7 32 V
6 -43 V
7 1 V
6 -4 V
7 4 V
6 2 V
7 -3 V
6 1 V
7 -5 V
6 368 V
7 -364 V
6 -4 V
7 8 V
6 -15 V
7 21 V
6 -21 V
7 34 V
6 -10 V
7 -1 V
6 -4 V
7 -5 V
6 24 V
7 -17 V
6 20 V
7 -32 V
6 28 V
7 -26 V
6 19 V
7 -18 V
6 37 V
7 -20 V
6 -17 V
7 7 V
6 -12 V
7 21 V
7 -14 V
6 25 V
7 -1 V
6 131 V
7 -146 V
6 -2 V
7 13 V
6 -32 V
7 54 V
6 -76 V
7 57 V
6 10 V
7 -17 V
6 -38 V
7 51 V
6 -24 V
7 -12 V
6 4 V
7 0 V
6 40 V
7 -28 V
6 -22 V
7 29 V
6 -16 V
7 12 V
6 -21 V
7 11 V
6 43 V
7 -40 V
6 20 V
7 -31 V
6 37 V
7 -34 V
6 19 V
7 -19 V
6 18 V
7 -20 V
6 9 V
7 11 V
6 -6 V
7 10 V
6 -25 V
7 17 V
6 -13 V
7 -1 V
6 -6 V
7 2 V
6 48 V
7 -77 V
6 66 V
7 -64 V
6 67 V
7 -47 V
6 28 V
7 -14 V
6 3 V
7 5 V
6 -13 V
7 28 V
6 -8 V
7 3 V
6 -17 V
7 10 V
6 -4 V
7 -27 V
stroke
LTw
% End plot #4
2.000 UL
LTb
LCb setrgbcolor
[] 0 setdash
1.000 UL
LTb
946 4819 N
946 704 L
5857 0 V
0 4115 V
-5857 0 V
Z stroke
1.000 UP
1.000 UL
LTb
stroke
grestore
end
showpage
%%Trailer
