%!PS-Adobe-2.0 EPSF-2.0
%%Title: images/combined_request-response-3_sysfs.tex
%%Creator: gnuplot 5.2 patchlevel 8
%%CreationDate: Tue Apr  6 12:14:47 2021
%%DocumentFonts: 
%%BoundingBox: 50 50 410 302
%%EndComments
%%BeginProlog
/gnudict 256 dict def
gnudict begin
%
% The following true/false flags may be edited by hand if desired.
% The unit line width and grayscale image gamma correction may also be changed.
%
/Color true def
/Blacktext true def
/Solid false def
/Dashlength 1 def
/Landscape false def
/Level1 false def
/Level3 false def
/Rounded false def
/ClipToBoundingBox false def
/SuppressPDFMark false def
/TransparentPatterns false def
/gnulinewidth 5.000 def
/userlinewidth gnulinewidth def
/Gamma 1.0 def
/BackgroundColor {-1.000 -1.000 -1.000} def
%
/vshift -73 def
/dl1 {
  10.0 Dashlength userlinewidth gnulinewidth div mul mul mul
  Rounded { currentlinewidth 0.75 mul sub dup 0 le { pop 0.01 } if } if
} def
/dl2 {
  10.0 Dashlength userlinewidth gnulinewidth div mul mul mul
  Rounded { currentlinewidth 0.75 mul add } if
} def
/hpt_ 31.5 def
/vpt_ 31.5 def
/hpt hpt_ def
/vpt vpt_ def
/doclip {
  ClipToBoundingBox {
    newpath 50 50 moveto 410 50 lineto 410 302 lineto 50 302 lineto closepath
    clip
  } if
} def
%
% Gnuplot Prolog Version 5.2 (Dec 2017)
%
%/SuppressPDFMark true def
%
/M {moveto} bind def
/L {lineto} bind def
/R {rmoveto} bind def
/V {rlineto} bind def
/N {newpath moveto} bind def
/Z {closepath} bind def
/C {setrgbcolor} bind def
/f {rlineto fill} bind def
/g {setgray} bind def
/Gshow {show} def   % May be redefined later in the file to support UTF-8
/vpt2 vpt 2 mul def
/hpt2 hpt 2 mul def
/Lshow {currentpoint stroke M 0 vshift R 
	Blacktext {gsave 0 setgray textshow grestore} {textshow} ifelse} def
/Rshow {currentpoint stroke M dup stringwidth pop neg vshift R
	Blacktext {gsave 0 setgray textshow grestore} {textshow} ifelse} def
/Cshow {currentpoint stroke M dup stringwidth pop -2 div vshift R 
	Blacktext {gsave 0 setgray textshow grestore} {textshow} ifelse} def
/UP {dup vpt_ mul /vpt exch def hpt_ mul /hpt exch def
  /hpt2 hpt 2 mul def /vpt2 vpt 2 mul def} def
/DL {Color {setrgbcolor Solid {pop []} if 0 setdash}
 {pop pop pop 0 setgray Solid {pop []} if 0 setdash} ifelse} def
/BL {stroke userlinewidth 2 mul setlinewidth
	Rounded {1 setlinejoin 1 setlinecap} if} def
/AL {stroke userlinewidth 2 div setlinewidth
	Rounded {1 setlinejoin 1 setlinecap} if} def
/UL {dup gnulinewidth mul /userlinewidth exch def
	dup 1 lt {pop 1} if 10 mul /udl exch def} def
/PL {stroke userlinewidth setlinewidth
	Rounded {1 setlinejoin 1 setlinecap} if} def
3.8 setmiterlimit
% Classic Line colors (version 5.0)
/LCw {1 1 1} def
/LCb {0 0 0} def
/LCa {0 0 0} def
/LC0 {1 0 0} def
/LC1 {0 1 0} def
/LC2 {0 0 1} def
/LC3 {1 0 1} def
/LC4 {0 1 1} def
/LC5 {1 1 0} def
/LC6 {0 0 0} def
/LC7 {1 0.3 0} def
/LC8 {0.5 0.5 0.5} def
% Default dash patterns (version 5.0)
/LTB {BL [] LCb DL} def
/LTw {PL [] 1 setgray} def
/LTb {PL [] LCb DL} def
/LTa {AL [1 udl mul 2 udl mul] 0 setdash LCa setrgbcolor} def
/LT0 {PL [] LC0 DL} def
/LT1 {PL [2 dl1 3 dl2] LC1 DL} def
/LT2 {PL [1 dl1 1.5 dl2] LC2 DL} def
/LT3 {PL [6 dl1 2 dl2 1 dl1 2 dl2] LC3 DL} def
/LT4 {PL [1 dl1 2 dl2 6 dl1 2 dl2 1 dl1 2 dl2] LC4 DL} def
/LT5 {PL [4 dl1 2 dl2] LC5 DL} def
/LT6 {PL [1.5 dl1 1.5 dl2 1.5 dl1 1.5 dl2 1.5 dl1 6 dl2] LC6 DL} def
/LT7 {PL [3 dl1 3 dl2 1 dl1 3 dl2] LC7 DL} def
/LT8 {PL [2 dl1 2 dl2 2 dl1 6 dl2] LC8 DL} def
/SL {[] 0 setdash} def
/Pnt {stroke [] 0 setdash gsave 1 setlinecap M 0 0 V stroke grestore} def
/Dia {stroke [] 0 setdash 2 copy vpt add M
  hpt neg vpt neg V hpt vpt neg V
  hpt vpt V hpt neg vpt V closepath stroke
  Pnt} def
/Pls {stroke [] 0 setdash vpt sub M 0 vpt2 V
  currentpoint stroke M
  hpt neg vpt neg R hpt2 0 V stroke
 } def
/Box {stroke [] 0 setdash 2 copy exch hpt sub exch vpt add M
  0 vpt2 neg V hpt2 0 V 0 vpt2 V
  hpt2 neg 0 V closepath stroke
  Pnt} def
/Crs {stroke [] 0 setdash exch hpt sub exch vpt add M
  hpt2 vpt2 neg V currentpoint stroke M
  hpt2 neg 0 R hpt2 vpt2 V stroke} def
/TriU {stroke [] 0 setdash 2 copy vpt 1.12 mul add M
  hpt neg vpt -1.62 mul V
  hpt 2 mul 0 V
  hpt neg vpt 1.62 mul V closepath stroke
  Pnt} def
/Star {2 copy Pls Crs} def
/BoxF {stroke [] 0 setdash exch hpt sub exch vpt add M
  0 vpt2 neg V hpt2 0 V 0 vpt2 V
  hpt2 neg 0 V closepath fill} def
/TriUF {stroke [] 0 setdash vpt 1.12 mul add M
  hpt neg vpt -1.62 mul V
  hpt 2 mul 0 V
  hpt neg vpt 1.62 mul V closepath fill} def
/TriD {stroke [] 0 setdash 2 copy vpt 1.12 mul sub M
  hpt neg vpt 1.62 mul V
  hpt 2 mul 0 V
  hpt neg vpt -1.62 mul V closepath stroke
  Pnt} def
/TriDF {stroke [] 0 setdash vpt 1.12 mul sub M
  hpt neg vpt 1.62 mul V
  hpt 2 mul 0 V
  hpt neg vpt -1.62 mul V closepath fill} def
/DiaF {stroke [] 0 setdash vpt add M
  hpt neg vpt neg V hpt vpt neg V
  hpt vpt V hpt neg vpt V closepath fill} def
/Pent {stroke [] 0 setdash 2 copy gsave
  translate 0 hpt M 4 {72 rotate 0 hpt L} repeat
  closepath stroke grestore Pnt} def
/PentF {stroke [] 0 setdash gsave
  translate 0 hpt M 4 {72 rotate 0 hpt L} repeat
  closepath fill grestore} def
/Circle {stroke [] 0 setdash 2 copy
  hpt 0 360 arc stroke Pnt} def
/CircleF {stroke [] 0 setdash hpt 0 360 arc fill} def
/C0 {BL [] 0 setdash 2 copy moveto vpt 90 450 arc} bind def
/C1 {BL [] 0 setdash 2 copy moveto
	2 copy vpt 0 90 arc closepath fill
	vpt 0 360 arc closepath} bind def
/C2 {BL [] 0 setdash 2 copy moveto
	2 copy vpt 90 180 arc closepath fill
	vpt 0 360 arc closepath} bind def
/C3 {BL [] 0 setdash 2 copy moveto
	2 copy vpt 0 180 arc closepath fill
	vpt 0 360 arc closepath} bind def
/C4 {BL [] 0 setdash 2 copy moveto
	2 copy vpt 180 270 arc closepath fill
	vpt 0 360 arc closepath} bind def
/C5 {BL [] 0 setdash 2 copy moveto
	2 copy vpt 0 90 arc
	2 copy moveto
	2 copy vpt 180 270 arc closepath fill
	vpt 0 360 arc} bind def
/C6 {BL [] 0 setdash 2 copy moveto
	2 copy vpt 90 270 arc closepath fill
	vpt 0 360 arc closepath} bind def
/C7 {BL [] 0 setdash 2 copy moveto
	2 copy vpt 0 270 arc closepath fill
	vpt 0 360 arc closepath} bind def
/C8 {BL [] 0 setdash 2 copy moveto
	2 copy vpt 270 360 arc closepath fill
	vpt 0 360 arc closepath} bind def
/C9 {BL [] 0 setdash 2 copy moveto
	2 copy vpt 270 450 arc closepath fill
	vpt 0 360 arc closepath} bind def
/C10 {BL [] 0 setdash 2 copy 2 copy moveto vpt 270 360 arc closepath fill
	2 copy moveto
	2 copy vpt 90 180 arc closepath fill
	vpt 0 360 arc closepath} bind def
/C11 {BL [] 0 setdash 2 copy moveto
	2 copy vpt 0 180 arc closepath fill
	2 copy moveto
	2 copy vpt 270 360 arc closepath fill
	vpt 0 360 arc closepath} bind def
/C12 {BL [] 0 setdash 2 copy moveto
	2 copy vpt 180 360 arc closepath fill
	vpt 0 360 arc closepath} bind def
/C13 {BL [] 0 setdash 2 copy moveto
	2 copy vpt 0 90 arc closepath fill
	2 copy moveto
	2 copy vpt 180 360 arc closepath fill
	vpt 0 360 arc closepath} bind def
/C14 {BL [] 0 setdash 2 copy moveto
	2 copy vpt 90 360 arc closepath fill
	vpt 0 360 arc} bind def
/C15 {BL [] 0 setdash 2 copy vpt 0 360 arc closepath fill
	vpt 0 360 arc closepath} bind def
/Rec {newpath 4 2 roll moveto 1 index 0 rlineto 0 exch rlineto
	neg 0 rlineto closepath} bind def
/Square {dup Rec} bind def
/Bsquare {vpt sub exch vpt sub exch vpt2 Square} bind def
/S0 {BL [] 0 setdash 2 copy moveto 0 vpt rlineto BL Bsquare} bind def
/S1 {BL [] 0 setdash 2 copy vpt Square fill Bsquare} bind def
/S2 {BL [] 0 setdash 2 copy exch vpt sub exch vpt Square fill Bsquare} bind def
/S3 {BL [] 0 setdash 2 copy exch vpt sub exch vpt2 vpt Rec fill Bsquare} bind def
/S4 {BL [] 0 setdash 2 copy exch vpt sub exch vpt sub vpt Square fill Bsquare} bind def
/S5 {BL [] 0 setdash 2 copy 2 copy vpt Square fill
	exch vpt sub exch vpt sub vpt Square fill Bsquare} bind def
/S6 {BL [] 0 setdash 2 copy exch vpt sub exch vpt sub vpt vpt2 Rec fill Bsquare} bind def
/S7 {BL [] 0 setdash 2 copy exch vpt sub exch vpt sub vpt vpt2 Rec fill
	2 copy vpt Square fill Bsquare} bind def
/S8 {BL [] 0 setdash 2 copy vpt sub vpt Square fill Bsquare} bind def
/S9 {BL [] 0 setdash 2 copy vpt sub vpt vpt2 Rec fill Bsquare} bind def
/S10 {BL [] 0 setdash 2 copy vpt sub vpt Square fill 2 copy exch vpt sub exch vpt Square fill
	Bsquare} bind def
/S11 {BL [] 0 setdash 2 copy vpt sub vpt Square fill 2 copy exch vpt sub exch vpt2 vpt Rec fill
	Bsquare} bind def
/S12 {BL [] 0 setdash 2 copy exch vpt sub exch vpt sub vpt2 vpt Rec fill Bsquare} bind def
/S13 {BL [] 0 setdash 2 copy exch vpt sub exch vpt sub vpt2 vpt Rec fill
	2 copy vpt Square fill Bsquare} bind def
/S14 {BL [] 0 setdash 2 copy exch vpt sub exch vpt sub vpt2 vpt Rec fill
	2 copy exch vpt sub exch vpt Square fill Bsquare} bind def
/S15 {BL [] 0 setdash 2 copy Bsquare fill Bsquare} bind def
/D0 {gsave translate 45 rotate 0 0 S0 stroke grestore} bind def
/D1 {gsave translate 45 rotate 0 0 S1 stroke grestore} bind def
/D2 {gsave translate 45 rotate 0 0 S2 stroke grestore} bind def
/D3 {gsave translate 45 rotate 0 0 S3 stroke grestore} bind def
/D4 {gsave translate 45 rotate 0 0 S4 stroke grestore} bind def
/D5 {gsave translate 45 rotate 0 0 S5 stroke grestore} bind def
/D6 {gsave translate 45 rotate 0 0 S6 stroke grestore} bind def
/D7 {gsave translate 45 rotate 0 0 S7 stroke grestore} bind def
/D8 {gsave translate 45 rotate 0 0 S8 stroke grestore} bind def
/D9 {gsave translate 45 rotate 0 0 S9 stroke grestore} bind def
/D10 {gsave translate 45 rotate 0 0 S10 stroke grestore} bind def
/D11 {gsave translate 45 rotate 0 0 S11 stroke grestore} bind def
/D12 {gsave translate 45 rotate 0 0 S12 stroke grestore} bind def
/D13 {gsave translate 45 rotate 0 0 S13 stroke grestore} bind def
/D14 {gsave translate 45 rotate 0 0 S14 stroke grestore} bind def
/D15 {gsave translate 45 rotate 0 0 S15 stroke grestore} bind def
/DiaE {stroke [] 0 setdash vpt add M
  hpt neg vpt neg V hpt vpt neg V
  hpt vpt V hpt neg vpt V closepath stroke} def
/BoxE {stroke [] 0 setdash exch hpt sub exch vpt add M
  0 vpt2 neg V hpt2 0 V 0 vpt2 V
  hpt2 neg 0 V closepath stroke} def
/TriUE {stroke [] 0 setdash vpt 1.12 mul add M
  hpt neg vpt -1.62 mul V
  hpt 2 mul 0 V
  hpt neg vpt 1.62 mul V closepath stroke} def
/TriDE {stroke [] 0 setdash vpt 1.12 mul sub M
  hpt neg vpt 1.62 mul V
  hpt 2 mul 0 V
  hpt neg vpt -1.62 mul V closepath stroke} def
/PentE {stroke [] 0 setdash gsave
  translate 0 hpt M 4 {72 rotate 0 hpt L} repeat
  closepath stroke grestore} def
/CircE {stroke [] 0 setdash 
  hpt 0 360 arc stroke} def
/Opaque {gsave closepath 1 setgray fill grestore 0 setgray closepath} def
/DiaW {stroke [] 0 setdash vpt add M
  hpt neg vpt neg V hpt vpt neg V
  hpt vpt V hpt neg vpt V Opaque stroke} def
/BoxW {stroke [] 0 setdash exch hpt sub exch vpt add M
  0 vpt2 neg V hpt2 0 V 0 vpt2 V
  hpt2 neg 0 V Opaque stroke} def
/TriUW {stroke [] 0 setdash vpt 1.12 mul add M
  hpt neg vpt -1.62 mul V
  hpt 2 mul 0 V
  hpt neg vpt 1.62 mul V Opaque stroke} def
/TriDW {stroke [] 0 setdash vpt 1.12 mul sub M
  hpt neg vpt 1.62 mul V
  hpt 2 mul 0 V
  hpt neg vpt -1.62 mul V Opaque stroke} def
/PentW {stroke [] 0 setdash gsave
  translate 0 hpt M 4 {72 rotate 0 hpt L} repeat
  Opaque stroke grestore} def
/CircW {stroke [] 0 setdash 
  hpt 0 360 arc Opaque stroke} def
/BoxFill {gsave Rec 1 setgray fill grestore} def
/Density {
  /Fillden exch def
  currentrgbcolor
  /ColB exch def /ColG exch def /ColR exch def
  /ColR ColR Fillden mul Fillden sub 1 add def
  /ColG ColG Fillden mul Fillden sub 1 add def
  /ColB ColB Fillden mul Fillden sub 1 add def
  ColR ColG ColB setrgbcolor} def
/BoxColFill {gsave Rec PolyFill} def
/PolyFill {gsave Density fill grestore grestore} def
/h {rlineto rlineto rlineto closepath gsave fill grestore stroke} bind def
%
% PostScript Level 1 Pattern Fill routine for rectangles
% Usage: x y w h s a XX PatternFill
%	x,y = lower left corner of box to be filled
%	w,h = width and height of box
%	  a = angle in degrees between lines and x-axis
%	 XX = 0/1 for no/yes cross-hatch
%
/PatternFill {gsave /PFa [ 9 2 roll ] def
  PFa 0 get PFa 2 get 2 div add PFa 1 get PFa 3 get 2 div add translate
  PFa 2 get -2 div PFa 3 get -2 div PFa 2 get PFa 3 get Rec
  TransparentPatterns {} {gsave 1 setgray fill grestore} ifelse
  clip
  currentlinewidth 0.5 mul setlinewidth
  /PFs PFa 2 get dup mul PFa 3 get dup mul add sqrt def
  0 0 M PFa 5 get rotate PFs -2 div dup translate
  0 1 PFs PFa 4 get div 1 add floor cvi
	{PFa 4 get mul 0 M 0 PFs V} for
  0 PFa 6 get ne {
	0 1 PFs PFa 4 get div 1 add floor cvi
	{PFa 4 get mul 0 2 1 roll M PFs 0 V} for
 } if
  stroke grestore} def
%
/languagelevel where
 {pop languagelevel} {1} ifelse
dup 2 lt
	{/InterpretLevel1 true def
	 /InterpretLevel3 false def}
	{/InterpretLevel1 Level1 def
	 2 gt
	    {/InterpretLevel3 Level3 def}
	    {/InterpretLevel3 false def}
	 ifelse }
 ifelse
%
% PostScript level 2 pattern fill definitions
%
/Level2PatternFill {
/Tile8x8 {/PaintType 2 /PatternType 1 /TilingType 1 /BBox [0 0 8 8] /XStep 8 /YStep 8}
	bind def
/KeepColor {currentrgbcolor [/Pattern /DeviceRGB] setcolorspace} bind def
<< Tile8x8
 /PaintProc {0.5 setlinewidth pop 0 0 M 8 8 L 0 8 M 8 0 L stroke} 
>> matrix makepattern
/Pat1 exch def
<< Tile8x8
 /PaintProc {0.5 setlinewidth pop 0 0 M 8 8 L 0 8 M 8 0 L stroke
	0 4 M 4 8 L 8 4 L 4 0 L 0 4 L stroke}
>> matrix makepattern
/Pat2 exch def
<< Tile8x8
 /PaintProc {0.5 setlinewidth pop 0 0 M 0 8 L
	8 8 L 8 0 L 0 0 L fill}
>> matrix makepattern
/Pat3 exch def
<< Tile8x8
 /PaintProc {0.5 setlinewidth pop -4 8 M 8 -4 L
	0 12 M 12 0 L stroke}
>> matrix makepattern
/Pat4 exch def
<< Tile8x8
 /PaintProc {0.5 setlinewidth pop -4 0 M 8 12 L
	0 -4 M 12 8 L stroke}
>> matrix makepattern
/Pat5 exch def
<< Tile8x8
 /PaintProc {0.5 setlinewidth pop -2 8 M 4 -4 L
	0 12 M 8 -4 L 4 12 M 10 0 L stroke}
>> matrix makepattern
/Pat6 exch def
<< Tile8x8
 /PaintProc {0.5 setlinewidth pop -2 0 M 4 12 L
	0 -4 M 8 12 L 4 -4 M 10 8 L stroke}
>> matrix makepattern
/Pat7 exch def
<< Tile8x8
 /PaintProc {0.5 setlinewidth pop 8 -2 M -4 4 L
	12 0 M -4 8 L 12 4 M 0 10 L stroke}
>> matrix makepattern
/Pat8 exch def
<< Tile8x8
 /PaintProc {0.5 setlinewidth pop 0 -2 M 12 4 L
	-4 0 M 12 8 L -4 4 M 8 10 L stroke}
>> matrix makepattern
/Pat9 exch def
/Pattern1 {PatternBgnd KeepColor Pat1 setpattern} bind def
/Pattern2 {PatternBgnd KeepColor Pat2 setpattern} bind def
/Pattern3 {PatternBgnd KeepColor Pat3 setpattern} bind def
/Pattern4 {PatternBgnd KeepColor Landscape {Pat5} {Pat4} ifelse setpattern} bind def
/Pattern5 {PatternBgnd KeepColor Landscape {Pat4} {Pat5} ifelse setpattern} bind def
/Pattern6 {PatternBgnd KeepColor Landscape {Pat9} {Pat6} ifelse setpattern} bind def
/Pattern7 {PatternBgnd KeepColor Landscape {Pat8} {Pat7} ifelse setpattern} bind def
} def
%
%
%End of PostScript Level 2 code
%
/PatternBgnd {
  TransparentPatterns {} {gsave 1 setgray fill grestore} ifelse
} def
%
% Substitute for Level 2 pattern fill codes with
% grayscale if Level 2 support is not selected.
%
/Level1PatternFill {
/Pattern1 {0.250 Density} bind def
/Pattern2 {0.500 Density} bind def
/Pattern3 {0.750 Density} bind def
/Pattern4 {0.125 Density} bind def
/Pattern5 {0.375 Density} bind def
/Pattern6 {0.625 Density} bind def
/Pattern7 {0.875 Density} bind def
} def
%
% Now test for support of Level 2 code
%
Level1 {Level1PatternFill} {Level2PatternFill} ifelse
%
/Symbol-Oblique /Symbol findfont [1 0 .167 1 0 0] makefont
dup length dict begin {1 index /FID eq {pop pop} {def} ifelse} forall
currentdict end definefont pop
%
Level1 SuppressPDFMark or 
{} {
/SDict 10 dict def
systemdict /pdfmark known not {
  userdict /pdfmark systemdict /cleartomark get put
} if
SDict begin [
  /Title (images/combined_request-response-3_sysfs.tex)
  /Subject (gnuplot plot)
  /Creator (gnuplot 5.2 patchlevel 8)
%  /Producer (gnuplot)
%  /Keywords ()
  /CreationDate (Tue Apr  6 12:14:47 2021)
  /DOCINFO pdfmark
end
} ifelse
%
% Support for boxed text - Ethan A Merritt Sep 2016
%
/InitTextBox { userdict /TBy2 3 -1 roll put userdict /TBx2 3 -1 roll put
           userdict /TBy1 3 -1 roll put userdict /TBx1 3 -1 roll put
	   /Boxing true def } def
/ExtendTextBox { dup type /stringtype eq
    { Boxing { gsave dup false charpath pathbbox
      dup TBy2 gt {userdict /TBy2 3 -1 roll put} {pop} ifelse
      dup TBx2 gt {userdict /TBx2 3 -1 roll put} {pop} ifelse
      dup TBy1 lt {userdict /TBy1 3 -1 roll put} {pop} ifelse
      dup TBx1 lt {userdict /TBx1 3 -1 roll put} {pop} ifelse
      grestore } if }
    {} ifelse} def
/PopTextBox { newpath TBx1 TBxmargin sub TBy1 TBymargin sub M
               TBx1 TBxmargin sub TBy2 TBymargin add L
	       TBx2 TBxmargin add TBy2 TBymargin add L
	       TBx2 TBxmargin add TBy1 TBymargin sub L closepath } def
/DrawTextBox { PopTextBox stroke /Boxing false def} def
/FillTextBox { gsave PopTextBox fill grestore /Boxing false def} def
0 0 0 0 InitTextBox
/TBxmargin 20 def
/TBymargin 20 def
/Boxing false def
/textshow { ExtendTextBox Gshow } def
%
end
%%EndProlog
%%Page: 1 1
gnudict begin
gsave
doclip
50 50 translate
0.050 0.050 scale
0 setgray
newpath
1.000 UL
LTb
LCb setrgbcolor
[] 0 setdash
0.500 UL
LTa
LCa setrgbcolor
1078 704 M
5725 0 V
stroke
1.000 UL
LTb
LCb setrgbcolor
[] 0 setdash
1078 704 M
63 0 V
5662 0 R
-63 0 V
stroke
LTb
0.500 UL
LTa
LCa setrgbcolor
1078 1218 M
5725 0 V
stroke
1.000 UL
LTb
LCb setrgbcolor
[] 0 setdash
1078 1218 M
63 0 V
5662 0 R
-63 0 V
stroke
LTb
0.500 UL
LTa
LCa setrgbcolor
1078 1733 M
5725 0 V
stroke
1.000 UL
LTb
LCb setrgbcolor
[] 0 setdash
1078 1733 M
63 0 V
5662 0 R
-63 0 V
stroke
LTb
0.500 UL
LTa
LCa setrgbcolor
1078 2247 M
5725 0 V
stroke
1.000 UL
LTb
LCb setrgbcolor
[] 0 setdash
1078 2247 M
63 0 V
5662 0 R
-63 0 V
stroke
LTb
0.500 UL
LTa
LCa setrgbcolor
1078 2762 M
5725 0 V
stroke
1.000 UL
LTb
LCb setrgbcolor
[] 0 setdash
1078 2762 M
63 0 V
5662 0 R
-63 0 V
stroke
LTb
0.500 UL
LTa
LCa setrgbcolor
1078 3276 M
5725 0 V
stroke
1.000 UL
LTb
LCb setrgbcolor
[] 0 setdash
1078 3276 M
63 0 V
5662 0 R
-63 0 V
stroke
LTb
0.500 UL
LTa
LCa setrgbcolor
1078 3790 M
3583 0 V
2010 0 R
132 0 V
stroke
1.000 UL
LTb
LCb setrgbcolor
[] 0 setdash
1078 3790 M
63 0 V
5662 0 R
-63 0 V
stroke
LTb
0.500 UL
LTa
LCa setrgbcolor
1078 4305 M
3583 0 V
2010 0 R
132 0 V
stroke
1.000 UL
LTb
LCb setrgbcolor
[] 0 setdash
1078 4305 M
63 0 V
5662 0 R
-63 0 V
stroke
LTb
0.500 UL
LTa
LCa setrgbcolor
1078 4819 M
5725 0 V
stroke
1.000 UL
LTb
LCb setrgbcolor
[] 0 setdash
1078 4819 M
63 0 V
5662 0 R
-63 0 V
stroke
LTb
0.500 UL
LTa
LCa setrgbcolor
1078 704 M
0 4115 V
stroke
1.000 UL
LTb
LCb setrgbcolor
[] 0 setdash
1078 704 M
0 63 V
0 4052 R
0 -63 V
stroke
LTb
0.500 UL
LTa
LCa setrgbcolor
1651 704 M
0 4115 V
stroke
1.000 UL
LTb
LCb setrgbcolor
[] 0 setdash
1651 704 M
0 63 V
0 4052 R
0 -63 V
stroke
LTb
0.500 UL
LTa
LCa setrgbcolor
2223 704 M
0 4115 V
stroke
1.000 UL
LTb
LCb setrgbcolor
[] 0 setdash
2223 704 M
0 63 V
0 4052 R
0 -63 V
stroke
LTb
0.500 UL
LTa
LCa setrgbcolor
2796 704 M
0 4115 V
stroke
1.000 UL
LTb
LCb setrgbcolor
[] 0 setdash
2796 704 M
0 63 V
0 4052 R
0 -63 V
stroke
LTb
0.500 UL
LTa
LCa setrgbcolor
3368 704 M
0 4115 V
stroke
1.000 UL
LTb
LCb setrgbcolor
[] 0 setdash
3368 704 M
0 63 V
0 4052 R
0 -63 V
stroke
LTb
0.500 UL
LTa
LCa setrgbcolor
3941 704 M
0 4115 V
stroke
1.000 UL
LTb
LCb setrgbcolor
[] 0 setdash
3941 704 M
0 63 V
0 4052 R
0 -63 V
stroke
LTb
0.500 UL
LTa
LCa setrgbcolor
4513 704 M
0 4115 V
stroke
1.000 UL
LTb
LCb setrgbcolor
[] 0 setdash
4513 704 M
0 63 V
0 4052 R
0 -63 V
stroke
LTb
0.500 UL
LTa
LCa setrgbcolor
5086 704 M
0 3007 V
0 1045 R
0 63 V
stroke
1.000 UL
LTb
LCb setrgbcolor
[] 0 setdash
5086 704 M
0 63 V
0 4052 R
0 -63 V
stroke
LTb
0.500 UL
LTa
LCa setrgbcolor
5658 704 M
0 3007 V
0 1045 R
0 63 V
stroke
1.000 UL
LTb
LCb setrgbcolor
[] 0 setdash
5658 704 M
0 63 V
0 4052 R
0 -63 V
stroke
LTb
0.500 UL
LTa
LCa setrgbcolor
6231 704 M
0 3007 V
0 1045 R
0 63 V
stroke
1.000 UL
LTb
LCb setrgbcolor
[] 0 setdash
6231 704 M
0 63 V
0 4052 R
0 -63 V
stroke
LTb
0.500 UL
LTa
LCa setrgbcolor
6803 704 M
0 4115 V
stroke
1.000 UL
LTb
LCb setrgbcolor
[] 0 setdash
6803 704 M
0 63 V
0 4052 R
0 -63 V
stroke
LTb
1.000 UL
LTb
1078 4819 N
0 -4115 V
5725 0 V
0 4115 V
-5725 0 V
Z stroke
1.000 UP
1.000 UL
LTb
1.000 UL
LTb
4661 3711 N
0 1045 V
2010 0 V
0 -1045 V
-2010 0 V
Z stroke
% Begin plot #1
1.000 UP
1.000 UL
LTb
0.58 0.00 0.83 C
1135 3314 Pls
1193 2075 Pls
1250 2476 Pls
1307 1733 Pls
1364 1657 Pls
1422 1733 Pls
1479 1638 Pls
1536 2247 Pls
1593 1866 Pls
1651 1885 Pls
1708 1524 Pls
1765 1713 Pls
1822 1638 Pls
1880 1619 Pls
1937 1580 Pls
1994 1676 Pls
2051 2018 Pls
2109 1675 Pls
2166 1485 Pls
2223 1504 Pls
2280 1810 Pls
2338 1599 Pls
2395 1695 Pls
2452 1600 Pls
2509 1695 Pls
2567 2343 Pls
2624 1752 Pls
2681 1580 Pls
2738 1657 Pls
2796 1466 Pls
2853 1713 Pls
2910 1562 Pls
2967 1637 Pls
3025 2151 Pls
3082 1790 Pls
3139 1675 Pls
3196 1714 Pls
3254 1600 Pls
3311 1523 Pls
3368 1676 Pls
3425 1637 Pls
3483 1695 Pls
3540 2019 Pls
3597 1790 Pls
3654 1675 Pls
3712 1561 Pls
3769 1657 Pls
3826 1637 Pls
3883 1657 Pls
3941 1675 Pls
3998 1637 Pls
4055 1962 Pls
4112 1828 Pls
4170 1600 Pls
4227 1561 Pls
4284 1695 Pls
4341 1637 Pls
4399 1504 Pls
4456 1657 Pls
4513 1504 Pls
4570 1999 Pls
4628 1580 Pls
4685 1733 Pls
4742 1562 Pls
4799 1542 Pls
4857 1619 Pls
4914 1561 Pls
4971 1714 Pls
5028 1599 Pls
5086 1981 Pls
5143 1771 Pls
5200 1657 Pls
5257 1580 Pls
5315 1637 Pls
5372 1676 Pls
5429 1637 Pls
5486 1542 Pls
5544 1657 Pls
5601 2019 Pls
5658 1523 Pls
5715 1504 Pls
5773 1733 Pls
5830 1714 Pls
5887 1733 Pls
5944 1638 Pls
6002 1713 Pls
6059 2171 Pls
6116 1675 Pls
6173 1599 Pls
6231 3124 Pls
6288 1638 Pls
6345 1771 Pls
6402 1638 Pls
6460 1675 Pls
6574 2171 Pls
6631 1695 Pls
6689 1904 Pls
6746 1561 Pls
LTw
% End plot #1
% Begin plot #2
1.000 UP
1.000 UL
LTb
LCb setrgbcolor
[] 0 setdash
0.00 0.62 0.45 C
1135 2552 Crs
1193 1771 Crs
1250 1600 Crs
1307 1466 Crs
1364 1390 Crs
1422 1562 Crs
1479 1409 Crs
1536 1504 Crs
1593 1562 Crs
1708 1619 Crs
1765 1657 Crs
1822 1579 Crs
1880 1523 Crs
1937 1600 Crs
1994 1524 Crs
2051 1580 Crs
2109 1524 Crs
2166 1542 Crs
2223 1580 Crs
2280 1276 Crs
2338 1333 Crs
2395 1428 Crs
2452 1428 Crs
2509 1542 Crs
2567 1504 Crs
2624 1410 Crs
2681 1466 Crs
2738 1275 Crs
2796 1447 Crs
2853 1579 Crs
2910 1448 Crs
2967 1504 Crs
3025 1447 Crs
3082 1562 Crs
3139 1333 Crs
3254 1638 Crs
3311 1485 Crs
3368 1390 Crs
3425 1580 Crs
3483 1447 Crs
3540 1485 Crs
3597 1561 Crs
3654 1579 Crs
3712 1447 Crs
3769 1466 Crs
3826 1562 Crs
3998 2666 Crs
4055 1447 Crs
4112 1218 Crs
4170 1333 Crs
4227 1409 Crs
4284 1352 Crs
4341 1409 Crs
4399 1504 Crs
4456 1314 Crs
4513 1161 Crs
4570 1390 Crs
4628 1409 Crs
4685 1524 Crs
4742 1389 Crs
4799 1447 Crs
4857 1352 Crs
4914 1237 Crs
4971 1256 Crs
5028 1276 Crs
5086 1390 Crs
5143 1275 Crs
5200 1238 Crs
5257 1333 Crs
5315 1334 Crs
5372 1314 Crs
5429 1428 Crs
5486 1371 Crs
5544 1295 Crs
5601 1351 Crs
5658 1314 Crs
5715 1409 Crs
5773 1200 Crs
5830 1524 Crs
5887 1276 Crs
5944 1389 Crs
6002 1314 Crs
6059 1275 Crs
6116 1238 Crs
6173 1238 Crs
6231 1256 Crs
6288 1428 Crs
6345 1465 Crs
6402 1485 Crs
6460 1561 Crs
6517 1352 Crs
6574 1295 Crs
6631 1275 Crs
6689 1428 Crs
6746 1333 Crs
LTw
% End plot #2
% Begin plot #3
1.000 UP
1.000 UL
LTb
LCb setrgbcolor
[] 0 setdash
0.34 0.71 0.91 C
1135 2609 Star
1193 1809 Star
1250 1733 Star
1307 1523 Star
1364 1542 Star
1422 1333 Star
1479 1409 Star
1536 1428 Star
1593 1389 Star
1651 1390 Star
1708 2075 Star
1765 1580 Star
1822 1638 Star
1880 1466 Star
1937 1637 Star
1994 1466 Star
2051 1447 Star
2109 1352 Star
2166 1276 Star
2223 1371 Star
2280 1523 Star
2338 1503 Star
2395 1619 Star
2452 1428 Star
2509 1428 Star
2567 1542 Star
2624 1428 Star
2681 1485 Star
2738 1447 Star
2796 1409 Star
2853 1523 Star
2910 1657 Star
2967 1371 Star
3025 1599 Star
3082 1427 Star
3139 1504 Star
3196 1504 Star
3254 1618 Star
3311 1789 Star
3368 1542 Star
3425 1676 Star
3483 1619 Star
3540 1599 Star
3597 1561 Star
3654 1447 Star
3712 1409 Star
3769 1580 Star
3826 1410 Star
3883 1561 Star
3998 1789 Star
4055 1504 Star
4112 1256 Star
4170 1562 Star
4227 1466 Star
4284 1352 Star
4341 1390 Star
4399 1466 Star
4456 1447 Star
4513 1562 Star
4570 1486 Star
4628 1389 Star
4742 1541 Star
4799 1428 Star
4857 1447 Star
4914 1713 Star
4971 1466 Star
5028 1372 Star
5086 1524 Star
5143 1390 Star
5200 1599 Star
5257 1447 Star
5315 1448 Star
5372 1351 Star
5429 1428 Star
5486 1371 Star
5544 1390 Star
5601 1428 Star
5658 1524 Star
5715 1428 Star
5773 1524 Star
5830 1466 Star
5887 1296 Star
5944 1295 Star
6002 1371 Star
6059 1390 Star
6116 1447 Star
6231 1714 Star
6288 1637 Star
6345 1657 Star
6402 1447 Star
6460 1428 Star
6517 1333 Star
6574 1390 Star
6631 1256 Star
6689 1447 Star
6746 1410 Star
LTw
% End plot #3
% Begin plot #4
1.000 UP
1.000 UL
LTb
LCb setrgbcolor
[] 0 setdash
0.90 0.62 0.00 C
1135 2933 Box
1193 3904 Box
1250 2437 Box
1307 1999 Box
1364 2000 Box
1422 2037 Box
1479 2037 Box
1536 1866 Box
1593 1999 Box
1651 2133 Box
1708 1885 Box
1765 2818 Box
1822 2915 Box
1880 2113 Box
1937 1999 Box
1994 1961 Box
2051 1904 Box
2109 1885 Box
2166 1789 Box
2223 1999 Box
2280 2457 Box
2338 2895 Box
2395 2857 Box
2452 1999 Box
2509 1961 Box
2567 1943 Box
2624 2037 Box
2681 1943 Box
2738 1962 Box
2796 1905 Box
2853 1905 Box
2910 2895 Box
2967 2019 Box
3025 1866 Box
3082 1961 Box
3139 1847 Box
3196 1942 Box
3254 1905 Box
3311 1771 Box
3368 1847 Box
3425 2171 Box
3483 3276 Box
3540 1905 Box
3597 1961 Box
3654 1904 Box
3712 2019 Box
3769 1999 Box
3826 2038 Box
3883 1847 Box
3941 1885 Box
3998 1923 Box
4055 2723 Box
4112 2057 Box
4170 2056 Box
4227 1885 Box
4284 1866 Box
4341 1904 Box
4399 1943 Box
4456 1923 Box
4513 1827 Box
4570 1828 Box
4628 2532 Box
4685 2037 Box
4742 1809 Box
4799 1866 Box
4857 1981 Box
4914 1961 Box
4971 2037 Box
5028 2057 Box
5086 1942 Box
5143 1904 Box
5200 2533 Box
5257 1847 Box
5315 2113 Box
5372 1943 Box
5429 1885 Box
5486 1962 Box
5544 1942 Box
5601 2019 Box
5658 1886 Box
5715 1828 Box
5773 3067 Box
5830 1999 Box
5887 1943 Box
5944 2019 Box
6002 1961 Box
6059 1943 Box
6116 1999 Box
6173 1943 Box
6231 1923 Box
6288 1981 Box
6345 2495 Box
6402 1999 Box
6460 1904 Box
6517 1981 Box
6574 1847 Box
6631 1865 Box
6689 1886 Box
6746 1904 Box
LTw
% End plot #4
LCw setrgbcolor
1.000 4661 3711 2010 1045 BoxColFill
1.000 UL
LTb
LCb setrgbcolor
[] 0 setdash
4661 3711 N
0 1045 V
2010 0 V
0 -1045 V
-2010 0 V
Z stroke
% Begin plot #5
1.000 UP
1.000 UL
LTb
0.58 0.00 0.83 C
LCb setrgbcolor
1.000 UP
1.000 UL
LTb
0.58 0.00 0.83 C
6243 4563 Pls
LTw
% End plot #5
% Begin plot #6
1.000 UP
1.000 UL
LTb
LCb setrgbcolor
[] 0 setdash
0.00 0.62 0.45 C
LCb setrgbcolor
1.000 UP
1.000 UL
LTb
0.00 0.62 0.45 C
6243 4343 Crs
LTw
% End plot #6
% Begin plot #7
1.000 UP
1.000 UL
LTb
LCb setrgbcolor
[] 0 setdash
0.34 0.71 0.91 C
LCb setrgbcolor
1.000 UP
1.000 UL
LTb
0.34 0.71 0.91 C
6243 4123 Star
LTw
% End plot #7
% Begin plot #8
1.000 UP
1.000 UL
LTb
LCb setrgbcolor
[] 0 setdash
0.90 0.62 0.00 C
LCb setrgbcolor
1.000 UP
1.000 UL
LTb
0.90 0.62 0.00 C
6243 3903 Box
LTw
% End plot #8
2.000 UL
LTb
LCb setrgbcolor
[] 0 setdash
1.000 UL
LTb
1078 4819 N
0 -4115 V
5725 0 V
0 4115 V
-5725 0 V
Z stroke
1.000 UP
1.000 UL
LTb
stroke
grestore
end
showpage
%%Trailer
