%!PS-Adobe-2.0 EPSF-2.0
%%Title: images/seperate_request-response-3_sysfs.tex
%%Creator: gnuplot 5.2 patchlevel 8
%%CreationDate: Tue Apr  6 12:14:47 2021
%%DocumentFonts: 
%%BoundingBox: 50 50 410 302
%%EndComments
%%BeginProlog
/gnudict 256 dict def
gnudict begin
%
% The following true/false flags may be edited by hand if desired.
% The unit line width and grayscale image gamma correction may also be changed.
%
/Color true def
/Blacktext true def
/Solid false def
/Dashlength 1 def
/Landscape false def
/Level1 false def
/Level3 false def
/Rounded false def
/ClipToBoundingBox false def
/SuppressPDFMark false def
/TransparentPatterns false def
/gnulinewidth 5.000 def
/userlinewidth gnulinewidth def
/Gamma 1.0 def
/BackgroundColor {-1.000 -1.000 -1.000} def
%
/vshift -73 def
/dl1 {
  10.0 Dashlength userlinewidth gnulinewidth div mul mul mul
  Rounded { currentlinewidth 0.75 mul sub dup 0 le { pop 0.01 } if } if
} def
/dl2 {
  10.0 Dashlength userlinewidth gnulinewidth div mul mul mul
  Rounded { currentlinewidth 0.75 mul add } if
} def
/hpt_ 31.5 def
/vpt_ 31.5 def
/hpt hpt_ def
/vpt vpt_ def
/doclip {
  ClipToBoundingBox {
    newpath 50 50 moveto 410 50 lineto 410 302 lineto 50 302 lineto closepath
    clip
  } if
} def
%
% Gnuplot Prolog Version 5.2 (Dec 2017)
%
%/SuppressPDFMark true def
%
/M {moveto} bind def
/L {lineto} bind def
/R {rmoveto} bind def
/V {rlineto} bind def
/N {newpath moveto} bind def
/Z {closepath} bind def
/C {setrgbcolor} bind def
/f {rlineto fill} bind def
/g {setgray} bind def
/Gshow {show} def   % May be redefined later in the file to support UTF-8
/vpt2 vpt 2 mul def
/hpt2 hpt 2 mul def
/Lshow {currentpoint stroke M 0 vshift R 
	Blacktext {gsave 0 setgray textshow grestore} {textshow} ifelse} def
/Rshow {currentpoint stroke M dup stringwidth pop neg vshift R
	Blacktext {gsave 0 setgray textshow grestore} {textshow} ifelse} def
/Cshow {currentpoint stroke M dup stringwidth pop -2 div vshift R 
	Blacktext {gsave 0 setgray textshow grestore} {textshow} ifelse} def
/UP {dup vpt_ mul /vpt exch def hpt_ mul /hpt exch def
  /hpt2 hpt 2 mul def /vpt2 vpt 2 mul def} def
/DL {Color {setrgbcolor Solid {pop []} if 0 setdash}
 {pop pop pop 0 setgray Solid {pop []} if 0 setdash} ifelse} def
/BL {stroke userlinewidth 2 mul setlinewidth
	Rounded {1 setlinejoin 1 setlinecap} if} def
/AL {stroke userlinewidth 2 div setlinewidth
	Rounded {1 setlinejoin 1 setlinecap} if} def
/UL {dup gnulinewidth mul /userlinewidth exch def
	dup 1 lt {pop 1} if 10 mul /udl exch def} def
/PL {stroke userlinewidth setlinewidth
	Rounded {1 setlinejoin 1 setlinecap} if} def
3.8 setmiterlimit
% Classic Line colors (version 5.0)
/LCw {1 1 1} def
/LCb {0 0 0} def
/LCa {0 0 0} def
/LC0 {1 0 0} def
/LC1 {0 1 0} def
/LC2 {0 0 1} def
/LC3 {1 0 1} def
/LC4 {0 1 1} def
/LC5 {1 1 0} def
/LC6 {0 0 0} def
/LC7 {1 0.3 0} def
/LC8 {0.5 0.5 0.5} def
% Default dash patterns (version 5.0)
/LTB {BL [] LCb DL} def
/LTw {PL [] 1 setgray} def
/LTb {PL [] LCb DL} def
/LTa {AL [1 udl mul 2 udl mul] 0 setdash LCa setrgbcolor} def
/LT0 {PL [] LC0 DL} def
/LT1 {PL [2 dl1 3 dl2] LC1 DL} def
/LT2 {PL [1 dl1 1.5 dl2] LC2 DL} def
/LT3 {PL [6 dl1 2 dl2 1 dl1 2 dl2] LC3 DL} def
/LT4 {PL [1 dl1 2 dl2 6 dl1 2 dl2 1 dl1 2 dl2] LC4 DL} def
/LT5 {PL [4 dl1 2 dl2] LC5 DL} def
/LT6 {PL [1.5 dl1 1.5 dl2 1.5 dl1 1.5 dl2 1.5 dl1 6 dl2] LC6 DL} def
/LT7 {PL [3 dl1 3 dl2 1 dl1 3 dl2] LC7 DL} def
/LT8 {PL [2 dl1 2 dl2 2 dl1 6 dl2] LC8 DL} def
/SL {[] 0 setdash} def
/Pnt {stroke [] 0 setdash gsave 1 setlinecap M 0 0 V stroke grestore} def
/Dia {stroke [] 0 setdash 2 copy vpt add M
  hpt neg vpt neg V hpt vpt neg V
  hpt vpt V hpt neg vpt V closepath stroke
  Pnt} def
/Pls {stroke [] 0 setdash vpt sub M 0 vpt2 V
  currentpoint stroke M
  hpt neg vpt neg R hpt2 0 V stroke
 } def
/Box {stroke [] 0 setdash 2 copy exch hpt sub exch vpt add M
  0 vpt2 neg V hpt2 0 V 0 vpt2 V
  hpt2 neg 0 V closepath stroke
  Pnt} def
/Crs {stroke [] 0 setdash exch hpt sub exch vpt add M
  hpt2 vpt2 neg V currentpoint stroke M
  hpt2 neg 0 R hpt2 vpt2 V stroke} def
/TriU {stroke [] 0 setdash 2 copy vpt 1.12 mul add M
  hpt neg vpt -1.62 mul V
  hpt 2 mul 0 V
  hpt neg vpt 1.62 mul V closepath stroke
  Pnt} def
/Star {2 copy Pls Crs} def
/BoxF {stroke [] 0 setdash exch hpt sub exch vpt add M
  0 vpt2 neg V hpt2 0 V 0 vpt2 V
  hpt2 neg 0 V closepath fill} def
/TriUF {stroke [] 0 setdash vpt 1.12 mul add M
  hpt neg vpt -1.62 mul V
  hpt 2 mul 0 V
  hpt neg vpt 1.62 mul V closepath fill} def
/TriD {stroke [] 0 setdash 2 copy vpt 1.12 mul sub M
  hpt neg vpt 1.62 mul V
  hpt 2 mul 0 V
  hpt neg vpt -1.62 mul V closepath stroke
  Pnt} def
/TriDF {stroke [] 0 setdash vpt 1.12 mul sub M
  hpt neg vpt 1.62 mul V
  hpt 2 mul 0 V
  hpt neg vpt -1.62 mul V closepath fill} def
/DiaF {stroke [] 0 setdash vpt add M
  hpt neg vpt neg V hpt vpt neg V
  hpt vpt V hpt neg vpt V closepath fill} def
/Pent {stroke [] 0 setdash 2 copy gsave
  translate 0 hpt M 4 {72 rotate 0 hpt L} repeat
  closepath stroke grestore Pnt} def
/PentF {stroke [] 0 setdash gsave
  translate 0 hpt M 4 {72 rotate 0 hpt L} repeat
  closepath fill grestore} def
/Circle {stroke [] 0 setdash 2 copy
  hpt 0 360 arc stroke Pnt} def
/CircleF {stroke [] 0 setdash hpt 0 360 arc fill} def
/C0 {BL [] 0 setdash 2 copy moveto vpt 90 450 arc} bind def
/C1 {BL [] 0 setdash 2 copy moveto
	2 copy vpt 0 90 arc closepath fill
	vpt 0 360 arc closepath} bind def
/C2 {BL [] 0 setdash 2 copy moveto
	2 copy vpt 90 180 arc closepath fill
	vpt 0 360 arc closepath} bind def
/C3 {BL [] 0 setdash 2 copy moveto
	2 copy vpt 0 180 arc closepath fill
	vpt 0 360 arc closepath} bind def
/C4 {BL [] 0 setdash 2 copy moveto
	2 copy vpt 180 270 arc closepath fill
	vpt 0 360 arc closepath} bind def
/C5 {BL [] 0 setdash 2 copy moveto
	2 copy vpt 0 90 arc
	2 copy moveto
	2 copy vpt 180 270 arc closepath fill
	vpt 0 360 arc} bind def
/C6 {BL [] 0 setdash 2 copy moveto
	2 copy vpt 90 270 arc closepath fill
	vpt 0 360 arc closepath} bind def
/C7 {BL [] 0 setdash 2 copy moveto
	2 copy vpt 0 270 arc closepath fill
	vpt 0 360 arc closepath} bind def
/C8 {BL [] 0 setdash 2 copy moveto
	2 copy vpt 270 360 arc closepath fill
	vpt 0 360 arc closepath} bind def
/C9 {BL [] 0 setdash 2 copy moveto
	2 copy vpt 270 450 arc closepath fill
	vpt 0 360 arc closepath} bind def
/C10 {BL [] 0 setdash 2 copy 2 copy moveto vpt 270 360 arc closepath fill
	2 copy moveto
	2 copy vpt 90 180 arc closepath fill
	vpt 0 360 arc closepath} bind def
/C11 {BL [] 0 setdash 2 copy moveto
	2 copy vpt 0 180 arc closepath fill
	2 copy moveto
	2 copy vpt 270 360 arc closepath fill
	vpt 0 360 arc closepath} bind def
/C12 {BL [] 0 setdash 2 copy moveto
	2 copy vpt 180 360 arc closepath fill
	vpt 0 360 arc closepath} bind def
/C13 {BL [] 0 setdash 2 copy moveto
	2 copy vpt 0 90 arc closepath fill
	2 copy moveto
	2 copy vpt 180 360 arc closepath fill
	vpt 0 360 arc closepath} bind def
/C14 {BL [] 0 setdash 2 copy moveto
	2 copy vpt 90 360 arc closepath fill
	vpt 0 360 arc} bind def
/C15 {BL [] 0 setdash 2 copy vpt 0 360 arc closepath fill
	vpt 0 360 arc closepath} bind def
/Rec {newpath 4 2 roll moveto 1 index 0 rlineto 0 exch rlineto
	neg 0 rlineto closepath} bind def
/Square {dup Rec} bind def
/Bsquare {vpt sub exch vpt sub exch vpt2 Square} bind def
/S0 {BL [] 0 setdash 2 copy moveto 0 vpt rlineto BL Bsquare} bind def
/S1 {BL [] 0 setdash 2 copy vpt Square fill Bsquare} bind def
/S2 {BL [] 0 setdash 2 copy exch vpt sub exch vpt Square fill Bsquare} bind def
/S3 {BL [] 0 setdash 2 copy exch vpt sub exch vpt2 vpt Rec fill Bsquare} bind def
/S4 {BL [] 0 setdash 2 copy exch vpt sub exch vpt sub vpt Square fill Bsquare} bind def
/S5 {BL [] 0 setdash 2 copy 2 copy vpt Square fill
	exch vpt sub exch vpt sub vpt Square fill Bsquare} bind def
/S6 {BL [] 0 setdash 2 copy exch vpt sub exch vpt sub vpt vpt2 Rec fill Bsquare} bind def
/S7 {BL [] 0 setdash 2 copy exch vpt sub exch vpt sub vpt vpt2 Rec fill
	2 copy vpt Square fill Bsquare} bind def
/S8 {BL [] 0 setdash 2 copy vpt sub vpt Square fill Bsquare} bind def
/S9 {BL [] 0 setdash 2 copy vpt sub vpt vpt2 Rec fill Bsquare} bind def
/S10 {BL [] 0 setdash 2 copy vpt sub vpt Square fill 2 copy exch vpt sub exch vpt Square fill
	Bsquare} bind def
/S11 {BL [] 0 setdash 2 copy vpt sub vpt Square fill 2 copy exch vpt sub exch vpt2 vpt Rec fill
	Bsquare} bind def
/S12 {BL [] 0 setdash 2 copy exch vpt sub exch vpt sub vpt2 vpt Rec fill Bsquare} bind def
/S13 {BL [] 0 setdash 2 copy exch vpt sub exch vpt sub vpt2 vpt Rec fill
	2 copy vpt Square fill Bsquare} bind def
/S14 {BL [] 0 setdash 2 copy exch vpt sub exch vpt sub vpt2 vpt Rec fill
	2 copy exch vpt sub exch vpt Square fill Bsquare} bind def
/S15 {BL [] 0 setdash 2 copy Bsquare fill Bsquare} bind def
/D0 {gsave translate 45 rotate 0 0 S0 stroke grestore} bind def
/D1 {gsave translate 45 rotate 0 0 S1 stroke grestore} bind def
/D2 {gsave translate 45 rotate 0 0 S2 stroke grestore} bind def
/D3 {gsave translate 45 rotate 0 0 S3 stroke grestore} bind def
/D4 {gsave translate 45 rotate 0 0 S4 stroke grestore} bind def
/D5 {gsave translate 45 rotate 0 0 S5 stroke grestore} bind def
/D6 {gsave translate 45 rotate 0 0 S6 stroke grestore} bind def
/D7 {gsave translate 45 rotate 0 0 S7 stroke grestore} bind def
/D8 {gsave translate 45 rotate 0 0 S8 stroke grestore} bind def
/D9 {gsave translate 45 rotate 0 0 S9 stroke grestore} bind def
/D10 {gsave translate 45 rotate 0 0 S10 stroke grestore} bind def
/D11 {gsave translate 45 rotate 0 0 S11 stroke grestore} bind def
/D12 {gsave translate 45 rotate 0 0 S12 stroke grestore} bind def
/D13 {gsave translate 45 rotate 0 0 S13 stroke grestore} bind def
/D14 {gsave translate 45 rotate 0 0 S14 stroke grestore} bind def
/D15 {gsave translate 45 rotate 0 0 S15 stroke grestore} bind def
/DiaE {stroke [] 0 setdash vpt add M
  hpt neg vpt neg V hpt vpt neg V
  hpt vpt V hpt neg vpt V closepath stroke} def
/BoxE {stroke [] 0 setdash exch hpt sub exch vpt add M
  0 vpt2 neg V hpt2 0 V 0 vpt2 V
  hpt2 neg 0 V closepath stroke} def
/TriUE {stroke [] 0 setdash vpt 1.12 mul add M
  hpt neg vpt -1.62 mul V
  hpt 2 mul 0 V
  hpt neg vpt 1.62 mul V closepath stroke} def
/TriDE {stroke [] 0 setdash vpt 1.12 mul sub M
  hpt neg vpt 1.62 mul V
  hpt 2 mul 0 V
  hpt neg vpt -1.62 mul V closepath stroke} def
/PentE {stroke [] 0 setdash gsave
  translate 0 hpt M 4 {72 rotate 0 hpt L} repeat
  closepath stroke grestore} def
/CircE {stroke [] 0 setdash 
  hpt 0 360 arc stroke} def
/Opaque {gsave closepath 1 setgray fill grestore 0 setgray closepath} def
/DiaW {stroke [] 0 setdash vpt add M
  hpt neg vpt neg V hpt vpt neg V
  hpt vpt V hpt neg vpt V Opaque stroke} def
/BoxW {stroke [] 0 setdash exch hpt sub exch vpt add M
  0 vpt2 neg V hpt2 0 V 0 vpt2 V
  hpt2 neg 0 V Opaque stroke} def
/TriUW {stroke [] 0 setdash vpt 1.12 mul add M
  hpt neg vpt -1.62 mul V
  hpt 2 mul 0 V
  hpt neg vpt 1.62 mul V Opaque stroke} def
/TriDW {stroke [] 0 setdash vpt 1.12 mul sub M
  hpt neg vpt 1.62 mul V
  hpt 2 mul 0 V
  hpt neg vpt -1.62 mul V Opaque stroke} def
/PentW {stroke [] 0 setdash gsave
  translate 0 hpt M 4 {72 rotate 0 hpt L} repeat
  Opaque stroke grestore} def
/CircW {stroke [] 0 setdash 
  hpt 0 360 arc Opaque stroke} def
/BoxFill {gsave Rec 1 setgray fill grestore} def
/Density {
  /Fillden exch def
  currentrgbcolor
  /ColB exch def /ColG exch def /ColR exch def
  /ColR ColR Fillden mul Fillden sub 1 add def
  /ColG ColG Fillden mul Fillden sub 1 add def
  /ColB ColB Fillden mul Fillden sub 1 add def
  ColR ColG ColB setrgbcolor} def
/BoxColFill {gsave Rec PolyFill} def
/PolyFill {gsave Density fill grestore grestore} def
/h {rlineto rlineto rlineto closepath gsave fill grestore stroke} bind def
%
% PostScript Level 1 Pattern Fill routine for rectangles
% Usage: x y w h s a XX PatternFill
%	x,y = lower left corner of box to be filled
%	w,h = width and height of box
%	  a = angle in degrees between lines and x-axis
%	 XX = 0/1 for no/yes cross-hatch
%
/PatternFill {gsave /PFa [ 9 2 roll ] def
  PFa 0 get PFa 2 get 2 div add PFa 1 get PFa 3 get 2 div add translate
  PFa 2 get -2 div PFa 3 get -2 div PFa 2 get PFa 3 get Rec
  TransparentPatterns {} {gsave 1 setgray fill grestore} ifelse
  clip
  currentlinewidth 0.5 mul setlinewidth
  /PFs PFa 2 get dup mul PFa 3 get dup mul add sqrt def
  0 0 M PFa 5 get rotate PFs -2 div dup translate
  0 1 PFs PFa 4 get div 1 add floor cvi
	{PFa 4 get mul 0 M 0 PFs V} for
  0 PFa 6 get ne {
	0 1 PFs PFa 4 get div 1 add floor cvi
	{PFa 4 get mul 0 2 1 roll M PFs 0 V} for
 } if
  stroke grestore} def
%
/languagelevel where
 {pop languagelevel} {1} ifelse
dup 2 lt
	{/InterpretLevel1 true def
	 /InterpretLevel3 false def}
	{/InterpretLevel1 Level1 def
	 2 gt
	    {/InterpretLevel3 Level3 def}
	    {/InterpretLevel3 false def}
	 ifelse }
 ifelse
%
% PostScript level 2 pattern fill definitions
%
/Level2PatternFill {
/Tile8x8 {/PaintType 2 /PatternType 1 /TilingType 1 /BBox [0 0 8 8] /XStep 8 /YStep 8}
	bind def
/KeepColor {currentrgbcolor [/Pattern /DeviceRGB] setcolorspace} bind def
<< Tile8x8
 /PaintProc {0.5 setlinewidth pop 0 0 M 8 8 L 0 8 M 8 0 L stroke} 
>> matrix makepattern
/Pat1 exch def
<< Tile8x8
 /PaintProc {0.5 setlinewidth pop 0 0 M 8 8 L 0 8 M 8 0 L stroke
	0 4 M 4 8 L 8 4 L 4 0 L 0 4 L stroke}
>> matrix makepattern
/Pat2 exch def
<< Tile8x8
 /PaintProc {0.5 setlinewidth pop 0 0 M 0 8 L
	8 8 L 8 0 L 0 0 L fill}
>> matrix makepattern
/Pat3 exch def
<< Tile8x8
 /PaintProc {0.5 setlinewidth pop -4 8 M 8 -4 L
	0 12 M 12 0 L stroke}
>> matrix makepattern
/Pat4 exch def
<< Tile8x8
 /PaintProc {0.5 setlinewidth pop -4 0 M 8 12 L
	0 -4 M 12 8 L stroke}
>> matrix makepattern
/Pat5 exch def
<< Tile8x8
 /PaintProc {0.5 setlinewidth pop -2 8 M 4 -4 L
	0 12 M 8 -4 L 4 12 M 10 0 L stroke}
>> matrix makepattern
/Pat6 exch def
<< Tile8x8
 /PaintProc {0.5 setlinewidth pop -2 0 M 4 12 L
	0 -4 M 8 12 L 4 -4 M 10 8 L stroke}
>> matrix makepattern
/Pat7 exch def
<< Tile8x8
 /PaintProc {0.5 setlinewidth pop 8 -2 M -4 4 L
	12 0 M -4 8 L 12 4 M 0 10 L stroke}
>> matrix makepattern
/Pat8 exch def
<< Tile8x8
 /PaintProc {0.5 setlinewidth pop 0 -2 M 12 4 L
	-4 0 M 12 8 L -4 4 M 8 10 L stroke}
>> matrix makepattern
/Pat9 exch def
/Pattern1 {PatternBgnd KeepColor Pat1 setpattern} bind def
/Pattern2 {PatternBgnd KeepColor Pat2 setpattern} bind def
/Pattern3 {PatternBgnd KeepColor Pat3 setpattern} bind def
/Pattern4 {PatternBgnd KeepColor Landscape {Pat5} {Pat4} ifelse setpattern} bind def
/Pattern5 {PatternBgnd KeepColor Landscape {Pat4} {Pat5} ifelse setpattern} bind def
/Pattern6 {PatternBgnd KeepColor Landscape {Pat9} {Pat6} ifelse setpattern} bind def
/Pattern7 {PatternBgnd KeepColor Landscape {Pat8} {Pat7} ifelse setpattern} bind def
} def
%
%
%End of PostScript Level 2 code
%
/PatternBgnd {
  TransparentPatterns {} {gsave 1 setgray fill grestore} ifelse
} def
%
% Substitute for Level 2 pattern fill codes with
% grayscale if Level 2 support is not selected.
%
/Level1PatternFill {
/Pattern1 {0.250 Density} bind def
/Pattern2 {0.500 Density} bind def
/Pattern3 {0.750 Density} bind def
/Pattern4 {0.125 Density} bind def
/Pattern5 {0.375 Density} bind def
/Pattern6 {0.625 Density} bind def
/Pattern7 {0.875 Density} bind def
} def
%
% Now test for support of Level 2 code
%
Level1 {Level1PatternFill} {Level2PatternFill} ifelse
%
/Symbol-Oblique /Symbol findfont [1 0 .167 1 0 0] makefont
dup length dict begin {1 index /FID eq {pop pop} {def} ifelse} forall
currentdict end definefont pop
%
Level1 SuppressPDFMark or 
{} {
/SDict 10 dict def
systemdict /pdfmark known not {
  userdict /pdfmark systemdict /cleartomark get put
} if
SDict begin [
  /Title (images/seperate_request-response-3_sysfs.tex)
  /Subject (gnuplot plot)
  /Creator (gnuplot 5.2 patchlevel 8)
%  /Producer (gnuplot)
%  /Keywords ()
  /CreationDate (Tue Apr  6 12:14:47 2021)
  /DOCINFO pdfmark
end
} ifelse
%
% Support for boxed text - Ethan A Merritt Sep 2016
%
/InitTextBox { userdict /TBy2 3 -1 roll put userdict /TBx2 3 -1 roll put
           userdict /TBy1 3 -1 roll put userdict /TBx1 3 -1 roll put
	   /Boxing true def } def
/ExtendTextBox { dup type /stringtype eq
    { Boxing { gsave dup false charpath pathbbox
      dup TBy2 gt {userdict /TBy2 3 -1 roll put} {pop} ifelse
      dup TBx2 gt {userdict /TBx2 3 -1 roll put} {pop} ifelse
      dup TBy1 lt {userdict /TBy1 3 -1 roll put} {pop} ifelse
      dup TBx1 lt {userdict /TBx1 3 -1 roll put} {pop} ifelse
      grestore } if }
    {} ifelse} def
/PopTextBox { newpath TBx1 TBxmargin sub TBy1 TBymargin sub M
               TBx1 TBxmargin sub TBy2 TBymargin add L
	       TBx2 TBxmargin add TBy2 TBymargin add L
	       TBx2 TBxmargin add TBy1 TBymargin sub L closepath } def
/DrawTextBox { PopTextBox stroke /Boxing false def} def
/FillTextBox { gsave PopTextBox fill grestore /Boxing false def} def
0 0 0 0 InitTextBox
/TBxmargin 20 def
/TBymargin 20 def
/Boxing false def
/textshow { ExtendTextBox Gshow } def
%
end
%%EndProlog
%%Page: 1 1
gnudict begin
gsave
doclip
50 50 translate
0.050 0.050 scale
0 setgray
newpath
1.000 UL
LTb
LCb setrgbcolor
[] 0 setdash
0.500 UL
LTa
LCa setrgbcolor
946 3224 M
5857 0 V
stroke
1.000 UL
LTb
LCb setrgbcolor
[] 0 setdash
946 3224 M
63 0 V
5794 0 R
-63 0 V
stroke
LTb
0.500 UL
LTa
LCa setrgbcolor
946 3623 M
5857 0 V
stroke
1.000 UL
LTb
LCb setrgbcolor
[] 0 setdash
946 3623 M
63 0 V
5794 0 R
-63 0 V
stroke
LTb
0.500 UL
LTa
LCa setrgbcolor
946 4022 M
3715 0 V
2010 0 R
132 0 V
stroke
1.000 UL
LTb
LCb setrgbcolor
[] 0 setdash
946 4022 M
63 0 V
5794 0 R
-63 0 V
stroke
LTb
0.500 UL
LTa
LCa setrgbcolor
946 4420 M
3715 0 V
2010 0 R
132 0 V
stroke
1.000 UL
LTb
LCb setrgbcolor
[] 0 setdash
946 4420 M
63 0 V
5794 0 R
-63 0 V
stroke
LTb
0.500 UL
LTa
LCa setrgbcolor
946 4819 M
5857 0 V
stroke
1.000 UL
LTb
LCb setrgbcolor
[] 0 setdash
946 4819 M
63 0 V
5794 0 R
-63 0 V
stroke
LTb
0.500 UL
LTa
LCa setrgbcolor
946 3224 M
0 1595 V
stroke
1.000 UL
LTb
LCb setrgbcolor
[] 0 setdash
946 3224 M
0 63 V
0 1532 R
0 -63 V
stroke
LTb
0.500 UL
LTa
LCa setrgbcolor
1532 3224 M
0 1595 V
stroke
1.000 UL
LTb
LCb setrgbcolor
[] 0 setdash
1532 3224 M
0 63 V
0 1532 R
0 -63 V
stroke
LTb
0.500 UL
LTa
LCa setrgbcolor
2117 3224 M
0 1595 V
stroke
1.000 UL
LTb
LCb setrgbcolor
[] 0 setdash
2117 3224 M
0 63 V
0 1532 R
0 -63 V
stroke
LTb
0.500 UL
LTa
LCa setrgbcolor
2703 3224 M
0 1595 V
stroke
1.000 UL
LTb
LCb setrgbcolor
[] 0 setdash
2703 3224 M
0 63 V
0 1532 R
0 -63 V
stroke
LTb
0.500 UL
LTa
LCa setrgbcolor
3289 3224 M
0 1595 V
stroke
1.000 UL
LTb
LCb setrgbcolor
[] 0 setdash
3289 3224 M
0 63 V
0 1532 R
0 -63 V
stroke
LTb
0.500 UL
LTa
LCa setrgbcolor
3875 3224 M
0 1595 V
stroke
1.000 UL
LTb
LCb setrgbcolor
[] 0 setdash
3875 3224 M
0 63 V
0 1532 R
0 -63 V
stroke
LTb
0.500 UL
LTa
LCa setrgbcolor
4460 3224 M
0 1595 V
stroke
1.000 UL
LTb
LCb setrgbcolor
[] 0 setdash
4460 3224 M
0 63 V
0 1532 R
0 -63 V
stroke
LTb
0.500 UL
LTa
LCa setrgbcolor
5046 3224 M
0 487 V
0 1045 R
0 63 V
stroke
1.000 UL
LTb
LCb setrgbcolor
[] 0 setdash
5046 3224 M
0 63 V
0 1532 R
0 -63 V
stroke
LTb
0.500 UL
LTa
LCa setrgbcolor
5632 3224 M
0 487 V
0 1045 R
0 63 V
stroke
1.000 UL
LTb
LCb setrgbcolor
[] 0 setdash
5632 3224 M
0 63 V
0 1532 R
0 -63 V
stroke
LTb
0.500 UL
LTa
LCa setrgbcolor
6217 3224 M
0 487 V
0 1045 R
0 63 V
stroke
1.000 UL
LTb
LCb setrgbcolor
[] 0 setdash
6217 3224 M
0 63 V
0 1532 R
0 -63 V
stroke
LTb
0.500 UL
LTa
LCa setrgbcolor
6803 3224 M
0 1595 V
stroke
1.000 UL
LTb
LCb setrgbcolor
[] 0 setdash
6803 3224 M
0 63 V
0 1532 R
0 -63 V
stroke
LTb
1.000 UL
LTb
946 4819 N
0 -1595 V
5857 0 V
0 1595 V
-5857 0 V
Z stroke
1.000 UP
1.000 UL
LTb
1.000 UL
LTb
4661 3711 N
0 1045 V
2010 0 V
0 -1045 V
-2010 0 V
Z stroke
% Begin plot #1
1.000 UP
1.000 UL
LTb
0.58 0.00 0.83 C
1005 4140 Pls
1063 3697 Pls
1122 3874 Pls
1180 3564 Pls
1239 3549 Pls
1297 3593 Pls
1356 3565 Pls
1415 3801 Pls
1473 3697 Pls
1532 3623 Pls
1590 3490 Pls
1649 3533 Pls
1707 3520 Pls
1766 3534 Pls
1825 3549 Pls
1883 3579 Pls
1942 3755 Pls
2000 3533 Pls
2059 3460 Pls
2117 3505 Pls
2176 3594 Pls
2235 3533 Pls
2293 3564 Pls
2352 3579 Pls
2410 3519 Pls
2469 3875 Pls
2527 3534 Pls
2586 3579 Pls
2645 3534 Pls
2703 3505 Pls
2762 3623 Pls
2820 3505 Pls
2879 3519 Pls
2937 3769 Pls
2996 3564 Pls
3055 3622 Pls
3113 3579 Pls
3172 3579 Pls
3230 3504 Pls
3289 3579 Pls
3347 3608 Pls
3406 3549 Pls
3465 3711 Pls
3523 3667 Pls
3582 3592 Pls
3640 3519 Pls
3699 3579 Pls
3757 3563 Pls
3816 3623 Pls
3875 3549 Pls
3933 3519 Pls
3992 3608 Pls
4050 3549 Pls
4109 3520 Pls
4167 3460 Pls
4226 3593 Pls
4284 3533 Pls
4343 3461 Pls
4402 3608 Pls
4460 3505 Pls
4519 3696 Pls
4577 3490 Pls
4636 3534 Pls
4694 3520 Pls
4753 3475 Pls
4812 3578 Pls
4870 3519 Pls
4929 3564 Pls
4987 3519 Pls
5046 3667 Pls
5104 3652 Pls
5163 3579 Pls
5222 3505 Pls
5280 3549 Pls
5339 3565 Pls
5397 3563 Pls
5456 3520 Pls
5514 3534 Pls
5573 3741 Pls
5632 3519 Pls
5690 3549 Pls
5749 3593 Pls
5807 3579 Pls
5866 3652 Pls
5924 3549 Pls
5983 3578 Pls
6042 3682 Pls
6100 3592 Pls
6159 3519 Pls
6217 4287 Pls
6276 3490 Pls
6334 3564 Pls
6393 3594 Pls
6452 3563 Pls
6569 3815 Pls
6627 3564 Pls
6686 3608 Pls
6744 3533 Pls
LTw
% End plot #1
% Begin plot #2
1.000 UP
1.000 UL
LTb
LCb setrgbcolor
[] 0 setdash
0.00 0.62 0.45 C
1005 3800 Crs
1063 3623 Crs
1122 3520 Crs
1180 3431 Crs
1239 3357 Crs
1297 3505 Crs
1356 3431 Crs
1415 3490 Crs
1473 3476 Crs
1532 3431 Crs
1590 3549 Crs
1649 3520 Crs
1707 3474 Crs
1766 3475 Crs
1825 3476 Crs
1883 3461 Crs
1942 3431 Crs
2000 3447 Crs
2059 3475 Crs
2117 3475 Crs
2176 3372 Crs
2235 3356 Crs
2293 3446 Crs
2352 3416 Crs
2410 3490 Crs
2469 3431 Crs
2527 3387 Crs
2586 3401 Crs
2645 3386 Crs
2703 3460 Crs
2762 3474 Crs
2820 3461 Crs
2879 3490 Crs
2937 3415 Crs
2996 3461 Crs
3055 3372 Crs
3172 3520 Crs
3230 3431 Crs
3289 3387 Crs
3347 3505 Crs
3406 3445 Crs
3465 3475 Crs
3523 3445 Crs
3582 3474 Crs
3640 3431 Crs
3699 3505 Crs
3757 3461 Crs
3933 3785 Crs
3992 3519 Crs
4050 3431 Crs
4109 3328 Crs
4167 3401 Crs
4226 3372 Crs
4284 3416 Crs
4343 3446 Crs
4402 3416 Crs
4460 3386 Crs
4519 3431 Crs
4577 3446 Crs
4636 3417 Crs
4694 3401 Crs
4753 3401 Crs
4812 3357 Crs
4870 3372 Crs
4929 3386 Crs
4987 3357 Crs
5046 3416 Crs
5104 3327 Crs
5163 3372 Crs
5222 3431 Crs
5280 3402 Crs
5339 3416 Crs
5397 3372 Crs
5456 3401 Crs
5514 3386 Crs
5573 3372 Crs
5632 3417 Crs
5690 3446 Crs
5749 3401 Crs
5807 3416 Crs
5866 3416 Crs
5924 3400 Crs
5983 3461 Crs
6042 3386 Crs
6100 3372 Crs
6159 3387 Crs
6217 3356 Crs
6276 3461 Crs
6334 3475 Crs
6393 3446 Crs
6452 3504 Crs
6510 3357 Crs
6569 3356 Crs
6627 3401 Crs
6686 3402 Crs
6744 3446 Crs
LTw
% End plot #2
% Begin plot #3
1.000 UP
1.000 UL
LTb
LCb setrgbcolor
[] 0 setdash
0.34 0.71 0.91 C
1005 3815 Star
1063 3564 Star
1122 3549 Star
1180 3415 Star
1239 3416 Star
1297 3386 Star
1356 3387 Star
1415 3460 Star
1473 3430 Star
1532 3446 Star
1590 3475 Star
1649 3519 Star
1707 3490 Star
1766 3461 Star
1825 3519 Star
1883 3461 Star
1942 3474 Star
2000 3460 Star
2059 3372 Star
2117 3431 Star
2176 3431 Star
2235 3490 Star
2293 3475 Star
2352 3520 Star
2410 3431 Star
2469 3475 Star
2527 3460 Star
2586 3460 Star
2645 3475 Star
2703 3460 Star
2762 3446 Star
2820 3490 Star
2879 3431 Star
2937 3460 Star
2996 3415 Star
3055 3460 Star
3113 3446 Star
3172 3445 Star
3230 3534 Star
3289 3431 Star
3347 3520 Star
3406 3490 Star
3465 3474 Star
3523 3416 Star
3582 3445 Star
3640 3461 Star
3699 3490 Star
3757 3447 Star
3816 3475 Star
3933 3475 Star
3992 3416 Star
4050 3298 Star
4109 3431 Star
4167 3372 Star
4226 3387 Star
4284 3372 Star
4343 3372 Star
4402 3372 Star
4460 3372 Star
4519 3357 Star
4577 3415 Star
4694 3459 Star
4753 3372 Star
4812 3356 Star
4870 3460 Star
4929 3416 Star
4987 3299 Star
5046 3431 Star
5104 3328 Star
5163 3431 Star
5222 3446 Star
5280 3416 Star
5339 3386 Star
5397 3372 Star
5456 3372 Star
5514 3372 Star
5573 3343 Star
5632 3431 Star
5690 3342 Star
5749 3416 Star
5807 3387 Star
5866 3358 Star
5924 3327 Star
5983 3298 Star
6042 3343 Star
6100 3356 Star
6217 3461 Star
6276 3415 Star
6334 3415 Star
6393 3446 Star
6452 3401 Star
6510 3372 Star
6569 3402 Star
6627 3283 Star
6686 3386 Star
6744 3402 Star
LTw
% End plot #3
% Begin plot #4
1.000 UP
1.000 UL
LTb
LCb setrgbcolor
[] 0 setdash
0.90 0.62 0.00 C
1005 3992 Box
1063 4406 Box
1122 3697 Box
1180 3638 Box
1239 3608 Box
1297 3696 Box
1356 3667 Box
1415 3579 Box
1473 3697 Box
1532 3711 Box
1590 3592 Box
1649 4080 Box
1707 4096 Box
1766 3696 Box
1825 3682 Box
1883 3638 Box
1942 3577 Box
2000 3637 Box
2059 3578 Box
2117 3638 Box
2176 4006 Box
2235 4155 Box
2293 3977 Box
2352 3652 Box
2410 3608 Box
2469 3638 Box
2527 3652 Box
2586 3652 Box
2645 3667 Box
2703 3608 Box
2762 3652 Box
2820 4021 Box
2879 3638 Box
2937 3608 Box
2996 3637 Box
3055 3652 Box
3113 3608 Box
3172 3623 Box
3230 3593 Box
3289 3652 Box
3347 3608 Box
3406 4406 Box
3465 3638 Box
3523 3652 Box
3582 3637 Box
3640 3652 Box
3699 3623 Box
3757 3638 Box
3816 3637 Box
3875 3608 Box
3933 3637 Box
3992 3962 Box
4050 3682 Box
4109 3637 Box
4167 3637 Box
4226 3608 Box
4284 3667 Box
4343 3652 Box
4402 3652 Box
4460 3578 Box
4519 3594 Box
4577 3859 Box
4636 3637 Box
4694 3593 Box
4753 3623 Box
4812 3667 Box
4870 3608 Box
4929 3652 Box
4987 3682 Box
5046 3622 Box
5104 3637 Box
5163 3889 Box
5222 3608 Box
5280 3622 Box
5339 3653 Box
5397 3622 Box
5456 3608 Box
5514 3681 Box
5573 3652 Box
5632 3594 Box
5690 3608 Box
5749 4140 Box
5807 3623 Box
5866 3638 Box
5924 3667 Box
5983 3652 Box
6042 3623 Box
6100 3637 Box
6159 3624 Box
6217 3608 Box
6276 3652 Box
6334 3829 Box
6393 3667 Box
6452 3682 Box
6510 3652 Box
6569 3637 Box
6627 3608 Box
6686 3653 Box
6744 3637 Box
LTw
% End plot #4
LCw setrgbcolor
1.000 4661 3711 2010 1045 BoxColFill
1.000 UL
LTb
LCb setrgbcolor
[] 0 setdash
4661 3711 N
0 1045 V
2010 0 V
0 -1045 V
-2010 0 V
Z stroke
% Begin plot #5
1.000 UP
1.000 UL
LTb
0.58 0.00 0.83 C
LCb setrgbcolor
1.000 UP
1.000 UL
LTb
0.58 0.00 0.83 C
6243 4563 Pls
LTw
% End plot #5
% Begin plot #6
1.000 UP
1.000 UL
LTb
LCb setrgbcolor
[] 0 setdash
0.00 0.62 0.45 C
LCb setrgbcolor
1.000 UP
1.000 UL
LTb
0.00 0.62 0.45 C
6243 4343 Crs
LTw
% End plot #6
% Begin plot #7
1.000 UP
1.000 UL
LTb
LCb setrgbcolor
[] 0 setdash
0.34 0.71 0.91 C
LCb setrgbcolor
1.000 UP
1.000 UL
LTb
0.34 0.71 0.91 C
6243 4123 Star
LTw
% End plot #7
% Begin plot #8
1.000 UP
1.000 UL
LTb
LCb setrgbcolor
[] 0 setdash
0.90 0.62 0.00 C
LCb setrgbcolor
1.000 UP
1.000 UL
LTb
0.90 0.62 0.00 C
6243 3903 Box
LTw
% End plot #8
2.000 UL
LTb
LCb setrgbcolor
[] 0 setdash
1.000 UL
LTb
946 4819 N
0 -1595 V
5857 0 V
0 1595 V
-5857 0 V
Z stroke
1.000 UP
1.000 UL
LTb
1.000 UL
LTb
0.500 UL
LTa
LCa setrgbcolor
1078 704 M
5725 0 V
stroke
1.000 UL
LTb
LCb setrgbcolor
[] 0 setdash
1078 704 M
63 0 V
5662 0 R
-63 0 V
stroke
LTb
0.500 UL
LTa
LCa setrgbcolor
1078 1103 M
5725 0 V
stroke
1.000 UL
LTb
LCb setrgbcolor
[] 0 setdash
1078 1103 M
63 0 V
5662 0 R
-63 0 V
stroke
LTb
0.500 UL
LTa
LCa setrgbcolor
1078 1502 M
3583 0 V
2010 0 R
132 0 V
stroke
1.000 UL
LTb
LCb setrgbcolor
[] 0 setdash
1078 1502 M
63 0 V
5662 0 R
-63 0 V
stroke
LTb
0.500 UL
LTa
LCa setrgbcolor
1078 1901 M
3583 0 V
2010 0 R
132 0 V
stroke
1.000 UL
LTb
LCb setrgbcolor
[] 0 setdash
1078 1901 M
63 0 V
5662 0 R
-63 0 V
stroke
LTb
0.500 UL
LTa
LCa setrgbcolor
1078 2300 M
5725 0 V
stroke
1.000 UL
LTb
LCb setrgbcolor
[] 0 setdash
1078 2300 M
63 0 V
5662 0 R
-63 0 V
stroke
LTb
0.500 UL
LTa
LCa setrgbcolor
1078 704 M
0 1596 V
stroke
1.000 UL
LTb
LCb setrgbcolor
[] 0 setdash
1078 704 M
0 63 V
0 1533 R
0 -63 V
stroke
LTb
0.500 UL
LTa
LCa setrgbcolor
1651 704 M
0 1596 V
stroke
1.000 UL
LTb
LCb setrgbcolor
[] 0 setdash
1651 704 M
0 63 V
0 1533 R
0 -63 V
stroke
LTb
0.500 UL
LTa
LCa setrgbcolor
2223 704 M
0 1596 V
stroke
1.000 UL
LTb
LCb setrgbcolor
[] 0 setdash
2223 704 M
0 63 V
0 1533 R
0 -63 V
stroke
LTb
0.500 UL
LTa
LCa setrgbcolor
2796 704 M
0 1596 V
stroke
1.000 UL
LTb
LCb setrgbcolor
[] 0 setdash
2796 704 M
0 63 V
0 1533 R
0 -63 V
stroke
LTb
0.500 UL
LTa
LCa setrgbcolor
3368 704 M
0 1596 V
stroke
1.000 UL
LTb
LCb setrgbcolor
[] 0 setdash
3368 704 M
0 63 V
0 1533 R
0 -63 V
stroke
LTb
0.500 UL
LTa
LCa setrgbcolor
3941 704 M
0 1596 V
stroke
1.000 UL
LTb
LCb setrgbcolor
[] 0 setdash
3941 704 M
0 63 V
0 1533 R
0 -63 V
stroke
LTb
0.500 UL
LTa
LCa setrgbcolor
4513 704 M
0 1596 V
stroke
1.000 UL
LTb
LCb setrgbcolor
[] 0 setdash
4513 704 M
0 63 V
0 1533 R
0 -63 V
stroke
LTb
0.500 UL
LTa
LCa setrgbcolor
5086 704 M
0 488 V
0 1045 R
0 63 V
stroke
1.000 UL
LTb
LCb setrgbcolor
[] 0 setdash
5086 704 M
0 63 V
0 1533 R
0 -63 V
stroke
LTb
0.500 UL
LTa
LCa setrgbcolor
5658 704 M
0 488 V
0 1045 R
0 63 V
stroke
1.000 UL
LTb
LCb setrgbcolor
[] 0 setdash
5658 704 M
0 63 V
0 1533 R
0 -63 V
stroke
LTb
0.500 UL
LTa
LCa setrgbcolor
6231 704 M
0 488 V
0 1045 R
0 63 V
stroke
1.000 UL
LTb
LCb setrgbcolor
[] 0 setdash
6231 704 M
0 63 V
0 1533 R
0 -63 V
stroke
LTb
0.500 UL
LTa
LCa setrgbcolor
6803 704 M
0 1596 V
stroke
1.000 UL
LTb
LCb setrgbcolor
[] 0 setdash
6803 704 M
0 63 V
0 1533 R
0 -63 V
stroke
LTb
1.000 UL
LTb
1078 2300 N
0 -1596 V
5725 0 V
0 1596 V
-5725 0 V
Z stroke
1.000 UP
1.000 UL
LTb
1.000 UL
LTb
4661 1192 N
0 1045 V
2010 0 V
0 -1045 V
-2010 0 V
Z stroke
% Begin plot #1
1.000 UP
1.000 UL
LTb
0.58 0.00 0.83 C
1135 1812 Pls
1193 1295 Pls
1250 1428 Pls
1307 1162 Pls
1364 1118 Pls
1422 1133 Pls
1479 1088 Pls
1536 1324 Pls
1593 1133 Pls
1651 1221 Pls
1708 1073 Pls
1765 1177 Pls
1822 1133 Pls
1880 1103 Pls
1937 1059 Pls
1994 1103 Pls
2051 1192 Pls
2109 1148 Pls
2166 1073 Pls
2223 1044 Pls
2280 1192 Pls
2338 1089 Pls
2395 1133 Pls
2452 1044 Pls
2509 1177 Pls
2567 1324 Pls
2624 1207 Pls
2681 1029 Pls
2738 1133 Pls
2796 1014 Pls
2853 1088 Pls
2910 1089 Pls
2967 1133 Pls
3025 1281 Pls
3082 1207 Pls
3139 1059 Pls
3196 1133 Pls
3254 1044 Pls
3311 1059 Pls
3368 1103 Pls
3425 1044 Pls
3483 1148 Pls
3540 1236 Pls
3597 1103 Pls
3654 1089 Pls
3712 1073 Pls
3769 1088 Pls
3826 1089 Pls
3883 1044 Pls
3941 1133 Pls
3998 1133 Pls
4055 1295 Pls
4112 1251 Pls
4170 1103 Pls
4227 1133 Pls
4284 1103 Pls
4341 1118 Pls
4399 1088 Pls
4456 1058 Pls
4513 1044 Pls
4570 1236 Pls
4628 1118 Pls
4685 1192 Pls
4742 1073 Pls
4799 1103 Pls
4857 1059 Pls
4914 1073 Pls
4971 1148 Pls
5028 1103 Pls
5086 1251 Pls
5143 1103 Pls
5200 1088 Pls
5257 1103 Pls
5315 1103 Pls
5372 1117 Pls
5429 1089 Pls
5486 1058 Pls
5544 1133 Pls
5601 1207 Pls
5658 1044 Pls
5715 999 Pls
5773 1133 Pls
5830 1133 Pls
5887 1073 Pls
5944 1103 Pls
6002 1133 Pls
6059 1384 Pls
6116 1089 Pls
6173 1103 Pls
6231 1517 Pls
6288 1162 Pls
6345 1192 Pls
6402 1058 Pls
6460 1118 Pls
6574 1251 Pls
6631 1133 Pls
6689 1251 Pls
6746 1059 Pls
LTw
% End plot #1
% Begin plot #2
1.000 UP
1.000 UL
LTb
LCb setrgbcolor
[] 0 setdash
0.00 0.62 0.45 C
1135 1561 Crs
1193 1133 Crs
1250 1103 Crs
1307 1088 Crs
1364 1103 Crs
1422 1089 Crs
1479 1044 Crs
1536 1058 Crs
1593 1117 Crs
1708 1089 Crs
1765 1147 Crs
1822 1133 Crs
1880 1088 Crs
1937 1147 Crs
1994 1103 Crs
2051 1177 Crs
2109 1117 Crs
2166 1103 Crs
2223 1133 Crs
2280 999 Crs
2338 1059 Crs
2395 1044 Crs
2452 1073 Crs
2509 1088 Crs
2567 1117 Crs
2624 1089 Crs
2681 1118 Crs
2738 985 Crs
2796 1044 Crs
2853 1133 Crs
2910 1044 Crs
2967 1059 Crs
3025 1089 Crs
3082 1133 Crs
3139 1044 Crs
3196 1235 Crs
3254 1133 Crs
3311 1103 Crs
3368 1073 Crs
3425 1103 Crs
3483 1059 Crs
3540 1058 Crs
3597 1148 Crs
3654 1133 Crs
3712 1073 Crs
3769 1014 Crs
3826 1133 Crs
3883 1620 Crs
3998 1665 Crs
4055 985 Crs
4112 896 Crs
4170 1088 Crs
4227 1073 Crs
4284 1058 Crs
4341 1058 Crs
4399 1103 Crs
4456 985 Crs
4513 896 Crs
4570 1029 Crs
4628 1029 Crs
4685 1147 Crs
4742 1058 Crs
4799 1103 Crs
4857 1073 Crs
4914 970 Crs
4971 971 Crs
5028 1014 Crs
5086 1044 Crs
5143 1044 Crs
5200 970 Crs
5257 984 Crs
5315 1014 Crs
5372 985 Crs
5429 1118 Crs
5486 1044 Crs
5544 1000 Crs
5601 1058 Crs
5658 984 Crs
5715 1029 Crs
5773 911 Crs
5830 1148 Crs
5887 955 Crs
5944 1059 Crs
6002 940 Crs
6059 985 Crs
6116 970 Crs
6173 955 Crs
6231 1000 Crs
6288 1029 Crs
6345 1043 Crs
6402 1088 Crs
6460 1089 Crs
6517 1073 Crs
6574 1030 Crs
6631 970 Crs
6689 1088 Crs
6746 970 Crs
LTw
% End plot #2
% Begin plot #3
1.000 UP
1.000 UL
LTb
LCb setrgbcolor
[] 0 setdash
0.34 0.71 0.91 C
1135 1591 Star
1193 1221 Star
1250 1176 Star
1307 1148 Star
1364 1162 Star
1422 1030 Star
1479 1088 Star
1536 1030 Star
1593 1030 Star
1651 1014 Star
1708 1516 Star
1765 1089 Star
1822 1162 Star
1880 1058 Star
1937 1133 Star
1994 1058 Star
2051 1030 Star
2109 971 Star
2166 999 Star
2223 1014 Star
2280 1133 Star
2338 1058 Star
2395 1162 Star
2452 970 Star
2509 1058 Star
2567 1103 Star
2624 1030 Star
2681 1073 Star
2738 1029 Star
2796 1014 Star
2853 1117 Star
2910 1176 Star
2967 1014 Star
3025 1162 Star
3082 1073 Star
3139 1089 Star
3196 1103 Star
3254 1192 Star
3311 1235 Star
3368 1147 Star
3425 1162 Star
3483 1148 Star
3540 1148 Star
3597 1176 Star
3654 1059 Star
3712 1014 Star
3769 1118 Star
3826 1029 Star
3883 1117 Star
3941 2300 Star
3998 1295 Star
4055 1133 Star
4112 1058 Star
4170 1162 Star
4227 1147 Star
4284 1044 Star
4341 1088 Star
4399 1148 Star
4456 1133 Star
4513 1222 Star
4570 1177 Star
4628 1044 Star
4685 1428 Star
4742 1118 Star
4799 1118 Star
4857 1148 Star
4914 1251 Star
4971 1103 Star
5028 1147 Star
5086 1133 Star
5143 1133 Star
5200 1192 Star
5257 1058 Star
5315 1089 Star
5372 1044 Star
5429 1118 Star
5486 1073 Star
5544 1088 Star
5601 1147 Star
5658 1133 Star
5715 1148 Star
5773 1148 Star
5830 1133 Star
5887 1029 Star
5944 1059 Star
6002 1147 Star
6059 1117 Star
6116 1148 Star
6173 1310 Star
6231 1251 Star
6288 1236 Star
6345 1251 Star
6402 1058 Star
6460 1089 Star
6517 1044 Star
6574 1058 Star
6631 1073 Star
6689 1118 Star
6746 1073 Star
LTw
% End plot #3
% Begin plot #4
1.000 UP
1.000 UL
LTb
LCb setrgbcolor
[] 0 setdash
0.90 0.62 0.00 C
1135 1665 Box
1193 2004 Box
1250 1575 Box
1307 1295 Box
1364 1325 Box
1422 1266 Box
1479 1295 Box
1536 1251 Box
1593 1235 Box
1651 1325 Box
1708 1251 Box
1765 1488 Box
1822 1547 Box
1880 1325 Box
1937 1251 Box
1994 1265 Box
2051 1281 Box
2109 1207 Box
2166 1192 Box
2223 1295 Box
2280 1281 Box
2338 1472 Box
2395 1621 Box
2452 1280 Box
2509 1295 Box
2567 1251 Box
2624 1310 Box
2681 1236 Box
2738 1236 Box
2796 1251 Box
2853 1207 Box
2910 1606 Box
2967 1310 Box
3025 1221 Box
3082 1266 Box
3139 1162 Box
3196 1280 Box
3254 1236 Box
3311 1162 Box
3368 1162 Box
3425 1457 Box
3483 1516 Box
3540 1221 Box
3597 1251 Box
3654 1221 Box
3712 1295 Box
3769 1310 Box
3826 1325 Box
3883 1177 Box
3941 1235 Box
3998 1236 Box
4055 1532 Box
4112 1295 Box
4170 1339 Box
4227 1207 Box
4284 1221 Box
4341 1192 Box
4399 1236 Box
4456 1221 Box
4513 1221 Box
4570 1206 Box
4628 1487 Box
4685 1325 Box
4742 1192 Box
4799 1207 Box
4857 1251 Box
4914 1295 Box
4971 1310 Box
5028 1295 Box
5086 1266 Box
5143 1221 Box
5200 1457 Box
5257 1206 Box
5315 1399 Box
5372 1235 Box
5429 1222 Box
5486 1295 Box
5544 1207 Box
5601 1295 Box
5658 1251 Box
5715 1192 Box
5773 1620 Box
5830 1310 Box
5887 1251 Box
5944 1280 Box
6002 1251 Box
6059 1266 Box
6116 1295 Box
6173 1265 Box
6231 1266 Box
6288 1266 Box
6345 1488 Box
6402 1266 Box
6460 1176 Box
6517 1266 Box
6574 1177 Box
6631 1221 Box
6689 1192 Box
6746 1221 Box
LTw
% End plot #4
LCw setrgbcolor
1.000 4661 1192 2010 1045 BoxColFill
1.000 UL
LTb
LCb setrgbcolor
[] 0 setdash
4661 1192 N
0 1045 V
2010 0 V
0 -1045 V
-2010 0 V
Z stroke
% Begin plot #5
1.000 UP
1.000 UL
LTb
0.58 0.00 0.83 C
LCb setrgbcolor
1.000 UP
1.000 UL
LTb
0.58 0.00 0.83 C
6243 2044 Pls
LTw
% End plot #5
% Begin plot #6
1.000 UP
1.000 UL
LTb
LCb setrgbcolor
[] 0 setdash
0.00 0.62 0.45 C
LCb setrgbcolor
1.000 UP
1.000 UL
LTb
0.00 0.62 0.45 C
6243 1824 Crs
LTw
% End plot #6
% Begin plot #7
1.000 UP
1.000 UL
LTb
LCb setrgbcolor
[] 0 setdash
0.34 0.71 0.91 C
LCb setrgbcolor
1.000 UP
1.000 UL
LTb
0.34 0.71 0.91 C
6243 1604 Star
LTw
% End plot #7
% Begin plot #8
1.000 UP
1.000 UL
LTb
LCb setrgbcolor
[] 0 setdash
0.90 0.62 0.00 C
LCb setrgbcolor
1.000 UP
1.000 UL
LTb
0.90 0.62 0.00 C
6243 1384 Box
LTw
% End plot #8
2.000 UL
LTb
LCb setrgbcolor
[] 0 setdash
1.000 UL
LTb
1078 2300 N
0 -1596 V
5725 0 V
0 1596 V
-5725 0 V
Z stroke
1.000 UP
1.000 UL
LTb
stroke
grestore
end
showpage
%%Trailer
