%!PS-Adobe-2.0 EPSF-2.0
%%Title: images/seperate_request-response-0_netlink.tex
%%Creator: gnuplot 5.2 patchlevel 8
%%CreationDate: Tue Apr  6 12:07:31 2021
%%DocumentFonts: 
%%BoundingBox: 50 50 410 302
%%EndComments
%%BeginProlog
/gnudict 256 dict def
gnudict begin
%
% The following true/false flags may be edited by hand if desired.
% The unit line width and grayscale image gamma correction may also be changed.
%
/Color true def
/Blacktext true def
/Solid false def
/Dashlength 1 def
/Landscape false def
/Level1 false def
/Level3 false def
/Rounded false def
/ClipToBoundingBox false def
/SuppressPDFMark false def
/TransparentPatterns false def
/gnulinewidth 5.000 def
/userlinewidth gnulinewidth def
/Gamma 1.0 def
/BackgroundColor {-1.000 -1.000 -1.000} def
%
/vshift -73 def
/dl1 {
  10.0 Dashlength userlinewidth gnulinewidth div mul mul mul
  Rounded { currentlinewidth 0.75 mul sub dup 0 le { pop 0.01 } if } if
} def
/dl2 {
  10.0 Dashlength userlinewidth gnulinewidth div mul mul mul
  Rounded { currentlinewidth 0.75 mul add } if
} def
/hpt_ 31.5 def
/vpt_ 31.5 def
/hpt hpt_ def
/vpt vpt_ def
/doclip {
  ClipToBoundingBox {
    newpath 50 50 moveto 410 50 lineto 410 302 lineto 50 302 lineto closepath
    clip
  } if
} def
%
% Gnuplot Prolog Version 5.2 (Dec 2017)
%
%/SuppressPDFMark true def
%
/M {moveto} bind def
/L {lineto} bind def
/R {rmoveto} bind def
/V {rlineto} bind def
/N {newpath moveto} bind def
/Z {closepath} bind def
/C {setrgbcolor} bind def
/f {rlineto fill} bind def
/g {setgray} bind def
/Gshow {show} def   % May be redefined later in the file to support UTF-8
/vpt2 vpt 2 mul def
/hpt2 hpt 2 mul def
/Lshow {currentpoint stroke M 0 vshift R 
	Blacktext {gsave 0 setgray textshow grestore} {textshow} ifelse} def
/Rshow {currentpoint stroke M dup stringwidth pop neg vshift R
	Blacktext {gsave 0 setgray textshow grestore} {textshow} ifelse} def
/Cshow {currentpoint stroke M dup stringwidth pop -2 div vshift R 
	Blacktext {gsave 0 setgray textshow grestore} {textshow} ifelse} def
/UP {dup vpt_ mul /vpt exch def hpt_ mul /hpt exch def
  /hpt2 hpt 2 mul def /vpt2 vpt 2 mul def} def
/DL {Color {setrgbcolor Solid {pop []} if 0 setdash}
 {pop pop pop 0 setgray Solid {pop []} if 0 setdash} ifelse} def
/BL {stroke userlinewidth 2 mul setlinewidth
	Rounded {1 setlinejoin 1 setlinecap} if} def
/AL {stroke userlinewidth 2 div setlinewidth
	Rounded {1 setlinejoin 1 setlinecap} if} def
/UL {dup gnulinewidth mul /userlinewidth exch def
	dup 1 lt {pop 1} if 10 mul /udl exch def} def
/PL {stroke userlinewidth setlinewidth
	Rounded {1 setlinejoin 1 setlinecap} if} def
3.8 setmiterlimit
% Classic Line colors (version 5.0)
/LCw {1 1 1} def
/LCb {0 0 0} def
/LCa {0 0 0} def
/LC0 {1 0 0} def
/LC1 {0 1 0} def
/LC2 {0 0 1} def
/LC3 {1 0 1} def
/LC4 {0 1 1} def
/LC5 {1 1 0} def
/LC6 {0 0 0} def
/LC7 {1 0.3 0} def
/LC8 {0.5 0.5 0.5} def
% Default dash patterns (version 5.0)
/LTB {BL [] LCb DL} def
/LTw {PL [] 1 setgray} def
/LTb {PL [] LCb DL} def
/LTa {AL [1 udl mul 2 udl mul] 0 setdash LCa setrgbcolor} def
/LT0 {PL [] LC0 DL} def
/LT1 {PL [2 dl1 3 dl2] LC1 DL} def
/LT2 {PL [1 dl1 1.5 dl2] LC2 DL} def
/LT3 {PL [6 dl1 2 dl2 1 dl1 2 dl2] LC3 DL} def
/LT4 {PL [1 dl1 2 dl2 6 dl1 2 dl2 1 dl1 2 dl2] LC4 DL} def
/LT5 {PL [4 dl1 2 dl2] LC5 DL} def
/LT6 {PL [1.5 dl1 1.5 dl2 1.5 dl1 1.5 dl2 1.5 dl1 6 dl2] LC6 DL} def
/LT7 {PL [3 dl1 3 dl2 1 dl1 3 dl2] LC7 DL} def
/LT8 {PL [2 dl1 2 dl2 2 dl1 6 dl2] LC8 DL} def
/SL {[] 0 setdash} def
/Pnt {stroke [] 0 setdash gsave 1 setlinecap M 0 0 V stroke grestore} def
/Dia {stroke [] 0 setdash 2 copy vpt add M
  hpt neg vpt neg V hpt vpt neg V
  hpt vpt V hpt neg vpt V closepath stroke
  Pnt} def
/Pls {stroke [] 0 setdash vpt sub M 0 vpt2 V
  currentpoint stroke M
  hpt neg vpt neg R hpt2 0 V stroke
 } def
/Box {stroke [] 0 setdash 2 copy exch hpt sub exch vpt add M
  0 vpt2 neg V hpt2 0 V 0 vpt2 V
  hpt2 neg 0 V closepath stroke
  Pnt} def
/Crs {stroke [] 0 setdash exch hpt sub exch vpt add M
  hpt2 vpt2 neg V currentpoint stroke M
  hpt2 neg 0 R hpt2 vpt2 V stroke} def
/TriU {stroke [] 0 setdash 2 copy vpt 1.12 mul add M
  hpt neg vpt -1.62 mul V
  hpt 2 mul 0 V
  hpt neg vpt 1.62 mul V closepath stroke
  Pnt} def
/Star {2 copy Pls Crs} def
/BoxF {stroke [] 0 setdash exch hpt sub exch vpt add M
  0 vpt2 neg V hpt2 0 V 0 vpt2 V
  hpt2 neg 0 V closepath fill} def
/TriUF {stroke [] 0 setdash vpt 1.12 mul add M
  hpt neg vpt -1.62 mul V
  hpt 2 mul 0 V
  hpt neg vpt 1.62 mul V closepath fill} def
/TriD {stroke [] 0 setdash 2 copy vpt 1.12 mul sub M
  hpt neg vpt 1.62 mul V
  hpt 2 mul 0 V
  hpt neg vpt -1.62 mul V closepath stroke
  Pnt} def
/TriDF {stroke [] 0 setdash vpt 1.12 mul sub M
  hpt neg vpt 1.62 mul V
  hpt 2 mul 0 V
  hpt neg vpt -1.62 mul V closepath fill} def
/DiaF {stroke [] 0 setdash vpt add M
  hpt neg vpt neg V hpt vpt neg V
  hpt vpt V hpt neg vpt V closepath fill} def
/Pent {stroke [] 0 setdash 2 copy gsave
  translate 0 hpt M 4 {72 rotate 0 hpt L} repeat
  closepath stroke grestore Pnt} def
/PentF {stroke [] 0 setdash gsave
  translate 0 hpt M 4 {72 rotate 0 hpt L} repeat
  closepath fill grestore} def
/Circle {stroke [] 0 setdash 2 copy
  hpt 0 360 arc stroke Pnt} def
/CircleF {stroke [] 0 setdash hpt 0 360 arc fill} def
/C0 {BL [] 0 setdash 2 copy moveto vpt 90 450 arc} bind def
/C1 {BL [] 0 setdash 2 copy moveto
	2 copy vpt 0 90 arc closepath fill
	vpt 0 360 arc closepath} bind def
/C2 {BL [] 0 setdash 2 copy moveto
	2 copy vpt 90 180 arc closepath fill
	vpt 0 360 arc closepath} bind def
/C3 {BL [] 0 setdash 2 copy moveto
	2 copy vpt 0 180 arc closepath fill
	vpt 0 360 arc closepath} bind def
/C4 {BL [] 0 setdash 2 copy moveto
	2 copy vpt 180 270 arc closepath fill
	vpt 0 360 arc closepath} bind def
/C5 {BL [] 0 setdash 2 copy moveto
	2 copy vpt 0 90 arc
	2 copy moveto
	2 copy vpt 180 270 arc closepath fill
	vpt 0 360 arc} bind def
/C6 {BL [] 0 setdash 2 copy moveto
	2 copy vpt 90 270 arc closepath fill
	vpt 0 360 arc closepath} bind def
/C7 {BL [] 0 setdash 2 copy moveto
	2 copy vpt 0 270 arc closepath fill
	vpt 0 360 arc closepath} bind def
/C8 {BL [] 0 setdash 2 copy moveto
	2 copy vpt 270 360 arc closepath fill
	vpt 0 360 arc closepath} bind def
/C9 {BL [] 0 setdash 2 copy moveto
	2 copy vpt 270 450 arc closepath fill
	vpt 0 360 arc closepath} bind def
/C10 {BL [] 0 setdash 2 copy 2 copy moveto vpt 270 360 arc closepath fill
	2 copy moveto
	2 copy vpt 90 180 arc closepath fill
	vpt 0 360 arc closepath} bind def
/C11 {BL [] 0 setdash 2 copy moveto
	2 copy vpt 0 180 arc closepath fill
	2 copy moveto
	2 copy vpt 270 360 arc closepath fill
	vpt 0 360 arc closepath} bind def
/C12 {BL [] 0 setdash 2 copy moveto
	2 copy vpt 180 360 arc closepath fill
	vpt 0 360 arc closepath} bind def
/C13 {BL [] 0 setdash 2 copy moveto
	2 copy vpt 0 90 arc closepath fill
	2 copy moveto
	2 copy vpt 180 360 arc closepath fill
	vpt 0 360 arc closepath} bind def
/C14 {BL [] 0 setdash 2 copy moveto
	2 copy vpt 90 360 arc closepath fill
	vpt 0 360 arc} bind def
/C15 {BL [] 0 setdash 2 copy vpt 0 360 arc closepath fill
	vpt 0 360 arc closepath} bind def
/Rec {newpath 4 2 roll moveto 1 index 0 rlineto 0 exch rlineto
	neg 0 rlineto closepath} bind def
/Square {dup Rec} bind def
/Bsquare {vpt sub exch vpt sub exch vpt2 Square} bind def
/S0 {BL [] 0 setdash 2 copy moveto 0 vpt rlineto BL Bsquare} bind def
/S1 {BL [] 0 setdash 2 copy vpt Square fill Bsquare} bind def
/S2 {BL [] 0 setdash 2 copy exch vpt sub exch vpt Square fill Bsquare} bind def
/S3 {BL [] 0 setdash 2 copy exch vpt sub exch vpt2 vpt Rec fill Bsquare} bind def
/S4 {BL [] 0 setdash 2 copy exch vpt sub exch vpt sub vpt Square fill Bsquare} bind def
/S5 {BL [] 0 setdash 2 copy 2 copy vpt Square fill
	exch vpt sub exch vpt sub vpt Square fill Bsquare} bind def
/S6 {BL [] 0 setdash 2 copy exch vpt sub exch vpt sub vpt vpt2 Rec fill Bsquare} bind def
/S7 {BL [] 0 setdash 2 copy exch vpt sub exch vpt sub vpt vpt2 Rec fill
	2 copy vpt Square fill Bsquare} bind def
/S8 {BL [] 0 setdash 2 copy vpt sub vpt Square fill Bsquare} bind def
/S9 {BL [] 0 setdash 2 copy vpt sub vpt vpt2 Rec fill Bsquare} bind def
/S10 {BL [] 0 setdash 2 copy vpt sub vpt Square fill 2 copy exch vpt sub exch vpt Square fill
	Bsquare} bind def
/S11 {BL [] 0 setdash 2 copy vpt sub vpt Square fill 2 copy exch vpt sub exch vpt2 vpt Rec fill
	Bsquare} bind def
/S12 {BL [] 0 setdash 2 copy exch vpt sub exch vpt sub vpt2 vpt Rec fill Bsquare} bind def
/S13 {BL [] 0 setdash 2 copy exch vpt sub exch vpt sub vpt2 vpt Rec fill
	2 copy vpt Square fill Bsquare} bind def
/S14 {BL [] 0 setdash 2 copy exch vpt sub exch vpt sub vpt2 vpt Rec fill
	2 copy exch vpt sub exch vpt Square fill Bsquare} bind def
/S15 {BL [] 0 setdash 2 copy Bsquare fill Bsquare} bind def
/D0 {gsave translate 45 rotate 0 0 S0 stroke grestore} bind def
/D1 {gsave translate 45 rotate 0 0 S1 stroke grestore} bind def
/D2 {gsave translate 45 rotate 0 0 S2 stroke grestore} bind def
/D3 {gsave translate 45 rotate 0 0 S3 stroke grestore} bind def
/D4 {gsave translate 45 rotate 0 0 S4 stroke grestore} bind def
/D5 {gsave translate 45 rotate 0 0 S5 stroke grestore} bind def
/D6 {gsave translate 45 rotate 0 0 S6 stroke grestore} bind def
/D7 {gsave translate 45 rotate 0 0 S7 stroke grestore} bind def
/D8 {gsave translate 45 rotate 0 0 S8 stroke grestore} bind def
/D9 {gsave translate 45 rotate 0 0 S9 stroke grestore} bind def
/D10 {gsave translate 45 rotate 0 0 S10 stroke grestore} bind def
/D11 {gsave translate 45 rotate 0 0 S11 stroke grestore} bind def
/D12 {gsave translate 45 rotate 0 0 S12 stroke grestore} bind def
/D13 {gsave translate 45 rotate 0 0 S13 stroke grestore} bind def
/D14 {gsave translate 45 rotate 0 0 S14 stroke grestore} bind def
/D15 {gsave translate 45 rotate 0 0 S15 stroke grestore} bind def
/DiaE {stroke [] 0 setdash vpt add M
  hpt neg vpt neg V hpt vpt neg V
  hpt vpt V hpt neg vpt V closepath stroke} def
/BoxE {stroke [] 0 setdash exch hpt sub exch vpt add M
  0 vpt2 neg V hpt2 0 V 0 vpt2 V
  hpt2 neg 0 V closepath stroke} def
/TriUE {stroke [] 0 setdash vpt 1.12 mul add M
  hpt neg vpt -1.62 mul V
  hpt 2 mul 0 V
  hpt neg vpt 1.62 mul V closepath stroke} def
/TriDE {stroke [] 0 setdash vpt 1.12 mul sub M
  hpt neg vpt 1.62 mul V
  hpt 2 mul 0 V
  hpt neg vpt -1.62 mul V closepath stroke} def
/PentE {stroke [] 0 setdash gsave
  translate 0 hpt M 4 {72 rotate 0 hpt L} repeat
  closepath stroke grestore} def
/CircE {stroke [] 0 setdash 
  hpt 0 360 arc stroke} def
/Opaque {gsave closepath 1 setgray fill grestore 0 setgray closepath} def
/DiaW {stroke [] 0 setdash vpt add M
  hpt neg vpt neg V hpt vpt neg V
  hpt vpt V hpt neg vpt V Opaque stroke} def
/BoxW {stroke [] 0 setdash exch hpt sub exch vpt add M
  0 vpt2 neg V hpt2 0 V 0 vpt2 V
  hpt2 neg 0 V Opaque stroke} def
/TriUW {stroke [] 0 setdash vpt 1.12 mul add M
  hpt neg vpt -1.62 mul V
  hpt 2 mul 0 V
  hpt neg vpt 1.62 mul V Opaque stroke} def
/TriDW {stroke [] 0 setdash vpt 1.12 mul sub M
  hpt neg vpt 1.62 mul V
  hpt 2 mul 0 V
  hpt neg vpt -1.62 mul V Opaque stroke} def
/PentW {stroke [] 0 setdash gsave
  translate 0 hpt M 4 {72 rotate 0 hpt L} repeat
  Opaque stroke grestore} def
/CircW {stroke [] 0 setdash 
  hpt 0 360 arc Opaque stroke} def
/BoxFill {gsave Rec 1 setgray fill grestore} def
/Density {
  /Fillden exch def
  currentrgbcolor
  /ColB exch def /ColG exch def /ColR exch def
  /ColR ColR Fillden mul Fillden sub 1 add def
  /ColG ColG Fillden mul Fillden sub 1 add def
  /ColB ColB Fillden mul Fillden sub 1 add def
  ColR ColG ColB setrgbcolor} def
/BoxColFill {gsave Rec PolyFill} def
/PolyFill {gsave Density fill grestore grestore} def
/h {rlineto rlineto rlineto closepath gsave fill grestore stroke} bind def
%
% PostScript Level 1 Pattern Fill routine for rectangles
% Usage: x y w h s a XX PatternFill
%	x,y = lower left corner of box to be filled
%	w,h = width and height of box
%	  a = angle in degrees between lines and x-axis
%	 XX = 0/1 for no/yes cross-hatch
%
/PatternFill {gsave /PFa [ 9 2 roll ] def
  PFa 0 get PFa 2 get 2 div add PFa 1 get PFa 3 get 2 div add translate
  PFa 2 get -2 div PFa 3 get -2 div PFa 2 get PFa 3 get Rec
  TransparentPatterns {} {gsave 1 setgray fill grestore} ifelse
  clip
  currentlinewidth 0.5 mul setlinewidth
  /PFs PFa 2 get dup mul PFa 3 get dup mul add sqrt def
  0 0 M PFa 5 get rotate PFs -2 div dup translate
  0 1 PFs PFa 4 get div 1 add floor cvi
	{PFa 4 get mul 0 M 0 PFs V} for
  0 PFa 6 get ne {
	0 1 PFs PFa 4 get div 1 add floor cvi
	{PFa 4 get mul 0 2 1 roll M PFs 0 V} for
 } if
  stroke grestore} def
%
/languagelevel where
 {pop languagelevel} {1} ifelse
dup 2 lt
	{/InterpretLevel1 true def
	 /InterpretLevel3 false def}
	{/InterpretLevel1 Level1 def
	 2 gt
	    {/InterpretLevel3 Level3 def}
	    {/InterpretLevel3 false def}
	 ifelse }
 ifelse
%
% PostScript level 2 pattern fill definitions
%
/Level2PatternFill {
/Tile8x8 {/PaintType 2 /PatternType 1 /TilingType 1 /BBox [0 0 8 8] /XStep 8 /YStep 8}
	bind def
/KeepColor {currentrgbcolor [/Pattern /DeviceRGB] setcolorspace} bind def
<< Tile8x8
 /PaintProc {0.5 setlinewidth pop 0 0 M 8 8 L 0 8 M 8 0 L stroke} 
>> matrix makepattern
/Pat1 exch def
<< Tile8x8
 /PaintProc {0.5 setlinewidth pop 0 0 M 8 8 L 0 8 M 8 0 L stroke
	0 4 M 4 8 L 8 4 L 4 0 L 0 4 L stroke}
>> matrix makepattern
/Pat2 exch def
<< Tile8x8
 /PaintProc {0.5 setlinewidth pop 0 0 M 0 8 L
	8 8 L 8 0 L 0 0 L fill}
>> matrix makepattern
/Pat3 exch def
<< Tile8x8
 /PaintProc {0.5 setlinewidth pop -4 8 M 8 -4 L
	0 12 M 12 0 L stroke}
>> matrix makepattern
/Pat4 exch def
<< Tile8x8
 /PaintProc {0.5 setlinewidth pop -4 0 M 8 12 L
	0 -4 M 12 8 L stroke}
>> matrix makepattern
/Pat5 exch def
<< Tile8x8
 /PaintProc {0.5 setlinewidth pop -2 8 M 4 -4 L
	0 12 M 8 -4 L 4 12 M 10 0 L stroke}
>> matrix makepattern
/Pat6 exch def
<< Tile8x8
 /PaintProc {0.5 setlinewidth pop -2 0 M 4 12 L
	0 -4 M 8 12 L 4 -4 M 10 8 L stroke}
>> matrix makepattern
/Pat7 exch def
<< Tile8x8
 /PaintProc {0.5 setlinewidth pop 8 -2 M -4 4 L
	12 0 M -4 8 L 12 4 M 0 10 L stroke}
>> matrix makepattern
/Pat8 exch def
<< Tile8x8
 /PaintProc {0.5 setlinewidth pop 0 -2 M 12 4 L
	-4 0 M 12 8 L -4 4 M 8 10 L stroke}
>> matrix makepattern
/Pat9 exch def
/Pattern1 {PatternBgnd KeepColor Pat1 setpattern} bind def
/Pattern2 {PatternBgnd KeepColor Pat2 setpattern} bind def
/Pattern3 {PatternBgnd KeepColor Pat3 setpattern} bind def
/Pattern4 {PatternBgnd KeepColor Landscape {Pat5} {Pat4} ifelse setpattern} bind def
/Pattern5 {PatternBgnd KeepColor Landscape {Pat4} {Pat5} ifelse setpattern} bind def
/Pattern6 {PatternBgnd KeepColor Landscape {Pat9} {Pat6} ifelse setpattern} bind def
/Pattern7 {PatternBgnd KeepColor Landscape {Pat8} {Pat7} ifelse setpattern} bind def
} def
%
%
%End of PostScript Level 2 code
%
/PatternBgnd {
  TransparentPatterns {} {gsave 1 setgray fill grestore} ifelse
} def
%
% Substitute for Level 2 pattern fill codes with
% grayscale if Level 2 support is not selected.
%
/Level1PatternFill {
/Pattern1 {0.250 Density} bind def
/Pattern2 {0.500 Density} bind def
/Pattern3 {0.750 Density} bind def
/Pattern4 {0.125 Density} bind def
/Pattern5 {0.375 Density} bind def
/Pattern6 {0.625 Density} bind def
/Pattern7 {0.875 Density} bind def
} def
%
% Now test for support of Level 2 code
%
Level1 {Level1PatternFill} {Level2PatternFill} ifelse
%
/Symbol-Oblique /Symbol findfont [1 0 .167 1 0 0] makefont
dup length dict begin {1 index /FID eq {pop pop} {def} ifelse} forall
currentdict end definefont pop
%
Level1 SuppressPDFMark or 
{} {
/SDict 10 dict def
systemdict /pdfmark known not {
  userdict /pdfmark systemdict /cleartomark get put
} if
SDict begin [
  /Title (images/seperate_request-response-0_netlink.tex)
  /Subject (gnuplot plot)
  /Creator (gnuplot 5.2 patchlevel 8)
%  /Producer (gnuplot)
%  /Keywords ()
  /CreationDate (Tue Apr  6 12:07:31 2021)
  /DOCINFO pdfmark
end
} ifelse
%
% Support for boxed text - Ethan A Merritt Sep 2016
%
/InitTextBox { userdict /TBy2 3 -1 roll put userdict /TBx2 3 -1 roll put
           userdict /TBy1 3 -1 roll put userdict /TBx1 3 -1 roll put
	   /Boxing true def } def
/ExtendTextBox { dup type /stringtype eq
    { Boxing { gsave dup false charpath pathbbox
      dup TBy2 gt {userdict /TBy2 3 -1 roll put} {pop} ifelse
      dup TBx2 gt {userdict /TBx2 3 -1 roll put} {pop} ifelse
      dup TBy1 lt {userdict /TBy1 3 -1 roll put} {pop} ifelse
      dup TBx1 lt {userdict /TBx1 3 -1 roll put} {pop} ifelse
      grestore } if }
    {} ifelse} def
/PopTextBox { newpath TBx1 TBxmargin sub TBy1 TBymargin sub M
               TBx1 TBxmargin sub TBy2 TBymargin add L
	       TBx2 TBxmargin add TBy2 TBymargin add L
	       TBx2 TBxmargin add TBy1 TBymargin sub L closepath } def
/DrawTextBox { PopTextBox stroke /Boxing false def} def
/FillTextBox { gsave PopTextBox fill grestore /Boxing false def} def
0 0 0 0 InitTextBox
/TBxmargin 20 def
/TBymargin 20 def
/Boxing false def
/textshow { ExtendTextBox Gshow } def
%
end
%%EndProlog
%%Page: 1 1
gnudict begin
gsave
doclip
50 50 translate
0.050 0.050 scale
0 setgray
newpath
1.000 UL
LTb
LCb setrgbcolor
[] 0 setdash
0.500 UL
LTa
LCa setrgbcolor
814 3224 M
5989 0 V
stroke
1.000 UL
LTb
LCb setrgbcolor
[] 0 setdash
814 3224 M
63 0 V
5926 0 R
-63 0 V
stroke
LTb
0.500 UL
LTa
LCa setrgbcolor
814 3623 M
5989 0 V
stroke
1.000 UL
LTb
LCb setrgbcolor
[] 0 setdash
814 3623 M
63 0 V
5926 0 R
-63 0 V
stroke
LTb
0.500 UL
LTa
LCa setrgbcolor
814 4022 M
3847 0 V
2010 0 R
132 0 V
stroke
1.000 UL
LTb
LCb setrgbcolor
[] 0 setdash
814 4022 M
63 0 V
5926 0 R
-63 0 V
stroke
LTb
0.500 UL
LTa
LCa setrgbcolor
814 4420 M
3847 0 V
2010 0 R
132 0 V
stroke
1.000 UL
LTb
LCb setrgbcolor
[] 0 setdash
814 4420 M
63 0 V
5926 0 R
-63 0 V
stroke
LTb
0.500 UL
LTa
LCa setrgbcolor
814 4819 M
5989 0 V
stroke
1.000 UL
LTb
LCb setrgbcolor
[] 0 setdash
814 4819 M
63 0 V
5926 0 R
-63 0 V
stroke
LTb
0.500 UL
LTa
LCa setrgbcolor
814 3224 M
0 1595 V
stroke
1.000 UL
LTb
LCb setrgbcolor
[] 0 setdash
814 3224 M
0 63 V
0 1532 R
0 -63 V
stroke
LTb
0.500 UL
LTa
LCa setrgbcolor
1413 3224 M
0 1595 V
stroke
1.000 UL
LTb
LCb setrgbcolor
[] 0 setdash
1413 3224 M
0 63 V
0 1532 R
0 -63 V
stroke
LTb
0.500 UL
LTa
LCa setrgbcolor
2012 3224 M
0 1595 V
stroke
1.000 UL
LTb
LCb setrgbcolor
[] 0 setdash
2012 3224 M
0 63 V
0 1532 R
0 -63 V
stroke
LTb
0.500 UL
LTa
LCa setrgbcolor
2611 3224 M
0 1595 V
stroke
1.000 UL
LTb
LCb setrgbcolor
[] 0 setdash
2611 3224 M
0 63 V
0 1532 R
0 -63 V
stroke
LTb
0.500 UL
LTa
LCa setrgbcolor
3210 3224 M
0 1595 V
stroke
1.000 UL
LTb
LCb setrgbcolor
[] 0 setdash
3210 3224 M
0 63 V
0 1532 R
0 -63 V
stroke
LTb
0.500 UL
LTa
LCa setrgbcolor
3809 3224 M
0 1595 V
stroke
1.000 UL
LTb
LCb setrgbcolor
[] 0 setdash
3809 3224 M
0 63 V
0 1532 R
0 -63 V
stroke
LTb
0.500 UL
LTa
LCa setrgbcolor
4407 3224 M
0 1595 V
stroke
1.000 UL
LTb
LCb setrgbcolor
[] 0 setdash
4407 3224 M
0 63 V
0 1532 R
0 -63 V
stroke
LTb
0.500 UL
LTa
LCa setrgbcolor
5006 3224 M
0 487 V
0 1045 R
0 63 V
stroke
1.000 UL
LTb
LCb setrgbcolor
[] 0 setdash
5006 3224 M
0 63 V
0 1532 R
0 -63 V
stroke
LTb
0.500 UL
LTa
LCa setrgbcolor
5605 3224 M
0 487 V
0 1045 R
0 63 V
stroke
1.000 UL
LTb
LCb setrgbcolor
[] 0 setdash
5605 3224 M
0 63 V
0 1532 R
0 -63 V
stroke
LTb
0.500 UL
LTa
LCa setrgbcolor
6204 3224 M
0 487 V
0 1045 R
0 63 V
stroke
1.000 UL
LTb
LCb setrgbcolor
[] 0 setdash
6204 3224 M
0 63 V
0 1532 R
0 -63 V
stroke
LTb
0.500 UL
LTa
LCa setrgbcolor
6803 3224 M
0 1595 V
stroke
1.000 UL
LTb
LCb setrgbcolor
[] 0 setdash
6803 3224 M
0 63 V
0 1532 R
0 -63 V
stroke
LTb
1.000 UL
LTb
814 4819 N
0 -1595 V
5989 0 V
0 1595 V
-5989 0 V
Z stroke
1.000 UP
1.000 UL
LTb
1.000 UL
LTb
4661 3711 N
0 1045 V
2010 0 V
0 -1045 V
-2010 0 V
Z stroke
% Begin plot #1
1.000 UP
1.000 UL
LTb
0.58 0.00 0.83 C
874 4106 Pls
934 4042 Pls
994 3880 Pls
1054 3917 Pls
1113 3892 Pls
1173 3837 Pls
1233 3824 Pls
1293 3856 Pls
1353 3796 Pls
1413 3784 Pls
1473 3767 Pls
1533 3775 Pls
1593 3779 Pls
1652 3836 Pls
1712 3782 Pls
1772 3759 Pls
1832 3799 Pls
1892 3784 Pls
1952 3765 Pls
2012 3797 Pls
2072 3769 Pls
2132 3790 Pls
2191 3785 Pls
2251 3779 Pls
2311 3772 Pls
2371 3822 Pls
2431 3809 Pls
2491 3787 Pls
2551 3791 Pls
2611 3765 Pls
2671 3765 Pls
2730 3790 Pls
2790 3852 Pls
2850 3787 Pls
2910 3999 Pls
2970 3809 Pls
3030 3793 Pls
3090 3815 Pls
3150 3775 Pls
3210 3778 Pls
3269 3801 Pls
3329 3757 Pls
3389 3757 Pls
3449 3806 Pls
3509 3821 Pls
3569 3782 Pls
3629 3742 Pls
3689 3751 Pls
3749 3787 Pls
3809 3763 Pls
3868 3797 Pls
3928 3750 Pls
3988 3778 Pls
4048 3787 Pls
4108 3785 Pls
4168 3769 Pls
4228 3803 Pls
4288 3740 Pls
4348 3782 Pls
4407 3787 Pls
4467 3756 Pls
4527 3770 Pls
4587 3797 Pls
4647 3797 Pls
4707 3762 Pls
4767 3776 Pls
4827 3757 Pls
4887 3763 Pls
4946 3772 Pls
5006 3816 Pls
5066 3762 Pls
5126 3771 Pls
5186 3772 Pls
5246 3781 Pls
5306 3772 Pls
5366 3769 Pls
5426 3782 Pls
5485 3785 Pls
5545 3776 Pls
5605 3788 Pls
5665 3775 Pls
5725 3799 Pls
5785 3773 Pls
5845 3797 Pls
5905 3747 Pls
5965 3741 Pls
6024 3767 Pls
6084 3771 Pls
6144 3816 Pls
6204 3779 Pls
6264 3790 Pls
6324 3759 Pls
6384 3767 Pls
6444 3788 Pls
6504 3785 Pls
6563 3750 Pls
6623 4042 Pls
6683 3778 Pls
6743 3754 Pls
LTw
% End plot #1
% Begin plot #2
1.000 UP
1.000 UL
LTb
LCb setrgbcolor
[] 0 setdash
0.00 0.62 0.45 C
874 4044 Crs
934 3971 Crs
994 3886 Crs
1054 3878 Crs
1113 3841 Crs
1173 3807 Crs
1233 3775 Crs
1293 3818 Crs
1353 3738 Crs
1413 3788 Crs
1473 3778 Crs
1533 3781 Crs
1593 3781 Crs
1652 3767 Crs
1712 3748 Crs
1772 4463 Crs
1892 3985 Crs
1952 3864 Crs
2012 3838 Crs
2072 4339 Crs
2132 3818 Crs
2191 3796 Crs
2251 3706 Crs
2311 3763 Crs
2371 3741 Crs
2431 3711 Crs
2491 3713 Crs
2551 3694 Crs
2611 3726 Crs
2671 4222 Crs
2730 3734 Crs
2790 3757 Crs
2850 3686 Crs
2910 3729 Crs
2970 3703 Crs
3030 3728 Crs
3090 3701 Crs
3150 3707 Crs
3210 3707 Crs
3269 4196 Crs
3329 3748 Crs
3389 3760 Crs
3449 3732 Crs
3509 3697 Crs
3569 3709 Crs
3629 3703 Crs
3689 3669 Crs
3749 3720 Crs
3809 3691 Crs
3868 4181 Crs
3928 3750 Crs
3988 3729 Crs
4048 3705 Crs
4108 3663 Crs
4168 3731 Crs
4228 3708 Crs
4288 3707 Crs
4348 3713 Crs
4407 3688 Crs
4467 4163 Crs
4527 3741 Crs
4587 3778 Crs
4647 3688 Crs
4707 3726 Crs
4767 3708 Crs
4827 3700 Crs
4887 3708 Crs
4946 3713 Crs
5006 3685 Crs
5066 4199 Crs
5126 3744 Crs
5186 3737 Crs
5246 3669 Crs
5306 3701 Crs
5366 3703 Crs
5426 3694 Crs
5485 3713 Crs
5545 3692 Crs
5605 3680 Crs
5665 4175 Crs
5725 3762 Crs
5785 3738 Crs
5845 3692 Crs
5905 3691 Crs
5965 3700 Crs
6024 3688 Crs
6084 3710 Crs
6144 3716 Crs
6204 3720 Crs
6264 4184 Crs
6324 3757 Crs
6384 3756 Crs
6444 3695 Crs
6504 3701 Crs
6563 3669 Crs
6623 3729 Crs
6683 3692 Crs
6743 3736 Crs
LTw
% End plot #2
% Begin plot #3
1.000 UP
1.000 UL
LTb
LCb setrgbcolor
[] 0 setdash
0.34 0.71 0.91 C
874 3973 Star
934 3844 Star
994 3809 Star
1054 3807 Star
1113 3744 Star
1173 3756 Star
1233 3700 Star
1293 3759 Star
1353 3729 Star
1413 3680 Star
1473 3688 Star
1533 3711 Star
1593 3695 Star
1652 3694 Star
1712 3652 Star
1772 3672 Star
1832 3685 Star
1892 3722 Star
1952 3691 Star
2012 3688 Star
2072 3698 Star
2132 3677 Star
2191 3679 Star
2251 3683 Star
2311 3664 Star
2371 3694 Star
2431 3663 Star
2491 3692 Star
2551 3703 Star
2611 3686 Star
2671 3698 Star
2730 3691 Star
2790 3694 Star
2850 3682 Star
2910 3643 Star
2970 3710 Star
3030 3663 Star
3090 3657 Star
3150 3688 Star
3210 3710 Star
3269 3672 Star
3329 4481 Star
3449 3912 Star
3509 3809 Star
3569 3745 Star
3629 4243 Star
3689 3735 Star
3749 3748 Star
3809 3729 Star
3868 3689 Star
3928 3670 Star
3988 3666 Star
4048 3677 Star
4108 3676 Star
4168 3672 Star
4228 4144 Star
4288 3692 Star
4348 3701 Star
4407 3670 Star
4467 3682 Star
4527 3652 Star
4587 3658 Star
4647 3683 Star
4707 3667 Star
4767 3663 Star
4827 4149 Star
4887 3688 Star
4946 3705 Star
5006 3639 Star
5066 3678 Star
5126 3639 Star
5186 3643 Star
5246 3647 Star
5306 3649 Star
5366 3645 Star
5426 4151 Star
5485 3692 Star
5545 3686 Star
5605 3652 Star
5665 3655 Star
5725 3694 Star
5785 3673 Star
5845 3638 Star
5905 3658 Star
5965 3663 Star
6024 4122 Star
6084 3705 Star
6144 3698 Star
6204 3649 Star
6264 3675 Star
6324 3686 Star
6384 3663 Star
6444 3666 Star
6504 3677 Star
6563 3660 Star
6623 4092 Star
6683 3675 Star
6743 3698 Star
LTw
% End plot #3
% Begin plot #4
1.000 UP
1.000 UL
LTb
LCb setrgbcolor
[] 0 setdash
0.90 0.62 0.00 C
874 3925 Box
934 3877 Box
994 3754 Box
1054 3765 Box
1113 3791 Box
1173 3740 Box
1233 3719 Box
1293 4246 Box
1353 3753 Box
1413 3741 Box
1473 3713 Box
1533 3708 Box
1593 3678 Box
1652 3691 Box
1712 3705 Box
1772 3713 Box
1832 3685 Box
1892 4027 Box
1952 3713 Box
2012 3692 Box
2072 3692 Box
2132 3680 Box
2191 3689 Box
2251 3672 Box
2311 3697 Box
2371 3691 Box
2431 3683 Box
2491 3968 Box
2551 3739 Box
2611 3723 Box
2671 3704 Box
2730 3671 Box
2790 3701 Box
2850 3683 Box
2910 3683 Box
2970 3686 Box
3030 3666 Box
3090 3943 Box
3150 3685 Box
3210 3669 Box
3269 3708 Box
3329 3673 Box
3389 3689 Box
3449 3698 Box
3509 3666 Box
3569 3667 Box
3629 3679 Box
3689 3939 Box
3749 3703 Box
3809 3672 Box
3868 3679 Box
3928 3694 Box
3988 3671 Box
4048 3682 Box
4108 3667 Box
4168 3689 Box
4228 3688 Box
4288 3900 Box
4348 3676 Box
4407 3703 Box
4467 3675 Box
4527 3669 Box
4587 3694 Box
4647 3682 Box
4707 3701 Box
4767 3740 Box
4827 3691 Box
4887 3957 Box
4946 3723 Box
5006 3688 Box
5066 3688 Box
5126 3663 Box
5186 3672 Box
5246 3673 Box
5306 3673 Box
5366 3679 Box
5426 3676 Box
5485 3887 Box
5545 3692 Box
5605 3686 Box
5665 3685 Box
5725 3680 Box
5785 3680 Box
5845 3691 Box
5905 3688 Box
5965 3678 Box
6024 3669 Box
6084 4024 Box
6144 3706 Box
6204 3702 Box
6264 3677 Box
6324 3667 Box
6384 3679 Box
6444 3671 Box
6504 3641 Box
6563 3695 Box
6623 3663 Box
6683 3847 Box
6743 3692 Box
LTw
% End plot #4
LCw setrgbcolor
1.000 4661 3711 2010 1045 BoxColFill
1.000 UL
LTb
LCb setrgbcolor
[] 0 setdash
4661 3711 N
0 1045 V
2010 0 V
0 -1045 V
-2010 0 V
Z stroke
% Begin plot #5
1.000 UP
1.000 UL
LTb
0.58 0.00 0.83 C
LCb setrgbcolor
1.000 UP
1.000 UL
LTb
0.58 0.00 0.83 C
6243 4563 Pls
LTw
% End plot #5
% Begin plot #6
1.000 UP
1.000 UL
LTb
LCb setrgbcolor
[] 0 setdash
0.00 0.62 0.45 C
LCb setrgbcolor
1.000 UP
1.000 UL
LTb
0.00 0.62 0.45 C
6243 4343 Crs
LTw
% End plot #6
% Begin plot #7
1.000 UP
1.000 UL
LTb
LCb setrgbcolor
[] 0 setdash
0.34 0.71 0.91 C
LCb setrgbcolor
1.000 UP
1.000 UL
LTb
0.34 0.71 0.91 C
6243 4123 Star
LTw
% End plot #7
% Begin plot #8
1.000 UP
1.000 UL
LTb
LCb setrgbcolor
[] 0 setdash
0.90 0.62 0.00 C
LCb setrgbcolor
1.000 UP
1.000 UL
LTb
0.90 0.62 0.00 C
6243 3903 Box
LTw
% End plot #8
2.000 UL
LTb
LCb setrgbcolor
[] 0 setdash
1.000 UL
LTb
814 4819 N
0 -1595 V
5989 0 V
0 1595 V
-5989 0 V
Z stroke
1.000 UP
1.000 UL
LTb
1.000 UL
LTb
0.500 UL
LTa
LCa setrgbcolor
814 704 M
5989 0 V
stroke
1.000 UL
LTb
LCb setrgbcolor
[] 0 setdash
814 704 M
63 0 V
5926 0 R
-63 0 V
stroke
LTb
0.500 UL
LTa
LCa setrgbcolor
814 1023 M
5989 0 V
stroke
1.000 UL
LTb
LCb setrgbcolor
[] 0 setdash
814 1023 M
63 0 V
5926 0 R
-63 0 V
stroke
LTb
0.500 UL
LTa
LCa setrgbcolor
814 1342 M
3847 0 V
2010 0 R
132 0 V
stroke
1.000 UL
LTb
LCb setrgbcolor
[] 0 setdash
814 1342 M
63 0 V
5926 0 R
-63 0 V
stroke
LTb
0.500 UL
LTa
LCa setrgbcolor
814 1662 M
3847 0 V
2010 0 R
132 0 V
stroke
1.000 UL
LTb
LCb setrgbcolor
[] 0 setdash
814 1662 M
63 0 V
5926 0 R
-63 0 V
stroke
LTb
0.500 UL
LTa
LCa setrgbcolor
814 1981 M
3847 0 V
2010 0 R
132 0 V
stroke
1.000 UL
LTb
LCb setrgbcolor
[] 0 setdash
814 1981 M
63 0 V
5926 0 R
-63 0 V
stroke
LTb
0.500 UL
LTa
LCa setrgbcolor
814 2300 M
5989 0 V
stroke
1.000 UL
LTb
LCb setrgbcolor
[] 0 setdash
814 2300 M
63 0 V
5926 0 R
-63 0 V
stroke
LTb
0.500 UL
LTa
LCa setrgbcolor
814 704 M
0 1596 V
stroke
1.000 UL
LTb
LCb setrgbcolor
[] 0 setdash
814 704 M
0 63 V
0 1533 R
0 -63 V
stroke
LTb
0.500 UL
LTa
LCa setrgbcolor
1413 704 M
0 1596 V
stroke
1.000 UL
LTb
LCb setrgbcolor
[] 0 setdash
1413 704 M
0 63 V
0 1533 R
0 -63 V
stroke
LTb
0.500 UL
LTa
LCa setrgbcolor
2012 704 M
0 1596 V
stroke
1.000 UL
LTb
LCb setrgbcolor
[] 0 setdash
2012 704 M
0 63 V
0 1533 R
0 -63 V
stroke
LTb
0.500 UL
LTa
LCa setrgbcolor
2611 704 M
0 1596 V
stroke
1.000 UL
LTb
LCb setrgbcolor
[] 0 setdash
2611 704 M
0 63 V
0 1533 R
0 -63 V
stroke
LTb
0.500 UL
LTa
LCa setrgbcolor
3210 704 M
0 1596 V
stroke
1.000 UL
LTb
LCb setrgbcolor
[] 0 setdash
3210 704 M
0 63 V
0 1533 R
0 -63 V
stroke
LTb
0.500 UL
LTa
LCa setrgbcolor
3809 704 M
0 1596 V
stroke
1.000 UL
LTb
LCb setrgbcolor
[] 0 setdash
3809 704 M
0 63 V
0 1533 R
0 -63 V
stroke
LTb
0.500 UL
LTa
LCa setrgbcolor
4407 704 M
0 1596 V
stroke
1.000 UL
LTb
LCb setrgbcolor
[] 0 setdash
4407 704 M
0 63 V
0 1533 R
0 -63 V
stroke
LTb
0.500 UL
LTa
LCa setrgbcolor
5006 704 M
0 488 V
0 1045 R
0 63 V
stroke
1.000 UL
LTb
LCb setrgbcolor
[] 0 setdash
5006 704 M
0 63 V
0 1533 R
0 -63 V
stroke
LTb
0.500 UL
LTa
LCa setrgbcolor
5605 704 M
0 488 V
0 1045 R
0 63 V
stroke
1.000 UL
LTb
LCb setrgbcolor
[] 0 setdash
5605 704 M
0 63 V
0 1533 R
0 -63 V
stroke
LTb
0.500 UL
LTa
LCa setrgbcolor
6204 704 M
0 488 V
0 1045 R
0 63 V
stroke
1.000 UL
LTb
LCb setrgbcolor
[] 0 setdash
6204 704 M
0 63 V
0 1533 R
0 -63 V
stroke
LTb
0.500 UL
LTa
LCa setrgbcolor
6803 704 M
0 1596 V
stroke
1.000 UL
LTb
LCb setrgbcolor
[] 0 setdash
6803 704 M
0 63 V
0 1533 R
0 -63 V
stroke
LTb
1.000 UL
LTb
814 2300 N
814 704 L
5989 0 V
0 1596 V
-5989 0 V
Z stroke
1.000 UP
1.000 UL
LTb
1.000 UL
LTb
4661 1192 N
0 1045 V
2010 0 V
0 -1045 V
-2010 0 V
Z stroke
% Begin plot #1
1.000 UP
1.000 UL
LTb
0.58 0.00 0.83 C
874 1493 Pls
934 1372 Pls
994 1348 Pls
1054 1322 Pls
1113 1354 Pls
1173 1313 Pls
1233 1363 Pls
1293 1307 Pls
1353 1340 Pls
1413 1298 Pls
1473 1266 Pls
1533 1307 Pls
1593 1342 Pls
1652 1360 Pls
1712 1301 Pls
1772 1260 Pls
1832 1283 Pls
1892 1277 Pls
1952 1340 Pls
2012 1316 Pls
2072 1298 Pls
2132 1274 Pls
2191 1301 Pls
2251 1307 Pls
2311 1280 Pls
2371 1313 Pls
2431 1301 Pls
2491 1307 Pls
2551 1298 Pls
2611 1274 Pls
2671 1336 Pls
2730 1295 Pls
2790 1333 Pls
2910 1354 Pls
2970 1322 Pls
3030 1307 Pls
3090 1304 Pls
3150 1304 Pls
3210 1263 Pls
3269 1292 Pls
3329 1274 Pls
3389 1322 Pls
3449 1301 Pls
3509 1301 Pls
3569 1298 Pls
3629 1292 Pls
3689 1257 Pls
3749 1289 Pls
3809 1331 Pls
3868 1322 Pls
3928 1292 Pls
3988 1286 Pls
4048 1289 Pls
4108 1295 Pls
4168 1298 Pls
4228 1337 Pls
4288 1307 Pls
4348 1301 Pls
4407 1269 Pls
4467 1328 Pls
4527 1286 Pls
4587 1348 Pls
4647 1298 Pls
4707 1260 Pls
4767 1292 Pls
4827 1286 Pls
4887 1248 Pls
4946 1304 Pls
5006 1280 Pls
5066 1292 Pls
5126 1301 Pls
5186 1277 Pls
5246 1274 Pls
5306 1304 Pls
5366 1336 Pls
5426 1286 Pls
5485 1274 Pls
5545 1304 Pls
5605 1286 Pls
5665 1265 Pls
5725 1304 Pls
5785 1289 Pls
5845 1272 Pls
5905 1313 Pls
5965 1239 Pls
6024 1277 Pls
6084 1310 Pls
6144 1304 Pls
6204 1248 Pls
6264 1283 Pls
6324 1292 Pls
6384 1277 Pls
6444 1283 Pls
6504 1328 Pls
6563 1263 Pls
6623 1331 Pls
6683 1245 Pls
6743 1301 Pls
LTw
% End plot #1
% Begin plot #2
1.000 UP
1.000 UL
LTb
LCb setrgbcolor
[] 0 setdash
0.00 0.62 0.45 C
874 1410 Crs
934 1387 Crs
994 1443 Crs
1054 1366 Crs
1113 1322 Crs
1173 1307 Crs
1233 1313 Crs
1293 1336 Crs
1353 1283 Crs
1413 1295 Crs
1473 1286 Crs
1533 1351 Crs
1593 1369 Crs
1652 1325 Crs
1772 2111 Crs
1832 1499 Crs
1892 1334 Crs
1952 1325 Crs
2012 1295 Crs
2072 1443 Crs
2132 1328 Crs
2191 1280 Crs
2251 1257 Crs
2311 1272 Crs
2371 1313 Crs
2431 1272 Crs
2491 1275 Crs
2551 1245 Crs
2611 1319 Crs
2671 1381 Crs
2730 1310 Crs
2790 1301 Crs
2850 1269 Crs
2910 1245 Crs
2970 1283 Crs
3030 1286 Crs
3090 1269 Crs
3150 1289 Crs
3210 1301 Crs
3269 1390 Crs
3329 1316 Crs
3389 1257 Crs
3449 1307 Crs
3509 1239 Crs
3569 1289 Crs
3629 1245 Crs
3689 1286 Crs
3749 1274 Crs
3809 1263 Crs
3868 1419 Crs
3928 1322 Crs
3988 1239 Crs
4048 1280 Crs
4108 1257 Crs
4168 1263 Crs
4228 1272 Crs
4288 1233 Crs
4348 1277 Crs
4407 1233 Crs
4467 1408 Crs
4527 1301 Crs
4587 1275 Crs
4647 1272 Crs
4707 1260 Crs
4767 1257 Crs
4827 1274 Crs
4887 1292 Crs
4946 1269 Crs
5006 1307 Crs
5066 1336 Crs
5126 1342 Crs
5186 1295 Crs
5246 1266 Crs
5306 1274 Crs
5366 1272 Crs
5426 1248 Crs
5485 1274 Crs
5545 1269 Crs
5605 1277 Crs
5665 1375 Crs
5725 1316 Crs
5785 1283 Crs
5845 1269 Crs
5905 1271 Crs
5965 1254 Crs
6024 1316 Crs
6084 1248 Crs
6144 1248 Crs
6204 1263 Crs
6264 1461 Crs
6324 1295 Crs
6384 1272 Crs
6444 1251 Crs
6504 1260 Crs
6563 1277 Crs
6623 1260 Crs
6683 1289 Crs
6743 1269 Crs
LTw
% End plot #2
% Begin plot #3
1.000 UP
1.000 UL
LTb
LCb setrgbcolor
[] 0 setdash
0.34 0.71 0.91 C
874 1410 Star
934 1416 Star
994 1348 Star
1054 1357 Star
1113 1310 Star
1173 1322 Star
1233 1292 Star
1293 1304 Star
1353 1337 Star
1413 1307 Star
1473 1280 Star
1533 1322 Star
1593 1292 Star
1652 1298 Star
1712 1248 Star
1772 1274 Star
1832 1283 Star
1892 1277 Star
1952 1310 Star
2012 1298 Star
2072 1310 Star
2132 1266 Star
2191 1277 Star
2251 1292 Star
2311 1280 Star
2371 1257 Star
2431 1272 Star
2491 1301 Star
2551 1319 Star
2611 1313 Star
2671 1295 Star
2730 1295 Star
2790 1275 Star
2850 1280 Star
2910 1289 Star
2970 1271 Star
3030 1263 Star
3090 1328 Star
3150 1257 Star
3210 1280 Star
3269 1304 Star
3329 2096 Star
3389 1588 Star
3449 1390 Star
3509 1345 Star
3569 1322 Star
3629 1416 Star
3689 1328 Star
3749 1298 Star
3809 1280 Star
3868 1310 Star
3928 1265 Star
3988 1254 Star
4048 1266 Star
4108 1289 Star
4168 1257 Star
4228 1372 Star
4288 1274 Star
4348 1245 Star
4407 1274 Star
4467 1295 Star
4527 1248 Star
4587 1233 Star
4647 1269 Star
4707 1239 Star
4767 1280 Star
4827 1396 Star
4887 1322 Star
4946 1251 Star
5006 1224 Star
5066 1283 Star
5126 1245 Star
5186 1263 Star
5246 1242 Star
5306 1263 Star
5366 1204 Star
5426 1396 Star
5485 1298 Star
5545 1266 Star
5605 1272 Star
5665 1239 Star
5725 1274 Star
5785 1280 Star
5845 1248 Star
5905 1272 Star
5965 1292 Star
6024 1331 Star
6084 1280 Star
6144 1289 Star
6204 1236 Star
6264 1283 Star
6324 1274 Star
6384 1251 Star
6444 1233 Star
6504 1251 Star
6563 1245 Star
6623 1375 Star
6683 1286 Star
6743 1257 Star
LTw
% End plot #3
% Begin plot #4
1.000 UP
1.000 UL
LTb
LCb setrgbcolor
[] 0 setdash
0.90 0.62 0.00 C
874 1351 Box
934 1363 Box
994 1310 Box
1054 1272 Box
1113 1269 Box
1173 1248 Box
1233 1257 Box
1293 1313 Box
1353 1298 Box
1413 1274 Box
1473 1277 Box
1533 1274 Box
1593 1304 Box
1652 1265 Box
1712 1272 Box
1772 1239 Box
1832 1239 Box
1892 1286 Box
1952 1245 Box
2012 1227 Box
2072 1245 Box
2132 1245 Box
2191 1277 Box
2251 1233 Box
2311 1257 Box
2371 1209 Box
2431 1239 Box
2491 1283 Box
2551 1239 Box
2611 1230 Box
2671 1218 Box
2730 1236 Box
2790 1265 Box
2850 1251 Box
2910 1263 Box
2970 1236 Box
3030 1254 Box
3090 1304 Box
3150 1263 Box
3210 1274 Box
3269 1292 Box
3329 1292 Box
3389 1274 Box
3449 1265 Box
3509 1277 Box
3569 1245 Box
3629 1248 Box
3689 1260 Box
3749 1245 Box
3809 1254 Box
3868 1316 Box
3928 1283 Box
3988 1254 Box
4048 1248 Box
4108 1254 Box
4168 1251 Box
4228 1283 Box
4288 1254 Box
4348 1260 Box
4407 1236 Box
4467 1257 Box
4527 1245 Box
4587 1251 Box
4647 1221 Box
4707 1283 Box
4767 1266 Box
4827 1277 Box
4887 1301 Box
4946 1254 Box
5006 1257 Box
5066 1242 Box
5126 1248 Box
5186 1286 Box
5246 1221 Box
5306 1245 Box
5366 1236 Box
5426 1245 Box
5485 1283 Box
5545 1272 Box
5605 1269 Box
5665 1283 Box
5725 1254 Box
5785 1236 Box
5845 1298 Box
5905 1245 Box
5965 1218 Box
6024 1248 Box
6084 1251 Box
6144 1239 Box
6204 1230 Box
6264 1248 Box
6324 1218 Box
6384 1254 Box
6444 1224 Box
6504 1233 Box
6563 1248 Box
6623 1257 Box
6683 1277 Box
6743 1280 Box
LTw
% End plot #4
LCw setrgbcolor
1.000 4661 1192 2010 1045 BoxColFill
1.000 UL
LTb
LCb setrgbcolor
[] 0 setdash
4661 1192 N
0 1045 V
2010 0 V
0 -1045 V
-2010 0 V
Z stroke
% Begin plot #5
1.000 UP
1.000 UL
LTb
0.58 0.00 0.83 C
LCb setrgbcolor
1.000 UP
1.000 UL
LTb
0.58 0.00 0.83 C
6243 2044 Pls
LTw
% End plot #5
% Begin plot #6
1.000 UP
1.000 UL
LTb
LCb setrgbcolor
[] 0 setdash
0.00 0.62 0.45 C
LCb setrgbcolor
1.000 UP
1.000 UL
LTb
0.00 0.62 0.45 C
6243 1824 Crs
LTw
% End plot #6
% Begin plot #7
1.000 UP
1.000 UL
LTb
LCb setrgbcolor
[] 0 setdash
0.34 0.71 0.91 C
LCb setrgbcolor
1.000 UP
1.000 UL
LTb
0.34 0.71 0.91 C
6243 1604 Star
LTw
% End plot #7
% Begin plot #8
1.000 UP
1.000 UL
LTb
LCb setrgbcolor
[] 0 setdash
0.90 0.62 0.00 C
LCb setrgbcolor
1.000 UP
1.000 UL
LTb
0.90 0.62 0.00 C
6243 1384 Box
LTw
% End plot #8
2.000 UL
LTb
LCb setrgbcolor
[] 0 setdash
1.000 UL
LTb
814 2300 N
814 704 L
5989 0 V
0 1596 V
-5989 0 V
Z stroke
1.000 UP
1.000 UL
LTb
stroke
grestore
end
showpage
%%Trailer
