%!PS-Adobe-2.0 EPSF-2.0
%%Title: images/seperate_request-response-2_mmap.tex
%%Creator: gnuplot 5.2 patchlevel 8
%%CreationDate: Tue Apr  6 12:13:02 2021
%%DocumentFonts: 
%%BoundingBox: 50 50 410 302
%%EndComments
%%BeginProlog
/gnudict 256 dict def
gnudict begin
%
% The following true/false flags may be edited by hand if desired.
% The unit line width and grayscale image gamma correction may also be changed.
%
/Color true def
/Blacktext true def
/Solid false def
/Dashlength 1 def
/Landscape false def
/Level1 false def
/Level3 false def
/Rounded false def
/ClipToBoundingBox false def
/SuppressPDFMark false def
/TransparentPatterns false def
/gnulinewidth 5.000 def
/userlinewidth gnulinewidth def
/Gamma 1.0 def
/BackgroundColor {-1.000 -1.000 -1.000} def
%
/vshift -73 def
/dl1 {
  10.0 Dashlength userlinewidth gnulinewidth div mul mul mul
  Rounded { currentlinewidth 0.75 mul sub dup 0 le { pop 0.01 } if } if
} def
/dl2 {
  10.0 Dashlength userlinewidth gnulinewidth div mul mul mul
  Rounded { currentlinewidth 0.75 mul add } if
} def
/hpt_ 31.5 def
/vpt_ 31.5 def
/hpt hpt_ def
/vpt vpt_ def
/doclip {
  ClipToBoundingBox {
    newpath 50 50 moveto 410 50 lineto 410 302 lineto 50 302 lineto closepath
    clip
  } if
} def
%
% Gnuplot Prolog Version 5.2 (Dec 2017)
%
%/SuppressPDFMark true def
%
/M {moveto} bind def
/L {lineto} bind def
/R {rmoveto} bind def
/V {rlineto} bind def
/N {newpath moveto} bind def
/Z {closepath} bind def
/C {setrgbcolor} bind def
/f {rlineto fill} bind def
/g {setgray} bind def
/Gshow {show} def   % May be redefined later in the file to support UTF-8
/vpt2 vpt 2 mul def
/hpt2 hpt 2 mul def
/Lshow {currentpoint stroke M 0 vshift R 
	Blacktext {gsave 0 setgray textshow grestore} {textshow} ifelse} def
/Rshow {currentpoint stroke M dup stringwidth pop neg vshift R
	Blacktext {gsave 0 setgray textshow grestore} {textshow} ifelse} def
/Cshow {currentpoint stroke M dup stringwidth pop -2 div vshift R 
	Blacktext {gsave 0 setgray textshow grestore} {textshow} ifelse} def
/UP {dup vpt_ mul /vpt exch def hpt_ mul /hpt exch def
  /hpt2 hpt 2 mul def /vpt2 vpt 2 mul def} def
/DL {Color {setrgbcolor Solid {pop []} if 0 setdash}
 {pop pop pop 0 setgray Solid {pop []} if 0 setdash} ifelse} def
/BL {stroke userlinewidth 2 mul setlinewidth
	Rounded {1 setlinejoin 1 setlinecap} if} def
/AL {stroke userlinewidth 2 div setlinewidth
	Rounded {1 setlinejoin 1 setlinecap} if} def
/UL {dup gnulinewidth mul /userlinewidth exch def
	dup 1 lt {pop 1} if 10 mul /udl exch def} def
/PL {stroke userlinewidth setlinewidth
	Rounded {1 setlinejoin 1 setlinecap} if} def
3.8 setmiterlimit
% Classic Line colors (version 5.0)
/LCw {1 1 1} def
/LCb {0 0 0} def
/LCa {0 0 0} def
/LC0 {1 0 0} def
/LC1 {0 1 0} def
/LC2 {0 0 1} def
/LC3 {1 0 1} def
/LC4 {0 1 1} def
/LC5 {1 1 0} def
/LC6 {0 0 0} def
/LC7 {1 0.3 0} def
/LC8 {0.5 0.5 0.5} def
% Default dash patterns (version 5.0)
/LTB {BL [] LCb DL} def
/LTw {PL [] 1 setgray} def
/LTb {PL [] LCb DL} def
/LTa {AL [1 udl mul 2 udl mul] 0 setdash LCa setrgbcolor} def
/LT0 {PL [] LC0 DL} def
/LT1 {PL [2 dl1 3 dl2] LC1 DL} def
/LT2 {PL [1 dl1 1.5 dl2] LC2 DL} def
/LT3 {PL [6 dl1 2 dl2 1 dl1 2 dl2] LC3 DL} def
/LT4 {PL [1 dl1 2 dl2 6 dl1 2 dl2 1 dl1 2 dl2] LC4 DL} def
/LT5 {PL [4 dl1 2 dl2] LC5 DL} def
/LT6 {PL [1.5 dl1 1.5 dl2 1.5 dl1 1.5 dl2 1.5 dl1 6 dl2] LC6 DL} def
/LT7 {PL [3 dl1 3 dl2 1 dl1 3 dl2] LC7 DL} def
/LT8 {PL [2 dl1 2 dl2 2 dl1 6 dl2] LC8 DL} def
/SL {[] 0 setdash} def
/Pnt {stroke [] 0 setdash gsave 1 setlinecap M 0 0 V stroke grestore} def
/Dia {stroke [] 0 setdash 2 copy vpt add M
  hpt neg vpt neg V hpt vpt neg V
  hpt vpt V hpt neg vpt V closepath stroke
  Pnt} def
/Pls {stroke [] 0 setdash vpt sub M 0 vpt2 V
  currentpoint stroke M
  hpt neg vpt neg R hpt2 0 V stroke
 } def
/Box {stroke [] 0 setdash 2 copy exch hpt sub exch vpt add M
  0 vpt2 neg V hpt2 0 V 0 vpt2 V
  hpt2 neg 0 V closepath stroke
  Pnt} def
/Crs {stroke [] 0 setdash exch hpt sub exch vpt add M
  hpt2 vpt2 neg V currentpoint stroke M
  hpt2 neg 0 R hpt2 vpt2 V stroke} def
/TriU {stroke [] 0 setdash 2 copy vpt 1.12 mul add M
  hpt neg vpt -1.62 mul V
  hpt 2 mul 0 V
  hpt neg vpt 1.62 mul V closepath stroke
  Pnt} def
/Star {2 copy Pls Crs} def
/BoxF {stroke [] 0 setdash exch hpt sub exch vpt add M
  0 vpt2 neg V hpt2 0 V 0 vpt2 V
  hpt2 neg 0 V closepath fill} def
/TriUF {stroke [] 0 setdash vpt 1.12 mul add M
  hpt neg vpt -1.62 mul V
  hpt 2 mul 0 V
  hpt neg vpt 1.62 mul V closepath fill} def
/TriD {stroke [] 0 setdash 2 copy vpt 1.12 mul sub M
  hpt neg vpt 1.62 mul V
  hpt 2 mul 0 V
  hpt neg vpt -1.62 mul V closepath stroke
  Pnt} def
/TriDF {stroke [] 0 setdash vpt 1.12 mul sub M
  hpt neg vpt 1.62 mul V
  hpt 2 mul 0 V
  hpt neg vpt -1.62 mul V closepath fill} def
/DiaF {stroke [] 0 setdash vpt add M
  hpt neg vpt neg V hpt vpt neg V
  hpt vpt V hpt neg vpt V closepath fill} def
/Pent {stroke [] 0 setdash 2 copy gsave
  translate 0 hpt M 4 {72 rotate 0 hpt L} repeat
  closepath stroke grestore Pnt} def
/PentF {stroke [] 0 setdash gsave
  translate 0 hpt M 4 {72 rotate 0 hpt L} repeat
  closepath fill grestore} def
/Circle {stroke [] 0 setdash 2 copy
  hpt 0 360 arc stroke Pnt} def
/CircleF {stroke [] 0 setdash hpt 0 360 arc fill} def
/C0 {BL [] 0 setdash 2 copy moveto vpt 90 450 arc} bind def
/C1 {BL [] 0 setdash 2 copy moveto
	2 copy vpt 0 90 arc closepath fill
	vpt 0 360 arc closepath} bind def
/C2 {BL [] 0 setdash 2 copy moveto
	2 copy vpt 90 180 arc closepath fill
	vpt 0 360 arc closepath} bind def
/C3 {BL [] 0 setdash 2 copy moveto
	2 copy vpt 0 180 arc closepath fill
	vpt 0 360 arc closepath} bind def
/C4 {BL [] 0 setdash 2 copy moveto
	2 copy vpt 180 270 arc closepath fill
	vpt 0 360 arc closepath} bind def
/C5 {BL [] 0 setdash 2 copy moveto
	2 copy vpt 0 90 arc
	2 copy moveto
	2 copy vpt 180 270 arc closepath fill
	vpt 0 360 arc} bind def
/C6 {BL [] 0 setdash 2 copy moveto
	2 copy vpt 90 270 arc closepath fill
	vpt 0 360 arc closepath} bind def
/C7 {BL [] 0 setdash 2 copy moveto
	2 copy vpt 0 270 arc closepath fill
	vpt 0 360 arc closepath} bind def
/C8 {BL [] 0 setdash 2 copy moveto
	2 copy vpt 270 360 arc closepath fill
	vpt 0 360 arc closepath} bind def
/C9 {BL [] 0 setdash 2 copy moveto
	2 copy vpt 270 450 arc closepath fill
	vpt 0 360 arc closepath} bind def
/C10 {BL [] 0 setdash 2 copy 2 copy moveto vpt 270 360 arc closepath fill
	2 copy moveto
	2 copy vpt 90 180 arc closepath fill
	vpt 0 360 arc closepath} bind def
/C11 {BL [] 0 setdash 2 copy moveto
	2 copy vpt 0 180 arc closepath fill
	2 copy moveto
	2 copy vpt 270 360 arc closepath fill
	vpt 0 360 arc closepath} bind def
/C12 {BL [] 0 setdash 2 copy moveto
	2 copy vpt 180 360 arc closepath fill
	vpt 0 360 arc closepath} bind def
/C13 {BL [] 0 setdash 2 copy moveto
	2 copy vpt 0 90 arc closepath fill
	2 copy moveto
	2 copy vpt 180 360 arc closepath fill
	vpt 0 360 arc closepath} bind def
/C14 {BL [] 0 setdash 2 copy moveto
	2 copy vpt 90 360 arc closepath fill
	vpt 0 360 arc} bind def
/C15 {BL [] 0 setdash 2 copy vpt 0 360 arc closepath fill
	vpt 0 360 arc closepath} bind def
/Rec {newpath 4 2 roll moveto 1 index 0 rlineto 0 exch rlineto
	neg 0 rlineto closepath} bind def
/Square {dup Rec} bind def
/Bsquare {vpt sub exch vpt sub exch vpt2 Square} bind def
/S0 {BL [] 0 setdash 2 copy moveto 0 vpt rlineto BL Bsquare} bind def
/S1 {BL [] 0 setdash 2 copy vpt Square fill Bsquare} bind def
/S2 {BL [] 0 setdash 2 copy exch vpt sub exch vpt Square fill Bsquare} bind def
/S3 {BL [] 0 setdash 2 copy exch vpt sub exch vpt2 vpt Rec fill Bsquare} bind def
/S4 {BL [] 0 setdash 2 copy exch vpt sub exch vpt sub vpt Square fill Bsquare} bind def
/S5 {BL [] 0 setdash 2 copy 2 copy vpt Square fill
	exch vpt sub exch vpt sub vpt Square fill Bsquare} bind def
/S6 {BL [] 0 setdash 2 copy exch vpt sub exch vpt sub vpt vpt2 Rec fill Bsquare} bind def
/S7 {BL [] 0 setdash 2 copy exch vpt sub exch vpt sub vpt vpt2 Rec fill
	2 copy vpt Square fill Bsquare} bind def
/S8 {BL [] 0 setdash 2 copy vpt sub vpt Square fill Bsquare} bind def
/S9 {BL [] 0 setdash 2 copy vpt sub vpt vpt2 Rec fill Bsquare} bind def
/S10 {BL [] 0 setdash 2 copy vpt sub vpt Square fill 2 copy exch vpt sub exch vpt Square fill
	Bsquare} bind def
/S11 {BL [] 0 setdash 2 copy vpt sub vpt Square fill 2 copy exch vpt sub exch vpt2 vpt Rec fill
	Bsquare} bind def
/S12 {BL [] 0 setdash 2 copy exch vpt sub exch vpt sub vpt2 vpt Rec fill Bsquare} bind def
/S13 {BL [] 0 setdash 2 copy exch vpt sub exch vpt sub vpt2 vpt Rec fill
	2 copy vpt Square fill Bsquare} bind def
/S14 {BL [] 0 setdash 2 copy exch vpt sub exch vpt sub vpt2 vpt Rec fill
	2 copy exch vpt sub exch vpt Square fill Bsquare} bind def
/S15 {BL [] 0 setdash 2 copy Bsquare fill Bsquare} bind def
/D0 {gsave translate 45 rotate 0 0 S0 stroke grestore} bind def
/D1 {gsave translate 45 rotate 0 0 S1 stroke grestore} bind def
/D2 {gsave translate 45 rotate 0 0 S2 stroke grestore} bind def
/D3 {gsave translate 45 rotate 0 0 S3 stroke grestore} bind def
/D4 {gsave translate 45 rotate 0 0 S4 stroke grestore} bind def
/D5 {gsave translate 45 rotate 0 0 S5 stroke grestore} bind def
/D6 {gsave translate 45 rotate 0 0 S6 stroke grestore} bind def
/D7 {gsave translate 45 rotate 0 0 S7 stroke grestore} bind def
/D8 {gsave translate 45 rotate 0 0 S8 stroke grestore} bind def
/D9 {gsave translate 45 rotate 0 0 S9 stroke grestore} bind def
/D10 {gsave translate 45 rotate 0 0 S10 stroke grestore} bind def
/D11 {gsave translate 45 rotate 0 0 S11 stroke grestore} bind def
/D12 {gsave translate 45 rotate 0 0 S12 stroke grestore} bind def
/D13 {gsave translate 45 rotate 0 0 S13 stroke grestore} bind def
/D14 {gsave translate 45 rotate 0 0 S14 stroke grestore} bind def
/D15 {gsave translate 45 rotate 0 0 S15 stroke grestore} bind def
/DiaE {stroke [] 0 setdash vpt add M
  hpt neg vpt neg V hpt vpt neg V
  hpt vpt V hpt neg vpt V closepath stroke} def
/BoxE {stroke [] 0 setdash exch hpt sub exch vpt add M
  0 vpt2 neg V hpt2 0 V 0 vpt2 V
  hpt2 neg 0 V closepath stroke} def
/TriUE {stroke [] 0 setdash vpt 1.12 mul add M
  hpt neg vpt -1.62 mul V
  hpt 2 mul 0 V
  hpt neg vpt 1.62 mul V closepath stroke} def
/TriDE {stroke [] 0 setdash vpt 1.12 mul sub M
  hpt neg vpt 1.62 mul V
  hpt 2 mul 0 V
  hpt neg vpt -1.62 mul V closepath stroke} def
/PentE {stroke [] 0 setdash gsave
  translate 0 hpt M 4 {72 rotate 0 hpt L} repeat
  closepath stroke grestore} def
/CircE {stroke [] 0 setdash 
  hpt 0 360 arc stroke} def
/Opaque {gsave closepath 1 setgray fill grestore 0 setgray closepath} def
/DiaW {stroke [] 0 setdash vpt add M
  hpt neg vpt neg V hpt vpt neg V
  hpt vpt V hpt neg vpt V Opaque stroke} def
/BoxW {stroke [] 0 setdash exch hpt sub exch vpt add M
  0 vpt2 neg V hpt2 0 V 0 vpt2 V
  hpt2 neg 0 V Opaque stroke} def
/TriUW {stroke [] 0 setdash vpt 1.12 mul add M
  hpt neg vpt -1.62 mul V
  hpt 2 mul 0 V
  hpt neg vpt 1.62 mul V Opaque stroke} def
/TriDW {stroke [] 0 setdash vpt 1.12 mul sub M
  hpt neg vpt 1.62 mul V
  hpt 2 mul 0 V
  hpt neg vpt -1.62 mul V Opaque stroke} def
/PentW {stroke [] 0 setdash gsave
  translate 0 hpt M 4 {72 rotate 0 hpt L} repeat
  Opaque stroke grestore} def
/CircW {stroke [] 0 setdash 
  hpt 0 360 arc Opaque stroke} def
/BoxFill {gsave Rec 1 setgray fill grestore} def
/Density {
  /Fillden exch def
  currentrgbcolor
  /ColB exch def /ColG exch def /ColR exch def
  /ColR ColR Fillden mul Fillden sub 1 add def
  /ColG ColG Fillden mul Fillden sub 1 add def
  /ColB ColB Fillden mul Fillden sub 1 add def
  ColR ColG ColB setrgbcolor} def
/BoxColFill {gsave Rec PolyFill} def
/PolyFill {gsave Density fill grestore grestore} def
/h {rlineto rlineto rlineto closepath gsave fill grestore stroke} bind def
%
% PostScript Level 1 Pattern Fill routine for rectangles
% Usage: x y w h s a XX PatternFill
%	x,y = lower left corner of box to be filled
%	w,h = width and height of box
%	  a = angle in degrees between lines and x-axis
%	 XX = 0/1 for no/yes cross-hatch
%
/PatternFill {gsave /PFa [ 9 2 roll ] def
  PFa 0 get PFa 2 get 2 div add PFa 1 get PFa 3 get 2 div add translate
  PFa 2 get -2 div PFa 3 get -2 div PFa 2 get PFa 3 get Rec
  TransparentPatterns {} {gsave 1 setgray fill grestore} ifelse
  clip
  currentlinewidth 0.5 mul setlinewidth
  /PFs PFa 2 get dup mul PFa 3 get dup mul add sqrt def
  0 0 M PFa 5 get rotate PFs -2 div dup translate
  0 1 PFs PFa 4 get div 1 add floor cvi
	{PFa 4 get mul 0 M 0 PFs V} for
  0 PFa 6 get ne {
	0 1 PFs PFa 4 get div 1 add floor cvi
	{PFa 4 get mul 0 2 1 roll M PFs 0 V} for
 } if
  stroke grestore} def
%
/languagelevel where
 {pop languagelevel} {1} ifelse
dup 2 lt
	{/InterpretLevel1 true def
	 /InterpretLevel3 false def}
	{/InterpretLevel1 Level1 def
	 2 gt
	    {/InterpretLevel3 Level3 def}
	    {/InterpretLevel3 false def}
	 ifelse }
 ifelse
%
% PostScript level 2 pattern fill definitions
%
/Level2PatternFill {
/Tile8x8 {/PaintType 2 /PatternType 1 /TilingType 1 /BBox [0 0 8 8] /XStep 8 /YStep 8}
	bind def
/KeepColor {currentrgbcolor [/Pattern /DeviceRGB] setcolorspace} bind def
<< Tile8x8
 /PaintProc {0.5 setlinewidth pop 0 0 M 8 8 L 0 8 M 8 0 L stroke} 
>> matrix makepattern
/Pat1 exch def
<< Tile8x8
 /PaintProc {0.5 setlinewidth pop 0 0 M 8 8 L 0 8 M 8 0 L stroke
	0 4 M 4 8 L 8 4 L 4 0 L 0 4 L stroke}
>> matrix makepattern
/Pat2 exch def
<< Tile8x8
 /PaintProc {0.5 setlinewidth pop 0 0 M 0 8 L
	8 8 L 8 0 L 0 0 L fill}
>> matrix makepattern
/Pat3 exch def
<< Tile8x8
 /PaintProc {0.5 setlinewidth pop -4 8 M 8 -4 L
	0 12 M 12 0 L stroke}
>> matrix makepattern
/Pat4 exch def
<< Tile8x8
 /PaintProc {0.5 setlinewidth pop -4 0 M 8 12 L
	0 -4 M 12 8 L stroke}
>> matrix makepattern
/Pat5 exch def
<< Tile8x8
 /PaintProc {0.5 setlinewidth pop -2 8 M 4 -4 L
	0 12 M 8 -4 L 4 12 M 10 0 L stroke}
>> matrix makepattern
/Pat6 exch def
<< Tile8x8
 /PaintProc {0.5 setlinewidth pop -2 0 M 4 12 L
	0 -4 M 8 12 L 4 -4 M 10 8 L stroke}
>> matrix makepattern
/Pat7 exch def
<< Tile8x8
 /PaintProc {0.5 setlinewidth pop 8 -2 M -4 4 L
	12 0 M -4 8 L 12 4 M 0 10 L stroke}
>> matrix makepattern
/Pat8 exch def
<< Tile8x8
 /PaintProc {0.5 setlinewidth pop 0 -2 M 12 4 L
	-4 0 M 12 8 L -4 4 M 8 10 L stroke}
>> matrix makepattern
/Pat9 exch def
/Pattern1 {PatternBgnd KeepColor Pat1 setpattern} bind def
/Pattern2 {PatternBgnd KeepColor Pat2 setpattern} bind def
/Pattern3 {PatternBgnd KeepColor Pat3 setpattern} bind def
/Pattern4 {PatternBgnd KeepColor Landscape {Pat5} {Pat4} ifelse setpattern} bind def
/Pattern5 {PatternBgnd KeepColor Landscape {Pat4} {Pat5} ifelse setpattern} bind def
/Pattern6 {PatternBgnd KeepColor Landscape {Pat9} {Pat6} ifelse setpattern} bind def
/Pattern7 {PatternBgnd KeepColor Landscape {Pat8} {Pat7} ifelse setpattern} bind def
} def
%
%
%End of PostScript Level 2 code
%
/PatternBgnd {
  TransparentPatterns {} {gsave 1 setgray fill grestore} ifelse
} def
%
% Substitute for Level 2 pattern fill codes with
% grayscale if Level 2 support is not selected.
%
/Level1PatternFill {
/Pattern1 {0.250 Density} bind def
/Pattern2 {0.500 Density} bind def
/Pattern3 {0.750 Density} bind def
/Pattern4 {0.125 Density} bind def
/Pattern5 {0.375 Density} bind def
/Pattern6 {0.625 Density} bind def
/Pattern7 {0.875 Density} bind def
} def
%
% Now test for support of Level 2 code
%
Level1 {Level1PatternFill} {Level2PatternFill} ifelse
%
/Symbol-Oblique /Symbol findfont [1 0 .167 1 0 0] makefont
dup length dict begin {1 index /FID eq {pop pop} {def} ifelse} forall
currentdict end definefont pop
%
Level1 SuppressPDFMark or 
{} {
/SDict 10 dict def
systemdict /pdfmark known not {
  userdict /pdfmark systemdict /cleartomark get put
} if
SDict begin [
  /Title (images/seperate_request-response-2_mmap.tex)
  /Subject (gnuplot plot)
  /Creator (gnuplot 5.2 patchlevel 8)
%  /Producer (gnuplot)
%  /Keywords ()
  /CreationDate (Tue Apr  6 12:13:02 2021)
  /DOCINFO pdfmark
end
} ifelse
%
% Support for boxed text - Ethan A Merritt Sep 2016
%
/InitTextBox { userdict /TBy2 3 -1 roll put userdict /TBx2 3 -1 roll put
           userdict /TBy1 3 -1 roll put userdict /TBx1 3 -1 roll put
	   /Boxing true def } def
/ExtendTextBox { dup type /stringtype eq
    { Boxing { gsave dup false charpath pathbbox
      dup TBy2 gt {userdict /TBy2 3 -1 roll put} {pop} ifelse
      dup TBx2 gt {userdict /TBx2 3 -1 roll put} {pop} ifelse
      dup TBy1 lt {userdict /TBy1 3 -1 roll put} {pop} ifelse
      dup TBx1 lt {userdict /TBx1 3 -1 roll put} {pop} ifelse
      grestore } if }
    {} ifelse} def
/PopTextBox { newpath TBx1 TBxmargin sub TBy1 TBymargin sub M
               TBx1 TBxmargin sub TBy2 TBymargin add L
	       TBx2 TBxmargin add TBy2 TBymargin add L
	       TBx2 TBxmargin add TBy1 TBymargin sub L closepath } def
/DrawTextBox { PopTextBox stroke /Boxing false def} def
/FillTextBox { gsave PopTextBox fill grestore /Boxing false def} def
0 0 0 0 InitTextBox
/TBxmargin 20 def
/TBymargin 20 def
/Boxing false def
/textshow { ExtendTextBox Gshow } def
%
end
%%EndProlog
%%Page: 1 1
gnudict begin
gsave
doclip
50 50 translate
0.050 0.050 scale
0 setgray
newpath
1.000 UL
LTb
LCb setrgbcolor
[] 0 setdash
0.500 UL
LTa
LCa setrgbcolor
946 3224 M
5857 0 V
stroke
1.000 UL
LTb
LCb setrgbcolor
[] 0 setdash
946 3224 M
63 0 V
5794 0 R
-63 0 V
stroke
LTb
0.500 UL
LTa
LCa setrgbcolor
946 3623 M
5857 0 V
stroke
1.000 UL
LTb
LCb setrgbcolor
[] 0 setdash
946 3623 M
63 0 V
5794 0 R
-63 0 V
stroke
LTb
0.500 UL
LTa
LCa setrgbcolor
946 4022 M
3715 0 V
2010 0 R
132 0 V
stroke
1.000 UL
LTb
LCb setrgbcolor
[] 0 setdash
946 4022 M
63 0 V
5794 0 R
-63 0 V
stroke
LTb
0.500 UL
LTa
LCa setrgbcolor
946 4420 M
3715 0 V
2010 0 R
132 0 V
stroke
1.000 UL
LTb
LCb setrgbcolor
[] 0 setdash
946 4420 M
63 0 V
5794 0 R
-63 0 V
stroke
LTb
0.500 UL
LTa
LCa setrgbcolor
946 4819 M
5857 0 V
stroke
1.000 UL
LTb
LCb setrgbcolor
[] 0 setdash
946 4819 M
63 0 V
5794 0 R
-63 0 V
stroke
LTb
0.500 UL
LTa
LCa setrgbcolor
946 3224 M
0 1595 V
stroke
1.000 UL
LTb
LCb setrgbcolor
[] 0 setdash
946 3224 M
0 63 V
0 1532 R
0 -63 V
stroke
LTb
0.500 UL
LTa
LCa setrgbcolor
1532 3224 M
0 1595 V
stroke
1.000 UL
LTb
LCb setrgbcolor
[] 0 setdash
1532 3224 M
0 63 V
0 1532 R
0 -63 V
stroke
LTb
0.500 UL
LTa
LCa setrgbcolor
2117 3224 M
0 1595 V
stroke
1.000 UL
LTb
LCb setrgbcolor
[] 0 setdash
2117 3224 M
0 63 V
0 1532 R
0 -63 V
stroke
LTb
0.500 UL
LTa
LCa setrgbcolor
2703 3224 M
0 1595 V
stroke
1.000 UL
LTb
LCb setrgbcolor
[] 0 setdash
2703 3224 M
0 63 V
0 1532 R
0 -63 V
stroke
LTb
0.500 UL
LTa
LCa setrgbcolor
3289 3224 M
0 1595 V
stroke
1.000 UL
LTb
LCb setrgbcolor
[] 0 setdash
3289 3224 M
0 63 V
0 1532 R
0 -63 V
stroke
LTb
0.500 UL
LTa
LCa setrgbcolor
3875 3224 M
0 1595 V
stroke
1.000 UL
LTb
LCb setrgbcolor
[] 0 setdash
3875 3224 M
0 63 V
0 1532 R
0 -63 V
stroke
LTb
0.500 UL
LTa
LCa setrgbcolor
4460 3224 M
0 1595 V
stroke
1.000 UL
LTb
LCb setrgbcolor
[] 0 setdash
4460 3224 M
0 63 V
0 1532 R
0 -63 V
stroke
LTb
0.500 UL
LTa
LCa setrgbcolor
5046 3224 M
0 487 V
0 1045 R
0 63 V
stroke
1.000 UL
LTb
LCb setrgbcolor
[] 0 setdash
5046 3224 M
0 63 V
0 1532 R
0 -63 V
stroke
LTb
0.500 UL
LTa
LCa setrgbcolor
5632 3224 M
0 487 V
0 1045 R
0 63 V
stroke
1.000 UL
LTb
LCb setrgbcolor
[] 0 setdash
5632 3224 M
0 63 V
0 1532 R
0 -63 V
stroke
LTb
0.500 UL
LTa
LCa setrgbcolor
6217 3224 M
0 487 V
0 1045 R
0 63 V
stroke
1.000 UL
LTb
LCb setrgbcolor
[] 0 setdash
6217 3224 M
0 63 V
0 1532 R
0 -63 V
stroke
LTb
0.500 UL
LTa
LCa setrgbcolor
6803 3224 M
0 1595 V
stroke
1.000 UL
LTb
LCb setrgbcolor
[] 0 setdash
6803 3224 M
0 63 V
0 1532 R
0 -63 V
stroke
LTb
1.000 UL
LTb
946 4819 N
0 -1595 V
5857 0 V
0 1595 V
-5857 0 V
Z stroke
1.000 UP
1.000 UL
LTb
1.000 UL
LTb
4661 3711 N
0 1045 V
2010 0 V
0 -1045 V
-2010 0 V
Z stroke
% Begin plot #1
1.000 UP
1.000 UL
LTb
0.58 0.00 0.83 C
1005 3947 Pls
1063 3933 Pls
1122 3919 Pls
1180 3888 Pls
1239 3860 Pls
1297 3888 Pls
1356 3814 Pls
1415 3771 Pls
1473 3800 Pls
1532 3829 Pls
1590 3769 Pls
1649 3756 Pls
1707 3785 Pls
1766 3726 Pls
1825 3742 Pls
1883 3771 Pls
1942 3755 Pls
2000 3756 Pls
2059 3873 Pls
2117 3741 Pls
2176 3770 Pls
2235 3800 Pls
2293 3829 Pls
2352 3830 Pls
2410 3711 Pls
2469 3814 Pls
2527 3785 Pls
2586 3816 Pls
2645 3785 Pls
2703 3800 Pls
2762 3829 Pls
2820 3815 Pls
2879 3770 Pls
2937 3814 Pls
2996 3771 Pls
3055 3785 Pls
3113 3800 Pls
3172 3770 Pls
3230 3771 Pls
3289 3785 Pls
3347 3844 Pls
3406 3801 Pls
3465 3799 Pls
3523 3740 Pls
3582 3829 Pls
3640 3830 Pls
3699 3770 Pls
3757 3712 Pls
3816 3771 Pls
3875 3770 Pls
3933 3815 Pls
3992 3800 Pls
4050 3799 Pls
4109 3816 Pls
4167 3860 Pls
4226 3756 Pls
4284 3785 Pls
4343 3801 Pls
4402 3756 Pls
4460 3799 Pls
4519 3800 Pls
4577 3770 Pls
4636 3755 Pls
4694 3770 Pls
4753 3815 Pls
4812 3801 Pls
4870 3830 Pls
4929 3830 Pls
4987 3844 Pls
5046 3785 Pls
5104 3770 Pls
5163 3785 Pls
5222 3800 Pls
5280 3785 Pls
5339 3785 Pls
5397 3873 Pls
5456 3859 Pls
5514 3785 Pls
5573 3814 Pls
5632 3756 Pls
5690 3785 Pls
5749 3770 Pls
5807 3815 Pls
5866 3815 Pls
5924 3785 Pls
5983 3785 Pls
6042 3726 Pls
6100 3785 Pls
6159 3785 Pls
6217 3785 Pls
6276 3844 Pls
6334 3814 Pls
6393 3755 Pls
6452 3742 Pls
6510 3785 Pls
6569 3741 Pls
6627 3755 Pls
6686 3741 Pls
6744 3815 Pls
LTw
% End plot #1
% Begin plot #2
1.000 UP
1.000 UL
LTb
LCb setrgbcolor
[] 0 setdash
0.00 0.62 0.45 C
1005 3830 Crs
1063 3830 Crs
1122 3742 Crs
1180 3637 Crs
1239 3667 Crs
1297 3682 Crs
1356 3682 Crs
1415 3710 Crs
1473 3696 Crs
1532 3682 Crs
1590 3682 Crs
1649 3667 Crs
1707 3741 Crs
1766 3697 Crs
1825 3683 Crs
1883 3697 Crs
1942 3667 Crs
2000 3682 Crs
2059 3697 Crs
2117 3696 Crs
2176 3696 Crs
2235 3683 Crs
2293 3697 Crs
2352 3711 Crs
2410 3682 Crs
2469 3711 Crs
2527 3682 Crs
2586 3682 Crs
2645 3682 Crs
2703 3682 Crs
2762 3667 Crs
2820 3726 Crs
2879 3682 Crs
2937 3726 Crs
2996 3696 Crs
3055 3652 Crs
3113 3697 Crs
3172 3726 Crs
3230 3682 Crs
3289 3697 Crs
3347 3696 Crs
3406 3697 Crs
3465 3710 Crs
3523 3696 Crs
3582 3667 Crs
3640 3711 Crs
3699 3681 Crs
3757 3711 Crs
3816 3667 Crs
3875 3696 Crs
3933 3623 Crs
3992 3711 Crs
4050 3637 Crs
4109 3696 Crs
4167 3698 Crs
4226 3637 Crs
4284 3711 Crs
4343 3711 Crs
4402 3652 Crs
4460 3667 Crs
4519 3726 Crs
4577 3667 Crs
4636 3741 Crs
4694 3696 Crs
4753 3712 Crs
4812 3681 Crs
4870 3697 Crs
4929 3667 Crs
4987 3697 Crs
5046 3652 Crs
5104 3667 Crs
5163 3667 Crs
5222 3726 Crs
5280 3682 Crs
5339 3711 Crs
5397 3697 Crs
5456 3667 Crs
5514 3682 Crs
5573 3711 Crs
5632 3682 Crs
5690 3697 Crs
5749 3667 Crs
5807 3710 Crs
5866 3696 Crs
5924 3637 Crs
5983 3667 Crs
6042 3696 Crs
6100 3711 Crs
6159 3726 Crs
6217 3741 Crs
6276 3697 Crs
6334 3710 Crs
6393 3710 Crs
6452 3683 Crs
6510 3667 Crs
6569 3712 Crs
6627 3696 Crs
6686 3652 Crs
6744 3697 Crs
LTw
% End plot #2
% Begin plot #3
1.000 UP
1.000 UL
LTb
LCb setrgbcolor
[] 0 setdash
0.34 0.71 0.91 C
946 4804 Star
1005 3860 Star
1063 3785 Star
1122 3770 Star
1180 3785 Star
1239 3741 Star
1297 3726 Star
1356 3726 Star
1415 3711 Star
1473 3667 Star
1532 3712 Star
1590 3667 Star
1649 3726 Star
1707 3726 Star
1766 3741 Star
1825 3726 Star
1883 3711 Star
1942 3726 Star
2000 3711 Star
2059 3712 Star
2117 3742 Star
2176 3711 Star
2235 3726 Star
2293 3712 Star
2352 3696 Star
2410 3726 Star
2469 3711 Star
2527 3711 Star
2586 3742 Star
2645 3726 Star
2703 3726 Star
2762 3697 Star
2820 3726 Star
2879 3741 Star
2937 3697 Star
2996 3757 Star
3055 3741 Star
3113 3742 Star
3172 3726 Star
3230 3726 Star
3289 3697 Star
3347 3756 Star
3406 3726 Star
3465 3711 Star
3523 3755 Star
3582 3652 Star
3640 3727 Star
3699 3697 Star
3757 3727 Star
3816 3711 Star
3875 3741 Star
3933 3696 Star
3992 3696 Star
4050 3711 Star
4109 3711 Star
4167 3726 Star
4226 3726 Star
4284 3710 Star
4343 3726 Star
4402 3697 Star
4460 3756 Star
4519 3740 Star
4577 3711 Star
4636 3711 Star
4694 3712 Star
4753 3711 Star
4812 3667 Star
4870 3682 Star
4929 3697 Star
4987 3726 Star
5046 3726 Star
5104 3756 Star
5163 3711 Star
5222 3697 Star
5280 3740 Star
5339 3682 Star
5397 3726 Star
5456 3696 Star
5514 3696 Star
5573 3696 Star
5632 3726 Star
5690 3711 Star
5749 3682 Star
5807 3726 Star
5866 3711 Star
5924 3726 Star
5983 3683 Star
6042 3726 Star
6100 3712 Star
6159 3726 Star
6217 3726 Star
6276 3741 Star
6334 3742 Star
6393 3711 Star
6452 3682 Star
6510 3756 Star
6569 3742 Star
6627 3726 Star
6686 3696 Star
6744 3742 Star
LTw
% End plot #3
% Begin plot #4
1.000 UP
1.000 UL
LTb
LCb setrgbcolor
[] 0 setdash
0.90 0.62 0.00 C
1005 4376 Box
1063 3874 Box
1122 3726 Box
1180 3726 Box
1239 3696 Box
1297 3726 Box
1356 4140 Box
1415 3711 Box
1473 3667 Box
1532 3726 Box
1590 3683 Box
1649 3682 Box
1707 3873 Box
1766 3712 Box
1825 3726 Box
1883 3711 Box
1942 4243 Box
2000 3696 Box
2059 3726 Box
2117 3726 Box
2176 3697 Box
2235 3741 Box
2293 3696 Box
2352 3682 Box
2410 3711 Box
2469 3697 Box
2527 3933 Box
2586 3712 Box
2645 3696 Box
2703 3667 Box
2762 3682 Box
2820 3711 Box
2879 3726 Box
2937 3682 Box
2996 3667 Box
3055 3697 Box
3113 4037 Box
3172 3682 Box
3230 3696 Box
3289 3683 Box
3347 3711 Box
3406 3742 Box
3465 3682 Box
3523 3726 Box
3582 3682 Box
3640 3696 Box
3699 4006 Box
3757 3710 Box
3816 3667 Box
3875 3697 Box
3933 3696 Box
3992 3681 Box
4050 3726 Box
4109 3741 Box
4167 3726 Box
4226 3726 Box
4284 3903 Box
4343 3682 Box
4402 3651 Box
4460 3741 Box
4519 3770 Box
4577 3711 Box
4636 3667 Box
4694 3711 Box
4753 3696 Box
4812 3726 Box
4870 3904 Box
4929 3711 Box
4987 3712 Box
5046 3726 Box
5104 3682 Box
5163 3682 Box
5222 3711 Box
5280 3696 Box
5339 3741 Box
5397 3710 Box
5456 4199 Box
5514 3683 Box
5573 3741 Box
5632 3697 Box
5690 3770 Box
5749 3712 Box
5807 3726 Box
5866 3726 Box
5924 3697 Box
5983 3696 Box
6042 3992 Box
6100 3741 Box
6159 3771 Box
6217 3741 Box
6276 3742 Box
6334 3726 Box
6393 3726 Box
6452 3726 Box
6510 3726 Box
6569 3726 Box
6627 3978 Box
6686 3770 Box
6744 3756 Box
LTw
% End plot #4
LCw setrgbcolor
1.000 4661 3711 2010 1045 BoxColFill
1.000 UL
LTb
LCb setrgbcolor
[] 0 setdash
4661 3711 N
0 1045 V
2010 0 V
0 -1045 V
-2010 0 V
Z stroke
% Begin plot #5
1.000 UP
1.000 UL
LTb
0.58 0.00 0.83 C
LCb setrgbcolor
1.000 UP
1.000 UL
LTb
0.58 0.00 0.83 C
6243 4563 Pls
LTw
% End plot #5
% Begin plot #6
1.000 UP
1.000 UL
LTb
LCb setrgbcolor
[] 0 setdash
0.00 0.62 0.45 C
LCb setrgbcolor
1.000 UP
1.000 UL
LTb
0.00 0.62 0.45 C
6243 4343 Crs
LTw
% End plot #6
% Begin plot #7
1.000 UP
1.000 UL
LTb
LCb setrgbcolor
[] 0 setdash
0.34 0.71 0.91 C
LCb setrgbcolor
1.000 UP
1.000 UL
LTb
0.34 0.71 0.91 C
6243 4123 Star
LTw
% End plot #7
% Begin plot #8
1.000 UP
1.000 UL
LTb
LCb setrgbcolor
[] 0 setdash
0.90 0.62 0.00 C
LCb setrgbcolor
1.000 UP
1.000 UL
LTb
0.90 0.62 0.00 C
6243 3903 Box
LTw
% End plot #8
2.000 UL
LTb
LCb setrgbcolor
[] 0 setdash
1.000 UL
LTb
946 4819 N
0 -1595 V
5857 0 V
0 1595 V
-5857 0 V
Z stroke
1.000 UP
1.000 UL
LTb
1.000 UL
LTb
0.500 UL
LTa
LCa setrgbcolor
946 704 M
5857 0 V
stroke
1.000 UL
LTb
LCb setrgbcolor
[] 0 setdash
946 704 M
63 0 V
5794 0 R
-63 0 V
stroke
LTb
0.500 UL
LTa
LCa setrgbcolor
946 1103 M
5857 0 V
stroke
1.000 UL
LTb
LCb setrgbcolor
[] 0 setdash
946 1103 M
63 0 V
5794 0 R
-63 0 V
stroke
LTb
0.500 UL
LTa
LCa setrgbcolor
946 1502 M
3715 0 V
2010 0 R
132 0 V
stroke
1.000 UL
LTb
LCb setrgbcolor
[] 0 setdash
946 1502 M
63 0 V
5794 0 R
-63 0 V
stroke
LTb
0.500 UL
LTa
LCa setrgbcolor
946 1901 M
3715 0 V
2010 0 R
132 0 V
stroke
1.000 UL
LTb
LCb setrgbcolor
[] 0 setdash
946 1901 M
63 0 V
5794 0 R
-63 0 V
stroke
LTb
0.500 UL
LTa
LCa setrgbcolor
946 2300 M
5857 0 V
stroke
1.000 UL
LTb
LCb setrgbcolor
[] 0 setdash
946 2300 M
63 0 V
5794 0 R
-63 0 V
stroke
LTb
0.500 UL
LTa
LCa setrgbcolor
946 704 M
0 1596 V
stroke
1.000 UL
LTb
LCb setrgbcolor
[] 0 setdash
946 704 M
0 63 V
0 1533 R
0 -63 V
stroke
LTb
0.500 UL
LTa
LCa setrgbcolor
1532 704 M
0 1596 V
stroke
1.000 UL
LTb
LCb setrgbcolor
[] 0 setdash
1532 704 M
0 63 V
0 1533 R
0 -63 V
stroke
LTb
0.500 UL
LTa
LCa setrgbcolor
2117 704 M
0 1596 V
stroke
1.000 UL
LTb
LCb setrgbcolor
[] 0 setdash
2117 704 M
0 63 V
0 1533 R
0 -63 V
stroke
LTb
0.500 UL
LTa
LCa setrgbcolor
2703 704 M
0 1596 V
stroke
1.000 UL
LTb
LCb setrgbcolor
[] 0 setdash
2703 704 M
0 63 V
0 1533 R
0 -63 V
stroke
LTb
0.500 UL
LTa
LCa setrgbcolor
3289 704 M
0 1596 V
stroke
1.000 UL
LTb
LCb setrgbcolor
[] 0 setdash
3289 704 M
0 63 V
0 1533 R
0 -63 V
stroke
LTb
0.500 UL
LTa
LCa setrgbcolor
3875 704 M
0 1596 V
stroke
1.000 UL
LTb
LCb setrgbcolor
[] 0 setdash
3875 704 M
0 63 V
0 1533 R
0 -63 V
stroke
LTb
0.500 UL
LTa
LCa setrgbcolor
4460 704 M
0 1596 V
stroke
1.000 UL
LTb
LCb setrgbcolor
[] 0 setdash
4460 704 M
0 63 V
0 1533 R
0 -63 V
stroke
LTb
0.500 UL
LTa
LCa setrgbcolor
5046 704 M
0 488 V
0 1045 R
0 63 V
stroke
1.000 UL
LTb
LCb setrgbcolor
[] 0 setdash
5046 704 M
0 63 V
0 1533 R
0 -63 V
stroke
LTb
0.500 UL
LTa
LCa setrgbcolor
5632 704 M
0 488 V
0 1045 R
0 63 V
stroke
1.000 UL
LTb
LCb setrgbcolor
[] 0 setdash
5632 704 M
0 63 V
0 1533 R
0 -63 V
stroke
LTb
0.500 UL
LTa
LCa setrgbcolor
6217 704 M
0 488 V
0 1045 R
0 63 V
stroke
1.000 UL
LTb
LCb setrgbcolor
[] 0 setdash
6217 704 M
0 63 V
0 1533 R
0 -63 V
stroke
LTb
0.500 UL
LTa
LCa setrgbcolor
6803 704 M
0 1596 V
stroke
1.000 UL
LTb
LCb setrgbcolor
[] 0 setdash
6803 704 M
0 63 V
0 1533 R
0 -63 V
stroke
LTb
1.000 UL
LTb
946 2300 N
946 704 L
5857 0 V
0 1596 V
-5857 0 V
Z stroke
1.000 UP
1.000 UL
LTb
1.000 UL
LTb
4661 1192 N
0 1045 V
2010 0 V
0 -1045 V
-2010 0 V
Z stroke
% Begin plot #1
1.000 UP
1.000 UL
LTb
0.58 0.00 0.83 C
1005 1502 Pls
1063 1339 Pls
1122 1310 Pls
1180 1266 Pls
1239 1280 Pls
1297 1207 Pls
1356 1207 Pls
1415 1280 Pls
1473 1251 Pls
1532 1251 Pls
1590 1295 Pls
1649 1295 Pls
1707 1207 Pls
1766 1235 Pls
1825 1251 Pls
1883 1251 Pls
1942 1236 Pls
2000 1251 Pls
2059 1207 Pls
2117 1310 Pls
2176 1266 Pls
2235 1265 Pls
2293 1266 Pls
2352 1235 Pls
2410 1251 Pls
2469 1192 Pls
2527 1235 Pls
2586 1235 Pls
2645 1266 Pls
2703 1266 Pls
2762 1266 Pls
2820 1280 Pls
2879 1236 Pls
2937 1251 Pls
2996 1192 Pls
3055 1206 Pls
3113 1251 Pls
3172 1207 Pls
3230 1265 Pls
3289 1251 Pls
3347 1236 Pls
3406 1251 Pls
3465 1192 Pls
3523 1251 Pls
3582 1280 Pls
3640 1265 Pls
3699 1236 Pls
3757 1265 Pls
3816 1221 Pls
3875 1295 Pls
3933 1265 Pls
3992 1207 Pls
4050 1281 Pls
4109 1235 Pls
4167 1251 Pls
4226 1221 Pls
4284 1207 Pls
4343 1265 Pls
4402 1280 Pls
4460 1295 Pls
4519 1192 Pls
4577 1280 Pls
4636 1236 Pls
4694 1266 Pls
4753 1280 Pls
4812 1206 Pls
4870 1280 Pls
4929 1251 Pls
4987 1251 Pls
5046 1236 Pls
5104 1206 Pls
5163 1235 Pls
5222 1236 Pls
5280 1236 Pls
5339 1251 Pls
5456 1295 Pls
5514 1369 Pls
5573 1207 Pls
5632 1280 Pls
5690 1251 Pls
5749 1251 Pls
5807 1221 Pls
5866 1207 Pls
5924 1162 Pls
5983 1221 Pls
6042 1280 Pls
6100 1235 Pls
6159 1280 Pls
6217 1192 Pls
6276 1369 Pls
6334 1266 Pls
6393 1236 Pls
6452 1251 Pls
6510 1192 Pls
6569 1280 Pls
6627 1251 Pls
6686 1251 Pls
6744 1221 Pls
LTw
% End plot #1
% Begin plot #2
1.000 UP
1.000 UL
LTb
LCb setrgbcolor
[] 0 setdash
0.00 0.62 0.45 C
1005 1117 Crs
1063 1176 Crs
1122 1221 Crs
1180 1266 Crs
1239 1117 Crs
1297 1162 Crs
1356 1133 Crs
1415 1222 Crs
1473 1207 Crs
1532 1148 Crs
1590 1177 Crs
1649 1176 Crs
1707 1177 Crs
1766 1103 Crs
1825 1176 Crs
1883 1118 Crs
1942 1103 Crs
2000 1236 Crs
2059 1176 Crs
2117 1236 Crs
2176 1162 Crs
2235 1162 Crs
2293 1162 Crs
2352 1133 Crs
2410 1117 Crs
2469 1133 Crs
2527 1177 Crs
2586 1295 Crs
2645 1148 Crs
2703 1148 Crs
2762 1222 Crs
2820 1103 Crs
2879 1089 Crs
2937 1235 Crs
2996 1133 Crs
3055 1148 Crs
3113 1177 Crs
3172 1281 Crs
3230 1133 Crs
3289 1073 Crs
3347 1207 Crs
3406 1177 Crs
3465 1118 Crs
3523 1177 Crs
3582 1133 Crs
3640 1133 Crs
3699 1177 Crs
3757 1148 Crs
3816 1117 Crs
3875 1192 Crs
3933 1192 Crs
3992 1192 Crs
4050 1059 Crs
4109 1133 Crs
4167 1176 Crs
4226 1192 Crs
4284 1177 Crs
4343 1148 Crs
4402 1133 Crs
4460 1221 Crs
4519 1221 Crs
4577 1162 Crs
4636 1236 Crs
4694 1236 Crs
4753 1088 Crs
4812 1266 Crs
4870 1221 Crs
4929 1177 Crs
4987 1206 Crs
5046 1117 Crs
5104 1148 Crs
5163 1162 Crs
5222 1206 Crs
5280 1162 Crs
5339 1221 Crs
5397 1206 Crs
5456 1147 Crs
5514 1162 Crs
5573 1177 Crs
5632 1192 Crs
5690 1221 Crs
5749 1192 Crs
5807 1148 Crs
5866 1207 Crs
5924 1148 Crs
5983 1133 Crs
6042 1133 Crs
6100 1177 Crs
6159 1176 Crs
6217 1206 Crs
6276 1162 Crs
6334 1251 Crs
6393 1148 Crs
6452 1192 Crs
6510 1148 Crs
6569 1176 Crs
6627 1148 Crs
6686 1221 Crs
6744 1177 Crs
LTw
% End plot #2
% Begin plot #3
1.000 UP
1.000 UL
LTb
LCb setrgbcolor
[] 0 setdash
0.34 0.71 0.91 C
1005 1235 Star
1063 1162 Star
1122 1162 Star
1180 1221 Star
1239 1207 Star
1297 1103 Star
1356 1207 Star
1415 1133 Star
1473 1177 Star
1532 1147 Star
1590 1192 Star
1649 1192 Star
1707 1192 Star
1766 1236 Star
1825 1236 Star
1883 1207 Star
1942 1251 Star
2000 1207 Star
2059 1176 Star
2117 1221 Star
2176 1236 Star
2235 1221 Star
2293 1206 Star
2352 1162 Star
2410 1235 Star
2469 1251 Star
2527 1206 Star
2586 1147 Star
2645 1266 Star
2703 1221 Star
2762 1295 Star
2820 1206 Star
2879 1251 Star
2937 1310 Star
2996 1295 Star
3055 1236 Star
3113 1192 Star
3172 1103 Star
3230 1192 Star
3289 1207 Star
3347 1058 Star
3406 1192 Star
3465 1176 Star
3523 1207 Star
3582 1192 Star
3640 1235 Star
3699 1206 Star
3757 1235 Star
3816 1221 Star
3875 1162 Star
3933 1236 Star
3992 1177 Star
4050 1148 Star
4109 1177 Star
4167 1206 Star
4226 1251 Star
4284 1177 Star
4343 1147 Star
4402 1117 Star
4460 1162 Star
4519 1207 Star
4577 1251 Star
4636 1162 Star
4694 1133 Star
4753 1148 Star
4812 1162 Star
4870 1192 Star
4929 1251 Star
4987 1177 Star
5046 1192 Star
5104 1192 Star
5163 1147 Star
5222 1133 Star
5280 1236 Star
5339 1192 Star
5397 1280 Star
5456 1118 Star
5514 1266 Star
5573 1207 Star
5632 1207 Star
5690 1192 Star
5749 1177 Star
5807 1162 Star
5866 1148 Star
5924 1176 Star
5983 1162 Star
6042 1133 Star
6100 1147 Star
6159 1236 Star
6217 1117 Star
6276 1221 Star
6334 1235 Star
6393 1162 Star
6452 1103 Star
6510 1177 Star
6569 1192 Star
6627 1133 Star
6686 1118 Star
6744 1206 Star
LTw
% End plot #3
% Begin plot #4
1.000 UP
1.000 UL
LTb
LCb setrgbcolor
[] 0 setdash
0.90 0.62 0.00 C
1005 1635 Box
1063 1266 Box
1122 1221 Box
1180 1251 Box
1239 1221 Box
1297 1192 Box
1356 1384 Box
1415 1162 Box
1473 1163 Box
1532 1235 Box
1590 1206 Box
1649 1206 Box
1707 1251 Box
1766 1221 Box
1825 1177 Box
1883 1310 Box
1942 2182 Box
2000 1118 Box
2059 1162 Box
2117 1251 Box
2176 1235 Box
2235 1280 Box
2293 1162 Box
2352 1280 Box
2410 1088 Box
2469 1295 Box
2527 1251 Box
2586 1235 Box
2645 1222 Box
2703 1192 Box
2762 1251 Box
2820 1265 Box
2879 1295 Box
2937 1370 Box
2996 1235 Box
3055 1221 Box
3113 1546 Box
3172 1192 Box
3230 1221 Box
3289 1235 Box
3347 1221 Box
3406 1162 Box
3465 1192 Box
3523 1192 Box
3582 1207 Box
3640 1280 Box
3699 1325 Box
3757 1236 Box
3816 1177 Box
3875 1221 Box
3933 1133 Box
3992 1281 Box
4050 1310 Box
4109 1192 Box
4167 1236 Box
4226 1236 Box
4284 1383 Box
4343 1207 Box
4402 1177 Box
4460 1251 Box
4519 1162 Box
4577 1221 Box
4636 1325 Box
4694 1207 Box
4753 1207 Box
4812 1206 Box
4870 1369 Box
4929 1221 Box
4987 1280 Box
5046 1266 Box
5104 1222 Box
5163 1176 Box
5222 1221 Box
5280 1133 Box
5339 1251 Box
5397 1251 Box
5456 1546 Box
5514 1265 Box
5573 1221 Box
5632 1221 Box
5690 1207 Box
5749 1206 Box
5807 1192 Box
5866 1192 Box
5924 1266 Box
5983 1280 Box
6042 1236 Box
6100 1206 Box
6159 1324 Box
6217 1251 Box
6276 1251 Box
6334 1266 Box
6393 1222 Box
6452 1192 Box
6510 1176 Box
6569 1295 Box
6627 1235 Box
6686 1310 Box
6744 1192 Box
LTw
% End plot #4
LCw setrgbcolor
1.000 4661 1192 2010 1045 BoxColFill
1.000 UL
LTb
LCb setrgbcolor
[] 0 setdash
4661 1192 N
0 1045 V
2010 0 V
0 -1045 V
-2010 0 V
Z stroke
% Begin plot #5
1.000 UP
1.000 UL
LTb
0.58 0.00 0.83 C
LCb setrgbcolor
1.000 UP
1.000 UL
LTb
0.58 0.00 0.83 C
6243 2044 Pls
LTw
% End plot #5
% Begin plot #6
1.000 UP
1.000 UL
LTb
LCb setrgbcolor
[] 0 setdash
0.00 0.62 0.45 C
LCb setrgbcolor
1.000 UP
1.000 UL
LTb
0.00 0.62 0.45 C
6243 1824 Crs
LTw
% End plot #6
% Begin plot #7
1.000 UP
1.000 UL
LTb
LCb setrgbcolor
[] 0 setdash
0.34 0.71 0.91 C
LCb setrgbcolor
1.000 UP
1.000 UL
LTb
0.34 0.71 0.91 C
6243 1604 Star
LTw
% End plot #7
% Begin plot #8
1.000 UP
1.000 UL
LTb
LCb setrgbcolor
[] 0 setdash
0.90 0.62 0.00 C
LCb setrgbcolor
1.000 UP
1.000 UL
LTb
0.90 0.62 0.00 C
6243 1384 Box
LTw
% End plot #8
2.000 UL
LTb
LCb setrgbcolor
[] 0 setdash
1.000 UL
LTb
946 2300 N
946 704 L
5857 0 V
0 1596 V
-5857 0 V
Z stroke
1.000 UP
1.000 UL
LTb
stroke
grestore
end
showpage
%%Trailer
