%!PS-Adobe-2.0 EPSF-2.0
%%Title: images/seperate_request-response-1_proc.tex
%%Creator: gnuplot 5.2 patchlevel 8
%%CreationDate: Tue Apr  6 13:29:30 2021
%%DocumentFonts: 
%%BoundingBox: 50 50 410 302
%%EndComments
%%BeginProlog
/gnudict 256 dict def
gnudict begin
%
% The following true/false flags may be edited by hand if desired.
% The unit line width and grayscale image gamma correction may also be changed.
%
/Color true def
/Blacktext true def
/Solid false def
/Dashlength 1 def
/Landscape false def
/Level1 false def
/Level3 false def
/Rounded false def
/ClipToBoundingBox false def
/SuppressPDFMark false def
/TransparentPatterns false def
/gnulinewidth 5.000 def
/userlinewidth gnulinewidth def
/Gamma 1.0 def
/BackgroundColor {-1.000 -1.000 -1.000} def
%
/vshift -73 def
/dl1 {
  10.0 Dashlength userlinewidth gnulinewidth div mul mul mul
  Rounded { currentlinewidth 0.75 mul sub dup 0 le { pop 0.01 } if } if
} def
/dl2 {
  10.0 Dashlength userlinewidth gnulinewidth div mul mul mul
  Rounded { currentlinewidth 0.75 mul add } if
} def
/hpt_ 31.5 def
/vpt_ 31.5 def
/hpt hpt_ def
/vpt vpt_ def
/doclip {
  ClipToBoundingBox {
    newpath 50 50 moveto 410 50 lineto 410 302 lineto 50 302 lineto closepath
    clip
  } if
} def
%
% Gnuplot Prolog Version 5.2 (Dec 2017)
%
%/SuppressPDFMark true def
%
/M {moveto} bind def
/L {lineto} bind def
/R {rmoveto} bind def
/V {rlineto} bind def
/N {newpath moveto} bind def
/Z {closepath} bind def
/C {setrgbcolor} bind def
/f {rlineto fill} bind def
/g {setgray} bind def
/Gshow {show} def   % May be redefined later in the file to support UTF-8
/vpt2 vpt 2 mul def
/hpt2 hpt 2 mul def
/Lshow {currentpoint stroke M 0 vshift R 
	Blacktext {gsave 0 setgray textshow grestore} {textshow} ifelse} def
/Rshow {currentpoint stroke M dup stringwidth pop neg vshift R
	Blacktext {gsave 0 setgray textshow grestore} {textshow} ifelse} def
/Cshow {currentpoint stroke M dup stringwidth pop -2 div vshift R 
	Blacktext {gsave 0 setgray textshow grestore} {textshow} ifelse} def
/UP {dup vpt_ mul /vpt exch def hpt_ mul /hpt exch def
  /hpt2 hpt 2 mul def /vpt2 vpt 2 mul def} def
/DL {Color {setrgbcolor Solid {pop []} if 0 setdash}
 {pop pop pop 0 setgray Solid {pop []} if 0 setdash} ifelse} def
/BL {stroke userlinewidth 2 mul setlinewidth
	Rounded {1 setlinejoin 1 setlinecap} if} def
/AL {stroke userlinewidth 2 div setlinewidth
	Rounded {1 setlinejoin 1 setlinecap} if} def
/UL {dup gnulinewidth mul /userlinewidth exch def
	dup 1 lt {pop 1} if 10 mul /udl exch def} def
/PL {stroke userlinewidth setlinewidth
	Rounded {1 setlinejoin 1 setlinecap} if} def
3.8 setmiterlimit
% Classic Line colors (version 5.0)
/LCw {1 1 1} def
/LCb {0 0 0} def
/LCa {0 0 0} def
/LC0 {1 0 0} def
/LC1 {0 1 0} def
/LC2 {0 0 1} def
/LC3 {1 0 1} def
/LC4 {0 1 1} def
/LC5 {1 1 0} def
/LC6 {0 0 0} def
/LC7 {1 0.3 0} def
/LC8 {0.5 0.5 0.5} def
% Default dash patterns (version 5.0)
/LTB {BL [] LCb DL} def
/LTw {PL [] 1 setgray} def
/LTb {PL [] LCb DL} def
/LTa {AL [1 udl mul 2 udl mul] 0 setdash LCa setrgbcolor} def
/LT0 {PL [] LC0 DL} def
/LT1 {PL [2 dl1 3 dl2] LC1 DL} def
/LT2 {PL [1 dl1 1.5 dl2] LC2 DL} def
/LT3 {PL [6 dl1 2 dl2 1 dl1 2 dl2] LC3 DL} def
/LT4 {PL [1 dl1 2 dl2 6 dl1 2 dl2 1 dl1 2 dl2] LC4 DL} def
/LT5 {PL [4 dl1 2 dl2] LC5 DL} def
/LT6 {PL [1.5 dl1 1.5 dl2 1.5 dl1 1.5 dl2 1.5 dl1 6 dl2] LC6 DL} def
/LT7 {PL [3 dl1 3 dl2 1 dl1 3 dl2] LC7 DL} def
/LT8 {PL [2 dl1 2 dl2 2 dl1 6 dl2] LC8 DL} def
/SL {[] 0 setdash} def
/Pnt {stroke [] 0 setdash gsave 1 setlinecap M 0 0 V stroke grestore} def
/Dia {stroke [] 0 setdash 2 copy vpt add M
  hpt neg vpt neg V hpt vpt neg V
  hpt vpt V hpt neg vpt V closepath stroke
  Pnt} def
/Pls {stroke [] 0 setdash vpt sub M 0 vpt2 V
  currentpoint stroke M
  hpt neg vpt neg R hpt2 0 V stroke
 } def
/Box {stroke [] 0 setdash 2 copy exch hpt sub exch vpt add M
  0 vpt2 neg V hpt2 0 V 0 vpt2 V
  hpt2 neg 0 V closepath stroke
  Pnt} def
/Crs {stroke [] 0 setdash exch hpt sub exch vpt add M
  hpt2 vpt2 neg V currentpoint stroke M
  hpt2 neg 0 R hpt2 vpt2 V stroke} def
/TriU {stroke [] 0 setdash 2 copy vpt 1.12 mul add M
  hpt neg vpt -1.62 mul V
  hpt 2 mul 0 V
  hpt neg vpt 1.62 mul V closepath stroke
  Pnt} def
/Star {2 copy Pls Crs} def
/BoxF {stroke [] 0 setdash exch hpt sub exch vpt add M
  0 vpt2 neg V hpt2 0 V 0 vpt2 V
  hpt2 neg 0 V closepath fill} def
/TriUF {stroke [] 0 setdash vpt 1.12 mul add M
  hpt neg vpt -1.62 mul V
  hpt 2 mul 0 V
  hpt neg vpt 1.62 mul V closepath fill} def
/TriD {stroke [] 0 setdash 2 copy vpt 1.12 mul sub M
  hpt neg vpt 1.62 mul V
  hpt 2 mul 0 V
  hpt neg vpt -1.62 mul V closepath stroke
  Pnt} def
/TriDF {stroke [] 0 setdash vpt 1.12 mul sub M
  hpt neg vpt 1.62 mul V
  hpt 2 mul 0 V
  hpt neg vpt -1.62 mul V closepath fill} def
/DiaF {stroke [] 0 setdash vpt add M
  hpt neg vpt neg V hpt vpt neg V
  hpt vpt V hpt neg vpt V closepath fill} def
/Pent {stroke [] 0 setdash 2 copy gsave
  translate 0 hpt M 4 {72 rotate 0 hpt L} repeat
  closepath stroke grestore Pnt} def
/PentF {stroke [] 0 setdash gsave
  translate 0 hpt M 4 {72 rotate 0 hpt L} repeat
  closepath fill grestore} def
/Circle {stroke [] 0 setdash 2 copy
  hpt 0 360 arc stroke Pnt} def
/CircleF {stroke [] 0 setdash hpt 0 360 arc fill} def
/C0 {BL [] 0 setdash 2 copy moveto vpt 90 450 arc} bind def
/C1 {BL [] 0 setdash 2 copy moveto
	2 copy vpt 0 90 arc closepath fill
	vpt 0 360 arc closepath} bind def
/C2 {BL [] 0 setdash 2 copy moveto
	2 copy vpt 90 180 arc closepath fill
	vpt 0 360 arc closepath} bind def
/C3 {BL [] 0 setdash 2 copy moveto
	2 copy vpt 0 180 arc closepath fill
	vpt 0 360 arc closepath} bind def
/C4 {BL [] 0 setdash 2 copy moveto
	2 copy vpt 180 270 arc closepath fill
	vpt 0 360 arc closepath} bind def
/C5 {BL [] 0 setdash 2 copy moveto
	2 copy vpt 0 90 arc
	2 copy moveto
	2 copy vpt 180 270 arc closepath fill
	vpt 0 360 arc} bind def
/C6 {BL [] 0 setdash 2 copy moveto
	2 copy vpt 90 270 arc closepath fill
	vpt 0 360 arc closepath} bind def
/C7 {BL [] 0 setdash 2 copy moveto
	2 copy vpt 0 270 arc closepath fill
	vpt 0 360 arc closepath} bind def
/C8 {BL [] 0 setdash 2 copy moveto
	2 copy vpt 270 360 arc closepath fill
	vpt 0 360 arc closepath} bind def
/C9 {BL [] 0 setdash 2 copy moveto
	2 copy vpt 270 450 arc closepath fill
	vpt 0 360 arc closepath} bind def
/C10 {BL [] 0 setdash 2 copy 2 copy moveto vpt 270 360 arc closepath fill
	2 copy moveto
	2 copy vpt 90 180 arc closepath fill
	vpt 0 360 arc closepath} bind def
/C11 {BL [] 0 setdash 2 copy moveto
	2 copy vpt 0 180 arc closepath fill
	2 copy moveto
	2 copy vpt 270 360 arc closepath fill
	vpt 0 360 arc closepath} bind def
/C12 {BL [] 0 setdash 2 copy moveto
	2 copy vpt 180 360 arc closepath fill
	vpt 0 360 arc closepath} bind def
/C13 {BL [] 0 setdash 2 copy moveto
	2 copy vpt 0 90 arc closepath fill
	2 copy moveto
	2 copy vpt 180 360 arc closepath fill
	vpt 0 360 arc closepath} bind def
/C14 {BL [] 0 setdash 2 copy moveto
	2 copy vpt 90 360 arc closepath fill
	vpt 0 360 arc} bind def
/C15 {BL [] 0 setdash 2 copy vpt 0 360 arc closepath fill
	vpt 0 360 arc closepath} bind def
/Rec {newpath 4 2 roll moveto 1 index 0 rlineto 0 exch rlineto
	neg 0 rlineto closepath} bind def
/Square {dup Rec} bind def
/Bsquare {vpt sub exch vpt sub exch vpt2 Square} bind def
/S0 {BL [] 0 setdash 2 copy moveto 0 vpt rlineto BL Bsquare} bind def
/S1 {BL [] 0 setdash 2 copy vpt Square fill Bsquare} bind def
/S2 {BL [] 0 setdash 2 copy exch vpt sub exch vpt Square fill Bsquare} bind def
/S3 {BL [] 0 setdash 2 copy exch vpt sub exch vpt2 vpt Rec fill Bsquare} bind def
/S4 {BL [] 0 setdash 2 copy exch vpt sub exch vpt sub vpt Square fill Bsquare} bind def
/S5 {BL [] 0 setdash 2 copy 2 copy vpt Square fill
	exch vpt sub exch vpt sub vpt Square fill Bsquare} bind def
/S6 {BL [] 0 setdash 2 copy exch vpt sub exch vpt sub vpt vpt2 Rec fill Bsquare} bind def
/S7 {BL [] 0 setdash 2 copy exch vpt sub exch vpt sub vpt vpt2 Rec fill
	2 copy vpt Square fill Bsquare} bind def
/S8 {BL [] 0 setdash 2 copy vpt sub vpt Square fill Bsquare} bind def
/S9 {BL [] 0 setdash 2 copy vpt sub vpt vpt2 Rec fill Bsquare} bind def
/S10 {BL [] 0 setdash 2 copy vpt sub vpt Square fill 2 copy exch vpt sub exch vpt Square fill
	Bsquare} bind def
/S11 {BL [] 0 setdash 2 copy vpt sub vpt Square fill 2 copy exch vpt sub exch vpt2 vpt Rec fill
	Bsquare} bind def
/S12 {BL [] 0 setdash 2 copy exch vpt sub exch vpt sub vpt2 vpt Rec fill Bsquare} bind def
/S13 {BL [] 0 setdash 2 copy exch vpt sub exch vpt sub vpt2 vpt Rec fill
	2 copy vpt Square fill Bsquare} bind def
/S14 {BL [] 0 setdash 2 copy exch vpt sub exch vpt sub vpt2 vpt Rec fill
	2 copy exch vpt sub exch vpt Square fill Bsquare} bind def
/S15 {BL [] 0 setdash 2 copy Bsquare fill Bsquare} bind def
/D0 {gsave translate 45 rotate 0 0 S0 stroke grestore} bind def
/D1 {gsave translate 45 rotate 0 0 S1 stroke grestore} bind def
/D2 {gsave translate 45 rotate 0 0 S2 stroke grestore} bind def
/D3 {gsave translate 45 rotate 0 0 S3 stroke grestore} bind def
/D4 {gsave translate 45 rotate 0 0 S4 stroke grestore} bind def
/D5 {gsave translate 45 rotate 0 0 S5 stroke grestore} bind def
/D6 {gsave translate 45 rotate 0 0 S6 stroke grestore} bind def
/D7 {gsave translate 45 rotate 0 0 S7 stroke grestore} bind def
/D8 {gsave translate 45 rotate 0 0 S8 stroke grestore} bind def
/D9 {gsave translate 45 rotate 0 0 S9 stroke grestore} bind def
/D10 {gsave translate 45 rotate 0 0 S10 stroke grestore} bind def
/D11 {gsave translate 45 rotate 0 0 S11 stroke grestore} bind def
/D12 {gsave translate 45 rotate 0 0 S12 stroke grestore} bind def
/D13 {gsave translate 45 rotate 0 0 S13 stroke grestore} bind def
/D14 {gsave translate 45 rotate 0 0 S14 stroke grestore} bind def
/D15 {gsave translate 45 rotate 0 0 S15 stroke grestore} bind def
/DiaE {stroke [] 0 setdash vpt add M
  hpt neg vpt neg V hpt vpt neg V
  hpt vpt V hpt neg vpt V closepath stroke} def
/BoxE {stroke [] 0 setdash exch hpt sub exch vpt add M
  0 vpt2 neg V hpt2 0 V 0 vpt2 V
  hpt2 neg 0 V closepath stroke} def
/TriUE {stroke [] 0 setdash vpt 1.12 mul add M
  hpt neg vpt -1.62 mul V
  hpt 2 mul 0 V
  hpt neg vpt 1.62 mul V closepath stroke} def
/TriDE {stroke [] 0 setdash vpt 1.12 mul sub M
  hpt neg vpt 1.62 mul V
  hpt 2 mul 0 V
  hpt neg vpt -1.62 mul V closepath stroke} def
/PentE {stroke [] 0 setdash gsave
  translate 0 hpt M 4 {72 rotate 0 hpt L} repeat
  closepath stroke grestore} def
/CircE {stroke [] 0 setdash 
  hpt 0 360 arc stroke} def
/Opaque {gsave closepath 1 setgray fill grestore 0 setgray closepath} def
/DiaW {stroke [] 0 setdash vpt add M
  hpt neg vpt neg V hpt vpt neg V
  hpt vpt V hpt neg vpt V Opaque stroke} def
/BoxW {stroke [] 0 setdash exch hpt sub exch vpt add M
  0 vpt2 neg V hpt2 0 V 0 vpt2 V
  hpt2 neg 0 V Opaque stroke} def
/TriUW {stroke [] 0 setdash vpt 1.12 mul add M
  hpt neg vpt -1.62 mul V
  hpt 2 mul 0 V
  hpt neg vpt 1.62 mul V Opaque stroke} def
/TriDW {stroke [] 0 setdash vpt 1.12 mul sub M
  hpt neg vpt 1.62 mul V
  hpt 2 mul 0 V
  hpt neg vpt -1.62 mul V Opaque stroke} def
/PentW {stroke [] 0 setdash gsave
  translate 0 hpt M 4 {72 rotate 0 hpt L} repeat
  Opaque stroke grestore} def
/CircW {stroke [] 0 setdash 
  hpt 0 360 arc Opaque stroke} def
/BoxFill {gsave Rec 1 setgray fill grestore} def
/Density {
  /Fillden exch def
  currentrgbcolor
  /ColB exch def /ColG exch def /ColR exch def
  /ColR ColR Fillden mul Fillden sub 1 add def
  /ColG ColG Fillden mul Fillden sub 1 add def
  /ColB ColB Fillden mul Fillden sub 1 add def
  ColR ColG ColB setrgbcolor} def
/BoxColFill {gsave Rec PolyFill} def
/PolyFill {gsave Density fill grestore grestore} def
/h {rlineto rlineto rlineto closepath gsave fill grestore stroke} bind def
%
% PostScript Level 1 Pattern Fill routine for rectangles
% Usage: x y w h s a XX PatternFill
%	x,y = lower left corner of box to be filled
%	w,h = width and height of box
%	  a = angle in degrees between lines and x-axis
%	 XX = 0/1 for no/yes cross-hatch
%
/PatternFill {gsave /PFa [ 9 2 roll ] def
  PFa 0 get PFa 2 get 2 div add PFa 1 get PFa 3 get 2 div add translate
  PFa 2 get -2 div PFa 3 get -2 div PFa 2 get PFa 3 get Rec
  TransparentPatterns {} {gsave 1 setgray fill grestore} ifelse
  clip
  currentlinewidth 0.5 mul setlinewidth
  /PFs PFa 2 get dup mul PFa 3 get dup mul add sqrt def
  0 0 M PFa 5 get rotate PFs -2 div dup translate
  0 1 PFs PFa 4 get div 1 add floor cvi
	{PFa 4 get mul 0 M 0 PFs V} for
  0 PFa 6 get ne {
	0 1 PFs PFa 4 get div 1 add floor cvi
	{PFa 4 get mul 0 2 1 roll M PFs 0 V} for
 } if
  stroke grestore} def
%
/languagelevel where
 {pop languagelevel} {1} ifelse
dup 2 lt
	{/InterpretLevel1 true def
	 /InterpretLevel3 false def}
	{/InterpretLevel1 Level1 def
	 2 gt
	    {/InterpretLevel3 Level3 def}
	    {/InterpretLevel3 false def}
	 ifelse }
 ifelse
%
% PostScript level 2 pattern fill definitions
%
/Level2PatternFill {
/Tile8x8 {/PaintType 2 /PatternType 1 /TilingType 1 /BBox [0 0 8 8] /XStep 8 /YStep 8}
	bind def
/KeepColor {currentrgbcolor [/Pattern /DeviceRGB] setcolorspace} bind def
<< Tile8x8
 /PaintProc {0.5 setlinewidth pop 0 0 M 8 8 L 0 8 M 8 0 L stroke} 
>> matrix makepattern
/Pat1 exch def
<< Tile8x8
 /PaintProc {0.5 setlinewidth pop 0 0 M 8 8 L 0 8 M 8 0 L stroke
	0 4 M 4 8 L 8 4 L 4 0 L 0 4 L stroke}
>> matrix makepattern
/Pat2 exch def
<< Tile8x8
 /PaintProc {0.5 setlinewidth pop 0 0 M 0 8 L
	8 8 L 8 0 L 0 0 L fill}
>> matrix makepattern
/Pat3 exch def
<< Tile8x8
 /PaintProc {0.5 setlinewidth pop -4 8 M 8 -4 L
	0 12 M 12 0 L stroke}
>> matrix makepattern
/Pat4 exch def
<< Tile8x8
 /PaintProc {0.5 setlinewidth pop -4 0 M 8 12 L
	0 -4 M 12 8 L stroke}
>> matrix makepattern
/Pat5 exch def
<< Tile8x8
 /PaintProc {0.5 setlinewidth pop -2 8 M 4 -4 L
	0 12 M 8 -4 L 4 12 M 10 0 L stroke}
>> matrix makepattern
/Pat6 exch def
<< Tile8x8
 /PaintProc {0.5 setlinewidth pop -2 0 M 4 12 L
	0 -4 M 8 12 L 4 -4 M 10 8 L stroke}
>> matrix makepattern
/Pat7 exch def
<< Tile8x8
 /PaintProc {0.5 setlinewidth pop 8 -2 M -4 4 L
	12 0 M -4 8 L 12 4 M 0 10 L stroke}
>> matrix makepattern
/Pat8 exch def
<< Tile8x8
 /PaintProc {0.5 setlinewidth pop 0 -2 M 12 4 L
	-4 0 M 12 8 L -4 4 M 8 10 L stroke}
>> matrix makepattern
/Pat9 exch def
/Pattern1 {PatternBgnd KeepColor Pat1 setpattern} bind def
/Pattern2 {PatternBgnd KeepColor Pat2 setpattern} bind def
/Pattern3 {PatternBgnd KeepColor Pat3 setpattern} bind def
/Pattern4 {PatternBgnd KeepColor Landscape {Pat5} {Pat4} ifelse setpattern} bind def
/Pattern5 {PatternBgnd KeepColor Landscape {Pat4} {Pat5} ifelse setpattern} bind def
/Pattern6 {PatternBgnd KeepColor Landscape {Pat9} {Pat6} ifelse setpattern} bind def
/Pattern7 {PatternBgnd KeepColor Landscape {Pat8} {Pat7} ifelse setpattern} bind def
} def
%
%
%End of PostScript Level 2 code
%
/PatternBgnd {
  TransparentPatterns {} {gsave 1 setgray fill grestore} ifelse
} def
%
% Substitute for Level 2 pattern fill codes with
% grayscale if Level 2 support is not selected.
%
/Level1PatternFill {
/Pattern1 {0.250 Density} bind def
/Pattern2 {0.500 Density} bind def
/Pattern3 {0.750 Density} bind def
/Pattern4 {0.125 Density} bind def
/Pattern5 {0.375 Density} bind def
/Pattern6 {0.625 Density} bind def
/Pattern7 {0.875 Density} bind def
} def
%
% Now test for support of Level 2 code
%
Level1 {Level1PatternFill} {Level2PatternFill} ifelse
%
/Symbol-Oblique /Symbol findfont [1 0 .167 1 0 0] makefont
dup length dict begin {1 index /FID eq {pop pop} {def} ifelse} forall
currentdict end definefont pop
%
Level1 SuppressPDFMark or 
{} {
/SDict 10 dict def
systemdict /pdfmark known not {
  userdict /pdfmark systemdict /cleartomark get put
} if
SDict begin [
  /Title (images/seperate_request-response-1_proc.tex)
  /Subject (gnuplot plot)
  /Creator (gnuplot 5.2 patchlevel 8)
%  /Producer (gnuplot)
%  /Keywords ()
  /CreationDate (Tue Apr  6 13:29:30 2021)
  /DOCINFO pdfmark
end
} ifelse
%
% Support for boxed text - Ethan A Merritt Sep 2016
%
/InitTextBox { userdict /TBy2 3 -1 roll put userdict /TBx2 3 -1 roll put
           userdict /TBy1 3 -1 roll put userdict /TBx1 3 -1 roll put
	   /Boxing true def } def
/ExtendTextBox { dup type /stringtype eq
    { Boxing { gsave dup false charpath pathbbox
      dup TBy2 gt {userdict /TBy2 3 -1 roll put} {pop} ifelse
      dup TBx2 gt {userdict /TBx2 3 -1 roll put} {pop} ifelse
      dup TBy1 lt {userdict /TBy1 3 -1 roll put} {pop} ifelse
      dup TBx1 lt {userdict /TBx1 3 -1 roll put} {pop} ifelse
      grestore } if }
    {} ifelse} def
/PopTextBox { newpath TBx1 TBxmargin sub TBy1 TBymargin sub M
               TBx1 TBxmargin sub TBy2 TBymargin add L
	       TBx2 TBxmargin add TBy2 TBymargin add L
	       TBx2 TBxmargin add TBy1 TBymargin sub L closepath } def
/DrawTextBox { PopTextBox stroke /Boxing false def} def
/FillTextBox { gsave PopTextBox fill grestore /Boxing false def} def
0 0 0 0 InitTextBox
/TBxmargin 20 def
/TBymargin 20 def
/Boxing false def
/textshow { ExtendTextBox Gshow } def
%
end
%%EndProlog
%%Page: 1 1
gnudict begin
gsave
doclip
50 50 translate
0.050 0.050 scale
0 setgray
newpath
1.000 UL
LTb
LCb setrgbcolor
[] 0 setdash
0.500 UL
LTa
LCa setrgbcolor
946 3224 M
5857 0 V
stroke
1.000 UL
LTb
LCb setrgbcolor
[] 0 setdash
946 3224 M
63 0 V
5794 0 R
-63 0 V
stroke
LTb
0.500 UL
LTa
LCa setrgbcolor
946 3623 M
5857 0 V
stroke
1.000 UL
LTb
LCb setrgbcolor
[] 0 setdash
946 3623 M
63 0 V
5794 0 R
-63 0 V
stroke
LTb
0.500 UL
LTa
LCa setrgbcolor
946 4022 M
3715 0 V
2010 0 R
132 0 V
stroke
1.000 UL
LTb
LCb setrgbcolor
[] 0 setdash
946 4022 M
63 0 V
5794 0 R
-63 0 V
stroke
LTb
0.500 UL
LTa
LCa setrgbcolor
946 4420 M
3715 0 V
2010 0 R
132 0 V
stroke
1.000 UL
LTb
LCb setrgbcolor
[] 0 setdash
946 4420 M
63 0 V
5794 0 R
-63 0 V
stroke
LTb
0.500 UL
LTa
LCa setrgbcolor
946 4819 M
5857 0 V
stroke
1.000 UL
LTb
LCb setrgbcolor
[] 0 setdash
946 4819 M
63 0 V
5794 0 R
-63 0 V
stroke
LTb
0.500 UL
LTa
LCa setrgbcolor
946 3224 M
0 1595 V
stroke
1.000 UL
LTb
LCb setrgbcolor
[] 0 setdash
946 3224 M
0 63 V
0 1532 R
0 -63 V
stroke
LTb
0.500 UL
LTa
LCa setrgbcolor
1532 3224 M
0 1595 V
stroke
1.000 UL
LTb
LCb setrgbcolor
[] 0 setdash
1532 3224 M
0 63 V
0 1532 R
0 -63 V
stroke
LTb
0.500 UL
LTa
LCa setrgbcolor
2117 3224 M
0 1595 V
stroke
1.000 UL
LTb
LCb setrgbcolor
[] 0 setdash
2117 3224 M
0 63 V
0 1532 R
0 -63 V
stroke
LTb
0.500 UL
LTa
LCa setrgbcolor
2703 3224 M
0 1595 V
stroke
1.000 UL
LTb
LCb setrgbcolor
[] 0 setdash
2703 3224 M
0 63 V
0 1532 R
0 -63 V
stroke
LTb
0.500 UL
LTa
LCa setrgbcolor
3289 3224 M
0 1595 V
stroke
1.000 UL
LTb
LCb setrgbcolor
[] 0 setdash
3289 3224 M
0 63 V
0 1532 R
0 -63 V
stroke
LTb
0.500 UL
LTa
LCa setrgbcolor
3875 3224 M
0 1595 V
stroke
1.000 UL
LTb
LCb setrgbcolor
[] 0 setdash
3875 3224 M
0 63 V
0 1532 R
0 -63 V
stroke
LTb
0.500 UL
LTa
LCa setrgbcolor
4460 3224 M
0 1595 V
stroke
1.000 UL
LTb
LCb setrgbcolor
[] 0 setdash
4460 3224 M
0 63 V
0 1532 R
0 -63 V
stroke
LTb
0.500 UL
LTa
LCa setrgbcolor
5046 3224 M
0 487 V
0 1045 R
0 63 V
stroke
1.000 UL
LTb
LCb setrgbcolor
[] 0 setdash
5046 3224 M
0 63 V
0 1532 R
0 -63 V
stroke
LTb
0.500 UL
LTa
LCa setrgbcolor
5632 3224 M
0 487 V
0 1045 R
0 63 V
stroke
1.000 UL
LTb
LCb setrgbcolor
[] 0 setdash
5632 3224 M
0 63 V
0 1532 R
0 -63 V
stroke
LTb
0.500 UL
LTa
LCa setrgbcolor
6217 3224 M
0 487 V
0 1045 R
0 63 V
stroke
1.000 UL
LTb
LCb setrgbcolor
[] 0 setdash
6217 3224 M
0 63 V
0 1532 R
0 -63 V
stroke
LTb
0.500 UL
LTa
LCa setrgbcolor
6803 3224 M
0 1595 V
stroke
1.000 UL
LTb
LCb setrgbcolor
[] 0 setdash
6803 3224 M
0 63 V
0 1532 R
0 -63 V
stroke
LTb
1.000 UL
LTb
946 4819 N
0 -1595 V
5857 0 V
0 1595 V
-5857 0 V
Z stroke
1.000 UP
1.000 UL
LTb
1.000 UL
LTb
4661 3711 N
0 1045 V
2010 0 V
0 -1045 V
-2010 0 V
Z stroke
% Begin plot #1
1.000 UP
1.000 UL
LTb
0.58 0.00 0.83 C
1005 3934 Pls
1063 4051 Pls
1122 3903 Pls
1180 3785 Pls
1239 3859 Pls
1297 3800 Pls
1356 3712 Pls
1415 3653 Pls
1473 4036 Pls
1532 3711 Pls
1590 3667 Pls
1649 3653 Pls
1707 3578 Pls
1766 3623 Pls
1825 3623 Pls
1883 3636 Pls
1942 3593 Pls
2000 3578 Pls
2059 3549 Pls
2117 3622 Pls
2176 3608 Pls
2235 3638 Pls
2293 3608 Pls
2352 3593 Pls
2410 3593 Pls
2469 3564 Pls
2527 3622 Pls
2586 3608 Pls
2645 3667 Pls
2703 3563 Pls
2762 3593 Pls
2820 3505 Pls
2879 3579 Pls
2937 3578 Pls
2996 3564 Pls
3055 3564 Pls
3113 3652 Pls
3172 3623 Pls
3230 3564 Pls
3289 3623 Pls
3347 3578 Pls
3406 3623 Pls
3465 3593 Pls
3523 3549 Pls
3582 3623 Pls
3640 3623 Pls
3699 3549 Pls
3757 3623 Pls
3816 3592 Pls
3875 3593 Pls
3933 3608 Pls
3992 3638 Pls
4050 3549 Pls
4109 3578 Pls
4167 3608 Pls
4226 3623 Pls
4284 3608 Pls
4343 3593 Pls
4402 3593 Pls
4460 3637 Pls
4519 3623 Pls
4577 3564 Pls
4636 3579 Pls
4694 3549 Pls
4753 3637 Pls
4812 3623 Pls
4870 3592 Pls
4929 3549 Pls
4987 3593 Pls
5046 3608 Pls
5104 3578 Pls
5163 3608 Pls
5222 3549 Pls
5280 3564 Pls
5339 3549 Pls
5397 3578 Pls
5456 3592 Pls
5514 3652 Pls
5573 3564 Pls
5632 3593 Pls
5690 3563 Pls
5749 3637 Pls
5807 3667 Pls
5866 3636 Pls
5924 3593 Pls
5983 3623 Pls
6042 3593 Pls
6100 3623 Pls
6159 3549 Pls
6217 3563 Pls
6276 3578 Pls
6334 3608 Pls
6393 3592 Pls
6452 3608 Pls
6510 3608 Pls
6569 3608 Pls
6627 3593 Pls
6686 3623 Pls
6744 3534 Pls
LTw
% End plot #1
% Begin plot #2
1.000 UP
1.000 UL
LTb
LCb setrgbcolor
[] 0 setdash
0.00 0.62 0.45 C
1005 3844 Crs
1063 3652 Crs
1122 3652 Crs
1180 3592 Crs
1239 3504 Crs
1297 3505 Crs
1356 3490 Crs
1415 3519 Crs
1473 3533 Crs
1532 3535 Crs
1590 3519 Crs
1649 3519 Crs
1707 3505 Crs
1766 3490 Crs
1825 3505 Crs
1883 3490 Crs
1942 3520 Crs
2000 3505 Crs
2059 3490 Crs
2117 3535 Crs
2176 3505 Crs
2235 3475 Crs
2293 3518 Crs
2352 3505 Crs
2410 3475 Crs
2469 3474 Crs
2527 3519 Crs
2586 3475 Crs
2645 3519 Crs
2703 3533 Crs
2762 3533 Crs
2820 3519 Crs
2879 3505 Crs
2937 3519 Crs
2996 3505 Crs
3055 3534 Crs
3113 3519 Crs
3172 3518 Crs
3230 3519 Crs
3289 3490 Crs
3347 3520 Crs
3406 3548 Crs
3465 3520 Crs
3523 3490 Crs
3582 3505 Crs
3640 3519 Crs
3699 3505 Crs
3757 3504 Crs
3816 3505 Crs
3875 3505 Crs
3933 3519 Crs
3992 3519 Crs
4050 3520 Crs
4109 3534 Crs
4167 3504 Crs
4226 3475 Crs
4284 3505 Crs
4343 3490 Crs
4402 3505 Crs
4460 3490 Crs
4519 3474 Crs
4577 3533 Crs
4636 3490 Crs
4694 3460 Crs
4753 3490 Crs
4812 3505 Crs
4870 3533 Crs
4929 3534 Crs
4987 3489 Crs
5046 3505 Crs
5104 3475 Crs
5163 3518 Crs
5222 3519 Crs
5280 3445 Crs
5339 3505 Crs
5397 3431 Crs
5456 3505 Crs
5514 3446 Crs
5573 3504 Crs
5632 3445 Crs
5690 3533 Crs
5749 3474 Crs
5807 3505 Crs
5866 3474 Crs
5924 3474 Crs
5983 3475 Crs
6042 3446 Crs
6100 3505 Crs
6159 3505 Crs
6217 3490 Crs
6276 3445 Crs
6334 3490 Crs
6393 3505 Crs
6452 3474 Crs
6510 3549 Crs
6569 3490 Crs
6627 3519 Crs
6686 3490 Crs
6744 3520 Crs
LTw
% End plot #2
% Begin plot #3
1.000 UP
1.000 UL
LTb
LCb setrgbcolor
[] 0 setdash
0.34 0.71 0.91 C
1005 3726 Star
1063 3623 Star
1122 3490 Star
1180 3519 Star
1239 3474 Star
1297 3505 Star
1356 3519 Star
1415 3563 Star
1473 3490 Star
1532 3505 Star
1590 3534 Star
1649 3490 Star
1707 3549 Star
1766 3519 Star
1825 3519 Star
1883 3490 Star
1942 3504 Star
2000 3490 Star
2059 3534 Star
2117 3518 Star
2176 3475 Star
2235 3475 Star
2293 3475 Star
2352 3518 Star
2410 3490 Star
2469 3461 Star
2527 3490 Star
2586 3474 Star
2645 3460 Star
2703 3490 Star
2762 3474 Star
2820 3490 Star
2879 3504 Star
2937 3506 Star
2996 3490 Star
3055 3475 Star
3113 3505 Star
3172 3504 Star
3230 3490 Star
3289 3474 Star
3347 3490 Star
3406 3490 Star
3465 3475 Star
3523 3474 Star
3582 3475 Star
3640 3460 Star
3699 3490 Star
3757 3490 Star
3816 3519 Star
3875 3489 Star
3933 3475 Star
3992 3505 Star
4050 3490 Star
4109 3549 Star
4167 3490 Star
4226 3490 Star
4284 3549 Star
4343 3489 Star
4402 3490 Star
4460 3505 Star
4519 3519 Star
4577 3519 Star
4636 3505 Star
4694 3490 Star
4753 3490 Star
4812 3475 Star
4870 3461 Star
4929 3490 Star
4987 3474 Star
5046 3475 Star
5104 3505 Star
5163 3490 Star
5222 3505 Star
5280 3520 Star
5339 3520 Star
5397 3505 Star
5456 3519 Star
5514 3490 Star
5573 3504 Star
5632 3475 Star
5690 3475 Star
5749 3475 Star
5807 3490 Star
5866 3519 Star
5924 3504 Star
5983 3474 Star
6042 3490 Star
6100 3489 Star
6159 3475 Star
6217 3519 Star
6276 3504 Star
6334 3490 Star
6393 3505 Star
6452 3505 Star
6510 3504 Star
6569 3504 Star
6627 3505 Star
6686 3459 Star
6744 3506 Star
LTw
% End plot #3
% Begin plot #4
1.000 UP
1.000 UL
LTb
LCb setrgbcolor
[] 0 setdash
0.90 0.62 0.00 C
1005 3829 Box
1063 3962 Box
1122 3549 Box
1180 3504 Box
1239 3490 Box
1297 3505 Box
1356 3490 Box
1415 3505 Box
1473 4582 Box
1532 3490 Box
1590 3475 Box
1649 3504 Box
1707 4096 Box
1766 3505 Box
1825 3505 Box
1883 3505 Box
1942 3475 Box
2000 3490 Box
2059 3962 Box
2117 3505 Box
2176 3445 Box
2235 3490 Box
2293 3490 Box
2352 3490 Box
2410 3489 Box
2469 3490 Box
2527 3490 Box
2586 3490 Box
2645 4287 Box
2703 3490 Box
2762 3505 Box
2820 3460 Box
2879 3475 Box
2937 3475 Box
2996 3446 Box
3055 3475 Box
3113 3445 Box
3172 3475 Box
3230 3992 Box
3289 3431 Box
3347 3445 Box
3406 3430 Box
3465 3490 Box
3523 3460 Box
3582 3474 Box
3640 3431 Box
3699 3475 Box
3757 3460 Box
3816 3992 Box
3875 3474 Box
3933 3459 Box
3992 3446 Box
4050 3460 Box
4109 3459 Box
4167 3461 Box
4226 3446 Box
4284 3460 Box
4343 3490 Box
4402 3947 Box
4460 3461 Box
4519 3461 Box
4577 3490 Box
4636 3504 Box
4694 3474 Box
4753 3474 Box
4812 3460 Box
4870 3460 Box
4929 3474 Box
4987 3932 Box
5046 3505 Box
5104 3504 Box
5163 3489 Box
5222 3489 Box
5280 3505 Box
5339 3490 Box
5397 3490 Box
5456 3475 Box
5514 3446 Box
5573 4051 Box
5632 3474 Box
5690 3475 Box
5749 3474 Box
5807 3474 Box
5866 3475 Box
5924 3474 Box
5983 3431 Box
6042 3460 Box
6100 3475 Box
6159 3962 Box
6217 3461 Box
6276 3460 Box
6334 3474 Box
6393 3490 Box
6452 3505 Box
6510 3490 Box
6569 3490 Box
6627 3474 Box
6686 3505 Box
6744 3947 Box
LTw
% End plot #4
LCw setrgbcolor
1.000 4661 3711 2010 1045 BoxColFill
1.000 UL
LTb
LCb setrgbcolor
[] 0 setdash
4661 3711 N
0 1045 V
2010 0 V
0 -1045 V
-2010 0 V
Z stroke
% Begin plot #5
1.000 UP
1.000 UL
LTb
0.58 0.00 0.83 C
LCb setrgbcolor
1.000 UP
1.000 UL
LTb
0.58 0.00 0.83 C
6243 4563 Pls
LTw
% End plot #5
% Begin plot #6
1.000 UP
1.000 UL
LTb
LCb setrgbcolor
[] 0 setdash
0.00 0.62 0.45 C
LCb setrgbcolor
1.000 UP
1.000 UL
LTb
0.00 0.62 0.45 C
6243 4343 Crs
LTw
% End plot #6
% Begin plot #7
1.000 UP
1.000 UL
LTb
LCb setrgbcolor
[] 0 setdash
0.34 0.71 0.91 C
LCb setrgbcolor
1.000 UP
1.000 UL
LTb
0.34 0.71 0.91 C
6243 4123 Star
LTw
% End plot #7
% Begin plot #8
1.000 UP
1.000 UL
LTb
LCb setrgbcolor
[] 0 setdash
0.90 0.62 0.00 C
LCb setrgbcolor
1.000 UP
1.000 UL
LTb
0.90 0.62 0.00 C
6243 3903 Box
LTw
% End plot #8
2.000 UL
LTb
LCb setrgbcolor
[] 0 setdash
1.000 UL
LTb
946 4819 N
0 -1595 V
5857 0 V
0 1595 V
-5857 0 V
Z stroke
1.000 UP
1.000 UL
LTb
1.000 UL
LTb
0.500 UL
LTa
LCa setrgbcolor
946 704 M
5857 0 V
stroke
1.000 UL
LTb
LCb setrgbcolor
[] 0 setdash
946 704 M
63 0 V
5794 0 R
-63 0 V
stroke
LTb
0.500 UL
LTa
LCa setrgbcolor
946 1023 M
5857 0 V
stroke
1.000 UL
LTb
LCb setrgbcolor
[] 0 setdash
946 1023 M
63 0 V
5794 0 R
-63 0 V
stroke
LTb
0.500 UL
LTa
LCa setrgbcolor
946 1342 M
3715 0 V
2010 0 R
132 0 V
stroke
1.000 UL
LTb
LCb setrgbcolor
[] 0 setdash
946 1342 M
63 0 V
5794 0 R
-63 0 V
stroke
LTb
0.500 UL
LTa
LCa setrgbcolor
946 1662 M
3715 0 V
2010 0 R
132 0 V
stroke
1.000 UL
LTb
LCb setrgbcolor
[] 0 setdash
946 1662 M
63 0 V
5794 0 R
-63 0 V
stroke
LTb
0.500 UL
LTa
LCa setrgbcolor
946 1981 M
3715 0 V
2010 0 R
132 0 V
stroke
1.000 UL
LTb
LCb setrgbcolor
[] 0 setdash
946 1981 M
63 0 V
5794 0 R
-63 0 V
stroke
LTb
0.500 UL
LTa
LCa setrgbcolor
946 2300 M
5857 0 V
stroke
1.000 UL
LTb
LCb setrgbcolor
[] 0 setdash
946 2300 M
63 0 V
5794 0 R
-63 0 V
stroke
LTb
0.500 UL
LTa
LCa setrgbcolor
946 704 M
0 1596 V
stroke
1.000 UL
LTb
LCb setrgbcolor
[] 0 setdash
946 704 M
0 63 V
0 1533 R
0 -63 V
stroke
LTb
0.500 UL
LTa
LCa setrgbcolor
1532 704 M
0 1596 V
stroke
1.000 UL
LTb
LCb setrgbcolor
[] 0 setdash
1532 704 M
0 63 V
0 1533 R
0 -63 V
stroke
LTb
0.500 UL
LTa
LCa setrgbcolor
2117 704 M
0 1596 V
stroke
1.000 UL
LTb
LCb setrgbcolor
[] 0 setdash
2117 704 M
0 63 V
0 1533 R
0 -63 V
stroke
LTb
0.500 UL
LTa
LCa setrgbcolor
2703 704 M
0 1596 V
stroke
1.000 UL
LTb
LCb setrgbcolor
[] 0 setdash
2703 704 M
0 63 V
0 1533 R
0 -63 V
stroke
LTb
0.500 UL
LTa
LCa setrgbcolor
3289 704 M
0 1596 V
stroke
1.000 UL
LTb
LCb setrgbcolor
[] 0 setdash
3289 704 M
0 63 V
0 1533 R
0 -63 V
stroke
LTb
0.500 UL
LTa
LCa setrgbcolor
3875 704 M
0 1596 V
stroke
1.000 UL
LTb
LCb setrgbcolor
[] 0 setdash
3875 704 M
0 63 V
0 1533 R
0 -63 V
stroke
LTb
0.500 UL
LTa
LCa setrgbcolor
4460 704 M
0 1596 V
stroke
1.000 UL
LTb
LCb setrgbcolor
[] 0 setdash
4460 704 M
0 63 V
0 1533 R
0 -63 V
stroke
LTb
0.500 UL
LTa
LCa setrgbcolor
5046 704 M
0 488 V
0 1045 R
0 63 V
stroke
1.000 UL
LTb
LCb setrgbcolor
[] 0 setdash
5046 704 M
0 63 V
0 1533 R
0 -63 V
stroke
LTb
0.500 UL
LTa
LCa setrgbcolor
5632 704 M
0 488 V
0 1045 R
0 63 V
stroke
1.000 UL
LTb
LCb setrgbcolor
[] 0 setdash
5632 704 M
0 63 V
0 1533 R
0 -63 V
stroke
LTb
0.500 UL
LTa
LCa setrgbcolor
6217 704 M
0 488 V
0 1045 R
0 63 V
stroke
1.000 UL
LTb
LCb setrgbcolor
[] 0 setdash
6217 704 M
0 63 V
0 1533 R
0 -63 V
stroke
LTb
0.500 UL
LTa
LCa setrgbcolor
6803 704 M
0 1596 V
stroke
1.000 UL
LTb
LCb setrgbcolor
[] 0 setdash
6803 704 M
0 63 V
0 1533 R
0 -63 V
stroke
LTb
1.000 UL
LTb
946 2300 N
946 704 L
5857 0 V
0 1596 V
-5857 0 V
Z stroke
1.000 UP
1.000 UL
LTb
1.000 UL
LTb
4661 1192 N
0 1045 V
2010 0 V
0 -1045 V
-2010 0 V
Z stroke
% Begin plot #1
1.000 UP
1.000 UL
LTb
0.58 0.00 0.83 C
1005 2062 Pls
1063 1974 Pls
1122 1944 Pls
1180 2033 Pls
1239 2003 Pls
1297 2003 Pls
1356 1944 Pls
1415 1826 Pls
1473 1974 Pls
1532 1915 Pls
1590 1887 Pls
1649 1885 Pls
1707 1915 Pls
1766 1915 Pls
1825 1797 Pls
1883 1887 Pls
1942 1797 Pls
2000 2005 Pls
2059 1887 Pls
2117 1946 Pls
2176 1946 Pls
2235 1885 Pls
2293 1885 Pls
2352 1826 Pls
2410 1887 Pls
2469 1885 Pls
2527 1946 Pls
2586 1944 Pls
2645 1887 Pls
2703 1917 Pls
2762 1856 Pls
2820 1885 Pls
2879 1915 Pls
2937 1797 Pls
2996 1856 Pls
3055 1887 Pls
3113 1915 Pls
3172 1828 Pls
3230 1915 Pls
3289 1856 Pls
3347 1915 Pls
3406 1856 Pls
3465 1915 Pls
3523 1915 Pls
3582 1856 Pls
3640 1887 Pls
3699 1915 Pls
3757 1974 Pls
3816 1887 Pls
3875 1828 Pls
3933 1974 Pls
3992 1915 Pls
4050 1915 Pls
4109 1915 Pls
4167 1828 Pls
4226 1856 Pls
4284 1946 Pls
4343 1915 Pls
4402 1944 Pls
4460 1917 Pls
4519 1887 Pls
4577 1885 Pls
4636 1885 Pls
4694 1885 Pls
4753 1974 Pls
4812 1856 Pls
4870 1856 Pls
4929 1856 Pls
4987 1826 Pls
5046 1856 Pls
5104 1915 Pls
5163 1828 Pls
5222 1856 Pls
5280 1885 Pls
5339 1885 Pls
5397 1797 Pls
5456 1828 Pls
5514 1856 Pls
5573 1856 Pls
5632 1944 Pls
5690 1856 Pls
5749 1797 Pls
5807 1946 Pls
5866 1828 Pls
5924 1915 Pls
5983 1856 Pls
6042 1944 Pls
6100 1828 Pls
6159 1856 Pls
6217 1917 Pls
6276 1887 Pls
6334 1944 Pls
6393 1828 Pls
6452 1856 Pls
6510 1946 Pls
6569 1944 Pls
6627 1797 Pls
6686 1856 Pls
6744 1826 Pls
LTw
% End plot #1
% Begin plot #2
1.000 UP
1.000 UL
LTb
LCb setrgbcolor
[] 0 setdash
0.00 0.62 0.45 C
1005 1828 Crs
1063 1856 Crs
1122 1797 Crs
1180 1887 Crs
1239 1797 Crs
1297 1885 Crs
1356 1856 Crs
1415 1828 Crs
1473 1828 Crs
1532 1885 Crs
1590 1887 Crs
1649 1828 Crs
1707 1767 Crs
1766 1856 Crs
1825 1826 Crs
1883 1856 Crs
1942 1797 Crs
2000 1915 Crs
2059 1856 Crs
2117 1826 Crs
2176 1915 Crs
2235 1856 Crs
2293 1828 Crs
2352 1856 Crs
2410 1856 Crs
2469 1887 Crs
2527 1828 Crs
2586 1887 Crs
2645 1797 Crs
2703 1915 Crs
2762 1887 Crs
2820 1828 Crs
2879 1915 Crs
2937 1856 Crs
2996 1856 Crs
3055 1797 Crs
3113 1767 Crs
3172 1858 Crs
3230 1856 Crs
3289 1826 Crs
3347 1826 Crs
3406 1828 Crs
3465 1767 Crs
3523 1797 Crs
3582 1797 Crs
3640 1797 Crs
3699 1856 Crs
3757 1887 Crs
3816 1797 Crs
3875 1885 Crs
3933 1797 Crs
3992 1856 Crs
4050 1797 Crs
4109 1915 Crs
4167 1828 Crs
4226 1885 Crs
4284 1856 Crs
4343 1797 Crs
4402 1856 Crs
4460 1797 Crs
4519 1915 Crs
4577 1887 Crs
4636 1885 Crs
4694 1915 Crs
4753 1946 Crs
4812 1856 Crs
4870 1797 Crs
4929 1887 Crs
4987 1887 Crs
5046 1885 Crs
5104 1826 Crs
5163 1887 Crs
5222 1885 Crs
5280 1856 Crs
5339 1974 Crs
5397 1826 Crs
5456 1885 Crs
5514 1826 Crs
5573 1887 Crs
5632 1828 Crs
5690 1887 Crs
5749 1858 Crs
5807 1885 Crs
5866 1917 Crs
5924 1828 Crs
5983 1887 Crs
6042 1797 Crs
6100 1944 Crs
6159 1856 Crs
6217 1856 Crs
6276 1828 Crs
6334 1828 Crs
6393 1828 Crs
6452 1917 Crs
6510 1887 Crs
6569 1856 Crs
6627 1887 Crs
6686 1828 Crs
6744 1856 Crs
LTw
% End plot #2
% Begin plot #3
1.000 UP
1.000 UL
LTb
LCb setrgbcolor
[] 0 setdash
0.34 0.71 0.91 C
1005 2064 Star
1063 2003 Star
1122 1885 Star
1180 1915 Star
1239 1887 Star
1297 1856 Star
1356 2005 Star
1415 1946 Star
1473 1974 Star
1532 1915 Star
1590 1944 Star
1649 1944 Star
1707 1944 Star
1766 2005 Star
1825 1915 Star
1883 1856 Star
1942 1946 Star
2000 2005 Star
2059 1915 Star
2117 1946 Star
2176 1885 Star
2235 1974 Star
2293 1944 Star
2352 1887 Star
2410 1856 Star
2469 1915 Star
2527 1946 Star
2586 1946 Star
2645 1828 Star
2703 1944 Star
2762 1828 Star
2820 1856 Star
2879 1828 Star
2937 1944 Star
2996 1887 Star
3055 1944 Star
3113 1797 Star
3172 1915 Star
3230 1856 Star
3289 1976 Star
3347 1856 Star
3406 1974 Star
3465 1885 Star
3523 1976 Star
3582 1885 Star
3640 1887 Star
3699 1946 Star
3757 1946 Star
3816 1887 Star
3875 2005 Star
3933 1856 Star
3992 1974 Star
4050 1887 Star
4109 1915 Star
4167 1974 Star
4226 1915 Star
4284 1856 Star
4343 1887 Star
4402 1915 Star
4460 1856 Star
4519 1887 Star
4577 1915 Star
4636 1944 Star
4694 1915 Star
4753 1887 Star
4812 2005 Star
4870 1974 Star
4929 1856 Star
4987 1915 Star
5046 1915 Star
5104 1915 Star
5163 1946 Star
5222 1974 Star
5280 1944 Star
5339 1944 Star
5397 1974 Star
5456 1974 Star
5514 1974 Star
5573 1946 Star
5632 1944 Star
5690 1974 Star
5749 1944 Star
5807 1944 Star
5866 1974 Star
5924 1946 Star
5983 2005 Star
6042 1946 Star
6100 1946 Star
6159 1974 Star
6217 2005 Star
6276 1917 Star
6334 1887 Star
6393 1885 Star
6452 1974 Star
6510 1946 Star
6569 1946 Star
6627 1915 Star
6686 1917 Star
6744 1944 Star
LTw
% End plot #3
% Begin plot #4
1.000 UP
1.000 UL
LTb
LCb setrgbcolor
[] 0 setdash
0.90 0.62 0.00 C
1005 2093 Box
1063 1915 Box
1122 2005 Box
1180 1974 Box
1239 1856 Box
1297 1826 Box
1356 1856 Box
1415 1915 Box
1473 2064 Box
1532 1885 Box
1590 1856 Box
1649 1915 Box
1707 1974 Box
1766 1826 Box
1825 2005 Box
1883 1915 Box
1942 1885 Box
2000 1887 Box
2059 1915 Box
2117 1885 Box
2176 1915 Box
2235 1915 Box
2293 1797 Box
2352 1885 Box
2410 1887 Box
2469 1797 Box
2527 1946 Box
2586 1915 Box
2645 2003 Box
2703 1946 Box
2762 1915 Box
2820 1946 Box
2879 1915 Box
2937 1915 Box
2996 1915 Box
3055 1915 Box
3113 1887 Box
3172 1856 Box
3230 1974 Box
3289 1887 Box
3347 1887 Box
3406 1917 Box
3465 1856 Box
3523 1915 Box
3582 1887 Box
3640 1887 Box
3699 1826 Box
3757 1885 Box
3816 1974 Box
3875 1915 Box
3933 1917 Box
3992 1885 Box
4050 1856 Box
4109 1887 Box
4167 1915 Box
4226 1856 Box
4284 1885 Box
4343 1856 Box
4402 1856 Box
4460 1944 Box
4519 1915 Box
4577 1915 Box
4636 1887 Box
4694 1887 Box
4753 1856 Box
4812 1887 Box
4870 1946 Box
4929 1946 Box
4987 1887 Box
5046 1915 Box
5104 1946 Box
5163 1828 Box
5222 1828 Box
5280 1885 Box
5339 1828 Box
5397 1856 Box
5456 1944 Box
5514 1826 Box
5573 2033 Box
5632 1887 Box
5690 1856 Box
5749 1828 Box
5807 1828 Box
5866 1826 Box
5924 1797 Box
5983 1826 Box
6042 1828 Box
6100 1797 Box
6159 1974 Box
6217 1915 Box
6276 2005 Box
6334 1946 Box
6393 1974 Box
6452 1915 Box
6510 1915 Box
6569 1797 Box
6627 1856 Box
6686 1856 Box
6744 1946 Box
LTw
% End plot #4
LCw setrgbcolor
1.000 4661 1192 2010 1045 BoxColFill
1.000 UL
LTb
LCb setrgbcolor
[] 0 setdash
4661 1192 N
0 1045 V
2010 0 V
0 -1045 V
-2010 0 V
Z stroke
% Begin plot #5
1.000 UP
1.000 UL
LTb
0.58 0.00 0.83 C
LCb setrgbcolor
1.000 UP
1.000 UL
LTb
0.58 0.00 0.83 C
6243 2044 Pls
LTw
% End plot #5
% Begin plot #6
1.000 UP
1.000 UL
LTb
LCb setrgbcolor
[] 0 setdash
0.00 0.62 0.45 C
LCb setrgbcolor
1.000 UP
1.000 UL
LTb
0.00 0.62 0.45 C
6243 1824 Crs
LTw
% End plot #6
% Begin plot #7
1.000 UP
1.000 UL
LTb
LCb setrgbcolor
[] 0 setdash
0.34 0.71 0.91 C
LCb setrgbcolor
1.000 UP
1.000 UL
LTb
0.34 0.71 0.91 C
6243 1604 Star
LTw
% End plot #7
% Begin plot #8
1.000 UP
1.000 UL
LTb
LCb setrgbcolor
[] 0 setdash
0.90 0.62 0.00 C
LCb setrgbcolor
1.000 UP
1.000 UL
LTb
0.90 0.62 0.00 C
6243 1384 Box
LTw
% End plot #8
2.000 UL
LTb
LCb setrgbcolor
[] 0 setdash
1.000 UL
LTb
946 2300 N
946 704 L
5857 0 V
0 1596 V
-5857 0 V
Z stroke
1.000 UP
1.000 UL
LTb
stroke
grestore
end
showpage
%%Trailer
