%!PS-Adobe-2.0 EPSF-2.0
%%Title: time_consumption_plot_0_netlink.tex
%%Creator: gnuplot 5.2 patchlevel 8
%%CreationDate: Tue Mar 16 12:52:51 2021
%%DocumentFonts: 
%%BoundingBox: 50 50 410 302
%%EndComments
%%BeginProlog
/gnudict 256 dict def
gnudict begin
%
% The following true/false flags may be edited by hand if desired.
% The unit line width and grayscale image gamma correction may also be changed.
%
/Color true def
/Blacktext true def
/Solid false def
/Dashlength 1 def
/Landscape false def
/Level1 false def
/Level3 false def
/Rounded false def
/ClipToBoundingBox false def
/SuppressPDFMark false def
/TransparentPatterns false def
/gnulinewidth 5.000 def
/userlinewidth gnulinewidth def
/Gamma 1.0 def
/BackgroundColor {-1.000 -1.000 -1.000} def
%
/vshift -73 def
/dl1 {
  10.0 Dashlength userlinewidth gnulinewidth div mul mul mul
  Rounded { currentlinewidth 0.75 mul sub dup 0 le { pop 0.01 } if } if
} def
/dl2 {
  10.0 Dashlength userlinewidth gnulinewidth div mul mul mul
  Rounded { currentlinewidth 0.75 mul add } if
} def
/hpt_ 31.5 def
/vpt_ 31.5 def
/hpt hpt_ def
/vpt vpt_ def
/doclip {
  ClipToBoundingBox {
    newpath 50 50 moveto 410 50 lineto 410 302 lineto 50 302 lineto closepath
    clip
  } if
} def
%
% Gnuplot Prolog Version 5.2 (Dec 2017)
%
%/SuppressPDFMark true def
%
/M {moveto} bind def
/L {lineto} bind def
/R {rmoveto} bind def
/V {rlineto} bind def
/N {newpath moveto} bind def
/Z {closepath} bind def
/C {setrgbcolor} bind def
/f {rlineto fill} bind def
/g {setgray} bind def
/Gshow {show} def   % May be redefined later in the file to support UTF-8
/vpt2 vpt 2 mul def
/hpt2 hpt 2 mul def
/Lshow {currentpoint stroke M 0 vshift R 
	Blacktext {gsave 0 setgray textshow grestore} {textshow} ifelse} def
/Rshow {currentpoint stroke M dup stringwidth pop neg vshift R
	Blacktext {gsave 0 setgray textshow grestore} {textshow} ifelse} def
/Cshow {currentpoint stroke M dup stringwidth pop -2 div vshift R 
	Blacktext {gsave 0 setgray textshow grestore} {textshow} ifelse} def
/UP {dup vpt_ mul /vpt exch def hpt_ mul /hpt exch def
  /hpt2 hpt 2 mul def /vpt2 vpt 2 mul def} def
/DL {Color {setrgbcolor Solid {pop []} if 0 setdash}
 {pop pop pop 0 setgray Solid {pop []} if 0 setdash} ifelse} def
/BL {stroke userlinewidth 2 mul setlinewidth
	Rounded {1 setlinejoin 1 setlinecap} if} def
/AL {stroke userlinewidth 2 div setlinewidth
	Rounded {1 setlinejoin 1 setlinecap} if} def
/UL {dup gnulinewidth mul /userlinewidth exch def
	dup 1 lt {pop 1} if 10 mul /udl exch def} def
/PL {stroke userlinewidth setlinewidth
	Rounded {1 setlinejoin 1 setlinecap} if} def
3.8 setmiterlimit
% Classic Line colors (version 5.0)
/LCw {1 1 1} def
/LCb {0 0 0} def
/LCa {0 0 0} def
/LC0 {1 0 0} def
/LC1 {0 1 0} def
/LC2 {0 0 1} def
/LC3 {1 0 1} def
/LC4 {0 1 1} def
/LC5 {1 1 0} def
/LC6 {0 0 0} def
/LC7 {1 0.3 0} def
/LC8 {0.5 0.5 0.5} def
% Default dash patterns (version 5.0)
/LTB {BL [] LCb DL} def
/LTw {PL [] 1 setgray} def
/LTb {PL [] LCb DL} def
/LTa {AL [1 udl mul 2 udl mul] 0 setdash LCa setrgbcolor} def
/LT0 {PL [] LC0 DL} def
/LT1 {PL [2 dl1 3 dl2] LC1 DL} def
/LT2 {PL [1 dl1 1.5 dl2] LC2 DL} def
/LT3 {PL [6 dl1 2 dl2 1 dl1 2 dl2] LC3 DL} def
/LT4 {PL [1 dl1 2 dl2 6 dl1 2 dl2 1 dl1 2 dl2] LC4 DL} def
/LT5 {PL [4 dl1 2 dl2] LC5 DL} def
/LT6 {PL [1.5 dl1 1.5 dl2 1.5 dl1 1.5 dl2 1.5 dl1 6 dl2] LC6 DL} def
/LT7 {PL [3 dl1 3 dl2 1 dl1 3 dl2] LC7 DL} def
/LT8 {PL [2 dl1 2 dl2 2 dl1 6 dl2] LC8 DL} def
/SL {[] 0 setdash} def
/Pnt {stroke [] 0 setdash gsave 1 setlinecap M 0 0 V stroke grestore} def
/Dia {stroke [] 0 setdash 2 copy vpt add M
  hpt neg vpt neg V hpt vpt neg V
  hpt vpt V hpt neg vpt V closepath stroke
  Pnt} def
/Pls {stroke [] 0 setdash vpt sub M 0 vpt2 V
  currentpoint stroke M
  hpt neg vpt neg R hpt2 0 V stroke
 } def
/Box {stroke [] 0 setdash 2 copy exch hpt sub exch vpt add M
  0 vpt2 neg V hpt2 0 V 0 vpt2 V
  hpt2 neg 0 V closepath stroke
  Pnt} def
/Crs {stroke [] 0 setdash exch hpt sub exch vpt add M
  hpt2 vpt2 neg V currentpoint stroke M
  hpt2 neg 0 R hpt2 vpt2 V stroke} def
/TriU {stroke [] 0 setdash 2 copy vpt 1.12 mul add M
  hpt neg vpt -1.62 mul V
  hpt 2 mul 0 V
  hpt neg vpt 1.62 mul V closepath stroke
  Pnt} def
/Star {2 copy Pls Crs} def
/BoxF {stroke [] 0 setdash exch hpt sub exch vpt add M
  0 vpt2 neg V hpt2 0 V 0 vpt2 V
  hpt2 neg 0 V closepath fill} def
/TriUF {stroke [] 0 setdash vpt 1.12 mul add M
  hpt neg vpt -1.62 mul V
  hpt 2 mul 0 V
  hpt neg vpt 1.62 mul V closepath fill} def
/TriD {stroke [] 0 setdash 2 copy vpt 1.12 mul sub M
  hpt neg vpt 1.62 mul V
  hpt 2 mul 0 V
  hpt neg vpt -1.62 mul V closepath stroke
  Pnt} def
/TriDF {stroke [] 0 setdash vpt 1.12 mul sub M
  hpt neg vpt 1.62 mul V
  hpt 2 mul 0 V
  hpt neg vpt -1.62 mul V closepath fill} def
/DiaF {stroke [] 0 setdash vpt add M
  hpt neg vpt neg V hpt vpt neg V
  hpt vpt V hpt neg vpt V closepath fill} def
/Pent {stroke [] 0 setdash 2 copy gsave
  translate 0 hpt M 4 {72 rotate 0 hpt L} repeat
  closepath stroke grestore Pnt} def
/PentF {stroke [] 0 setdash gsave
  translate 0 hpt M 4 {72 rotate 0 hpt L} repeat
  closepath fill grestore} def
/Circle {stroke [] 0 setdash 2 copy
  hpt 0 360 arc stroke Pnt} def
/CircleF {stroke [] 0 setdash hpt 0 360 arc fill} def
/C0 {BL [] 0 setdash 2 copy moveto vpt 90 450 arc} bind def
/C1 {BL [] 0 setdash 2 copy moveto
	2 copy vpt 0 90 arc closepath fill
	vpt 0 360 arc closepath} bind def
/C2 {BL [] 0 setdash 2 copy moveto
	2 copy vpt 90 180 arc closepath fill
	vpt 0 360 arc closepath} bind def
/C3 {BL [] 0 setdash 2 copy moveto
	2 copy vpt 0 180 arc closepath fill
	vpt 0 360 arc closepath} bind def
/C4 {BL [] 0 setdash 2 copy moveto
	2 copy vpt 180 270 arc closepath fill
	vpt 0 360 arc closepath} bind def
/C5 {BL [] 0 setdash 2 copy moveto
	2 copy vpt 0 90 arc
	2 copy moveto
	2 copy vpt 180 270 arc closepath fill
	vpt 0 360 arc} bind def
/C6 {BL [] 0 setdash 2 copy moveto
	2 copy vpt 90 270 arc closepath fill
	vpt 0 360 arc closepath} bind def
/C7 {BL [] 0 setdash 2 copy moveto
	2 copy vpt 0 270 arc closepath fill
	vpt 0 360 arc closepath} bind def
/C8 {BL [] 0 setdash 2 copy moveto
	2 copy vpt 270 360 arc closepath fill
	vpt 0 360 arc closepath} bind def
/C9 {BL [] 0 setdash 2 copy moveto
	2 copy vpt 270 450 arc closepath fill
	vpt 0 360 arc closepath} bind def
/C10 {BL [] 0 setdash 2 copy 2 copy moveto vpt 270 360 arc closepath fill
	2 copy moveto
	2 copy vpt 90 180 arc closepath fill
	vpt 0 360 arc closepath} bind def
/C11 {BL [] 0 setdash 2 copy moveto
	2 copy vpt 0 180 arc closepath fill
	2 copy moveto
	2 copy vpt 270 360 arc closepath fill
	vpt 0 360 arc closepath} bind def
/C12 {BL [] 0 setdash 2 copy moveto
	2 copy vpt 180 360 arc closepath fill
	vpt 0 360 arc closepath} bind def
/C13 {BL [] 0 setdash 2 copy moveto
	2 copy vpt 0 90 arc closepath fill
	2 copy moveto
	2 copy vpt 180 360 arc closepath fill
	vpt 0 360 arc closepath} bind def
/C14 {BL [] 0 setdash 2 copy moveto
	2 copy vpt 90 360 arc closepath fill
	vpt 0 360 arc} bind def
/C15 {BL [] 0 setdash 2 copy vpt 0 360 arc closepath fill
	vpt 0 360 arc closepath} bind def
/Rec {newpath 4 2 roll moveto 1 index 0 rlineto 0 exch rlineto
	neg 0 rlineto closepath} bind def
/Square {dup Rec} bind def
/Bsquare {vpt sub exch vpt sub exch vpt2 Square} bind def
/S0 {BL [] 0 setdash 2 copy moveto 0 vpt rlineto BL Bsquare} bind def
/S1 {BL [] 0 setdash 2 copy vpt Square fill Bsquare} bind def
/S2 {BL [] 0 setdash 2 copy exch vpt sub exch vpt Square fill Bsquare} bind def
/S3 {BL [] 0 setdash 2 copy exch vpt sub exch vpt2 vpt Rec fill Bsquare} bind def
/S4 {BL [] 0 setdash 2 copy exch vpt sub exch vpt sub vpt Square fill Bsquare} bind def
/S5 {BL [] 0 setdash 2 copy 2 copy vpt Square fill
	exch vpt sub exch vpt sub vpt Square fill Bsquare} bind def
/S6 {BL [] 0 setdash 2 copy exch vpt sub exch vpt sub vpt vpt2 Rec fill Bsquare} bind def
/S7 {BL [] 0 setdash 2 copy exch vpt sub exch vpt sub vpt vpt2 Rec fill
	2 copy vpt Square fill Bsquare} bind def
/S8 {BL [] 0 setdash 2 copy vpt sub vpt Square fill Bsquare} bind def
/S9 {BL [] 0 setdash 2 copy vpt sub vpt vpt2 Rec fill Bsquare} bind def
/S10 {BL [] 0 setdash 2 copy vpt sub vpt Square fill 2 copy exch vpt sub exch vpt Square fill
	Bsquare} bind def
/S11 {BL [] 0 setdash 2 copy vpt sub vpt Square fill 2 copy exch vpt sub exch vpt2 vpt Rec fill
	Bsquare} bind def
/S12 {BL [] 0 setdash 2 copy exch vpt sub exch vpt sub vpt2 vpt Rec fill Bsquare} bind def
/S13 {BL [] 0 setdash 2 copy exch vpt sub exch vpt sub vpt2 vpt Rec fill
	2 copy vpt Square fill Bsquare} bind def
/S14 {BL [] 0 setdash 2 copy exch vpt sub exch vpt sub vpt2 vpt Rec fill
	2 copy exch vpt sub exch vpt Square fill Bsquare} bind def
/S15 {BL [] 0 setdash 2 copy Bsquare fill Bsquare} bind def
/D0 {gsave translate 45 rotate 0 0 S0 stroke grestore} bind def
/D1 {gsave translate 45 rotate 0 0 S1 stroke grestore} bind def
/D2 {gsave translate 45 rotate 0 0 S2 stroke grestore} bind def
/D3 {gsave translate 45 rotate 0 0 S3 stroke grestore} bind def
/D4 {gsave translate 45 rotate 0 0 S4 stroke grestore} bind def
/D5 {gsave translate 45 rotate 0 0 S5 stroke grestore} bind def
/D6 {gsave translate 45 rotate 0 0 S6 stroke grestore} bind def
/D7 {gsave translate 45 rotate 0 0 S7 stroke grestore} bind def
/D8 {gsave translate 45 rotate 0 0 S8 stroke grestore} bind def
/D9 {gsave translate 45 rotate 0 0 S9 stroke grestore} bind def
/D10 {gsave translate 45 rotate 0 0 S10 stroke grestore} bind def
/D11 {gsave translate 45 rotate 0 0 S11 stroke grestore} bind def
/D12 {gsave translate 45 rotate 0 0 S12 stroke grestore} bind def
/D13 {gsave translate 45 rotate 0 0 S13 stroke grestore} bind def
/D14 {gsave translate 45 rotate 0 0 S14 stroke grestore} bind def
/D15 {gsave translate 45 rotate 0 0 S15 stroke grestore} bind def
/DiaE {stroke [] 0 setdash vpt add M
  hpt neg vpt neg V hpt vpt neg V
  hpt vpt V hpt neg vpt V closepath stroke} def
/BoxE {stroke [] 0 setdash exch hpt sub exch vpt add M
  0 vpt2 neg V hpt2 0 V 0 vpt2 V
  hpt2 neg 0 V closepath stroke} def
/TriUE {stroke [] 0 setdash vpt 1.12 mul add M
  hpt neg vpt -1.62 mul V
  hpt 2 mul 0 V
  hpt neg vpt 1.62 mul V closepath stroke} def
/TriDE {stroke [] 0 setdash vpt 1.12 mul sub M
  hpt neg vpt 1.62 mul V
  hpt 2 mul 0 V
  hpt neg vpt -1.62 mul V closepath stroke} def
/PentE {stroke [] 0 setdash gsave
  translate 0 hpt M 4 {72 rotate 0 hpt L} repeat
  closepath stroke grestore} def
/CircE {stroke [] 0 setdash 
  hpt 0 360 arc stroke} def
/Opaque {gsave closepath 1 setgray fill grestore 0 setgray closepath} def
/DiaW {stroke [] 0 setdash vpt add M
  hpt neg vpt neg V hpt vpt neg V
  hpt vpt V hpt neg vpt V Opaque stroke} def
/BoxW {stroke [] 0 setdash exch hpt sub exch vpt add M
  0 vpt2 neg V hpt2 0 V 0 vpt2 V
  hpt2 neg 0 V Opaque stroke} def
/TriUW {stroke [] 0 setdash vpt 1.12 mul add M
  hpt neg vpt -1.62 mul V
  hpt 2 mul 0 V
  hpt neg vpt 1.62 mul V Opaque stroke} def
/TriDW {stroke [] 0 setdash vpt 1.12 mul sub M
  hpt neg vpt 1.62 mul V
  hpt 2 mul 0 V
  hpt neg vpt -1.62 mul V Opaque stroke} def
/PentW {stroke [] 0 setdash gsave
  translate 0 hpt M 4 {72 rotate 0 hpt L} repeat
  Opaque stroke grestore} def
/CircW {stroke [] 0 setdash 
  hpt 0 360 arc Opaque stroke} def
/BoxFill {gsave Rec 1 setgray fill grestore} def
/Density {
  /Fillden exch def
  currentrgbcolor
  /ColB exch def /ColG exch def /ColR exch def
  /ColR ColR Fillden mul Fillden sub 1 add def
  /ColG ColG Fillden mul Fillden sub 1 add def
  /ColB ColB Fillden mul Fillden sub 1 add def
  ColR ColG ColB setrgbcolor} def
/BoxColFill {gsave Rec PolyFill} def
/PolyFill {gsave Density fill grestore grestore} def
/h {rlineto rlineto rlineto closepath gsave fill grestore stroke} bind def
%
% PostScript Level 1 Pattern Fill routine for rectangles
% Usage: x y w h s a XX PatternFill
%	x,y = lower left corner of box to be filled
%	w,h = width and height of box
%	  a = angle in degrees between lines and x-axis
%	 XX = 0/1 for no/yes cross-hatch
%
/PatternFill {gsave /PFa [ 9 2 roll ] def
  PFa 0 get PFa 2 get 2 div add PFa 1 get PFa 3 get 2 div add translate
  PFa 2 get -2 div PFa 3 get -2 div PFa 2 get PFa 3 get Rec
  TransparentPatterns {} {gsave 1 setgray fill grestore} ifelse
  clip
  currentlinewidth 0.5 mul setlinewidth
  /PFs PFa 2 get dup mul PFa 3 get dup mul add sqrt def
  0 0 M PFa 5 get rotate PFs -2 div dup translate
  0 1 PFs PFa 4 get div 1 add floor cvi
	{PFa 4 get mul 0 M 0 PFs V} for
  0 PFa 6 get ne {
	0 1 PFs PFa 4 get div 1 add floor cvi
	{PFa 4 get mul 0 2 1 roll M PFs 0 V} for
 } if
  stroke grestore} def
%
/languagelevel where
 {pop languagelevel} {1} ifelse
dup 2 lt
	{/InterpretLevel1 true def
	 /InterpretLevel3 false def}
	{/InterpretLevel1 Level1 def
	 2 gt
	    {/InterpretLevel3 Level3 def}
	    {/InterpretLevel3 false def}
	 ifelse }
 ifelse
%
% PostScript level 2 pattern fill definitions
%
/Level2PatternFill {
/Tile8x8 {/PaintType 2 /PatternType 1 /TilingType 1 /BBox [0 0 8 8] /XStep 8 /YStep 8}
	bind def
/KeepColor {currentrgbcolor [/Pattern /DeviceRGB] setcolorspace} bind def
<< Tile8x8
 /PaintProc {0.5 setlinewidth pop 0 0 M 8 8 L 0 8 M 8 0 L stroke} 
>> matrix makepattern
/Pat1 exch def
<< Tile8x8
 /PaintProc {0.5 setlinewidth pop 0 0 M 8 8 L 0 8 M 8 0 L stroke
	0 4 M 4 8 L 8 4 L 4 0 L 0 4 L stroke}
>> matrix makepattern
/Pat2 exch def
<< Tile8x8
 /PaintProc {0.5 setlinewidth pop 0 0 M 0 8 L
	8 8 L 8 0 L 0 0 L fill}
>> matrix makepattern
/Pat3 exch def
<< Tile8x8
 /PaintProc {0.5 setlinewidth pop -4 8 M 8 -4 L
	0 12 M 12 0 L stroke}
>> matrix makepattern
/Pat4 exch def
<< Tile8x8
 /PaintProc {0.5 setlinewidth pop -4 0 M 8 12 L
	0 -4 M 12 8 L stroke}
>> matrix makepattern
/Pat5 exch def
<< Tile8x8
 /PaintProc {0.5 setlinewidth pop -2 8 M 4 -4 L
	0 12 M 8 -4 L 4 12 M 10 0 L stroke}
>> matrix makepattern
/Pat6 exch def
<< Tile8x8
 /PaintProc {0.5 setlinewidth pop -2 0 M 4 12 L
	0 -4 M 8 12 L 4 -4 M 10 8 L stroke}
>> matrix makepattern
/Pat7 exch def
<< Tile8x8
 /PaintProc {0.5 setlinewidth pop 8 -2 M -4 4 L
	12 0 M -4 8 L 12 4 M 0 10 L stroke}
>> matrix makepattern
/Pat8 exch def
<< Tile8x8
 /PaintProc {0.5 setlinewidth pop 0 -2 M 12 4 L
	-4 0 M 12 8 L -4 4 M 8 10 L stroke}
>> matrix makepattern
/Pat9 exch def
/Pattern1 {PatternBgnd KeepColor Pat1 setpattern} bind def
/Pattern2 {PatternBgnd KeepColor Pat2 setpattern} bind def
/Pattern3 {PatternBgnd KeepColor Pat3 setpattern} bind def
/Pattern4 {PatternBgnd KeepColor Landscape {Pat5} {Pat4} ifelse setpattern} bind def
/Pattern5 {PatternBgnd KeepColor Landscape {Pat4} {Pat5} ifelse setpattern} bind def
/Pattern6 {PatternBgnd KeepColor Landscape {Pat9} {Pat6} ifelse setpattern} bind def
/Pattern7 {PatternBgnd KeepColor Landscape {Pat8} {Pat7} ifelse setpattern} bind def
} def
%
%
%End of PostScript Level 2 code
%
/PatternBgnd {
  TransparentPatterns {} {gsave 1 setgray fill grestore} ifelse
} def
%
% Substitute for Level 2 pattern fill codes with
% grayscale if Level 2 support is not selected.
%
/Level1PatternFill {
/Pattern1 {0.250 Density} bind def
/Pattern2 {0.500 Density} bind def
/Pattern3 {0.750 Density} bind def
/Pattern4 {0.125 Density} bind def
/Pattern5 {0.375 Density} bind def
/Pattern6 {0.625 Density} bind def
/Pattern7 {0.875 Density} bind def
} def
%
% Now test for support of Level 2 code
%
Level1 {Level1PatternFill} {Level2PatternFill} ifelse
%
/Symbol-Oblique /Symbol findfont [1 0 .167 1 0 0] makefont
dup length dict begin {1 index /FID eq {pop pop} {def} ifelse} forall
currentdict end definefont pop
%
Level1 SuppressPDFMark or 
{} {
/SDict 10 dict def
systemdict /pdfmark known not {
  userdict /pdfmark systemdict /cleartomark get put
} if
SDict begin [
  /Title (time_consumption_plot_0_netlink.tex)
  /Subject (gnuplot plot)
  /Creator (gnuplot 5.2 patchlevel 8)
%  /Producer (gnuplot)
%  /Keywords ()
  /CreationDate (Tue Mar 16 12:52:51 2021)
  /DOCINFO pdfmark
end
} ifelse
%
% Support for boxed text - Ethan A Merritt Sep 2016
%
/InitTextBox { userdict /TBy2 3 -1 roll put userdict /TBx2 3 -1 roll put
           userdict /TBy1 3 -1 roll put userdict /TBx1 3 -1 roll put
	   /Boxing true def } def
/ExtendTextBox { dup type /stringtype eq
    { Boxing { gsave dup false charpath pathbbox
      dup TBy2 gt {userdict /TBy2 3 -1 roll put} {pop} ifelse
      dup TBx2 gt {userdict /TBx2 3 -1 roll put} {pop} ifelse
      dup TBy1 lt {userdict /TBy1 3 -1 roll put} {pop} ifelse
      dup TBx1 lt {userdict /TBx1 3 -1 roll put} {pop} ifelse
      grestore } if }
    {} ifelse} def
/PopTextBox { newpath TBx1 TBxmargin sub TBy1 TBymargin sub M
               TBx1 TBxmargin sub TBy2 TBymargin add L
	       TBx2 TBxmargin add TBy2 TBymargin add L
	       TBx2 TBxmargin add TBy1 TBymargin sub L closepath } def
/DrawTextBox { PopTextBox stroke /Boxing false def} def
/FillTextBox { gsave PopTextBox fill grestore /Boxing false def} def
0 0 0 0 InitTextBox
/TBxmargin 20 def
/TBymargin 20 def
/Boxing false def
/textshow { ExtendTextBox Gshow } def
%
end
%%EndProlog
%%Page: 1 1
gnudict begin
gsave
doclip
50 50 translate
0.050 0.050 scale
0 setgray
newpath
1.000 UL
LTb
LCb setrgbcolor
[] 0 setdash
0.500 UL
LTa
LCa setrgbcolor
946 704 M
5857 0 V
stroke
1.000 UL
LTb
LCb setrgbcolor
[] 0 setdash
946 704 M
63 0 V
5794 0 R
-63 0 V
stroke
LTb
0.500 UL
LTa
LCa setrgbcolor
946 2076 M
5857 0 V
stroke
1.000 UL
LTb
LCb setrgbcolor
[] 0 setdash
946 2076 M
63 0 V
5794 0 R
-63 0 V
stroke
LTb
0.500 UL
LTa
LCa setrgbcolor
946 3447 M
5857 0 V
stroke
1.000 UL
LTb
LCb setrgbcolor
[] 0 setdash
946 3447 M
63 0 V
5794 0 R
-63 0 V
stroke
LTb
0.500 UL
LTa
LCa setrgbcolor
946 4819 M
5857 0 V
stroke
1.000 UL
LTb
LCb setrgbcolor
[] 0 setdash
946 4819 M
63 0 V
5794 0 R
-63 0 V
stroke
LTb
0.500 UL
LTa
LCa setrgbcolor
946 704 M
0 4115 V
stroke
1.000 UL
LTb
LCb setrgbcolor
[] 0 setdash
946 704 M
0 63 V
0 4052 R
0 -63 V
stroke
LTb
0.500 UL
LTa
LCa setrgbcolor
2117 704 M
0 4115 V
stroke
1.000 UL
LTb
LCb setrgbcolor
[] 0 setdash
2117 704 M
0 63 V
0 4052 R
0 -63 V
stroke
LTb
0.500 UL
LTa
LCa setrgbcolor
3289 704 M
0 4115 V
stroke
1.000 UL
LTb
LCb setrgbcolor
[] 0 setdash
3289 704 M
0 63 V
0 4052 R
0 -63 V
stroke
LTb
0.500 UL
LTa
LCa setrgbcolor
4460 704 M
0 4115 V
stroke
1.000 UL
LTb
LCb setrgbcolor
[] 0 setdash
4460 704 M
0 63 V
0 4052 R
0 -63 V
stroke
LTb
0.500 UL
LTa
LCa setrgbcolor
5632 704 M
0 3007 V
0 1045 R
0 63 V
stroke
1.000 UL
LTb
LCb setrgbcolor
[] 0 setdash
5632 704 M
0 63 V
0 4052 R
0 -63 V
stroke
LTb
0.500 UL
LTa
LCa setrgbcolor
6803 704 M
0 4115 V
stroke
1.000 UL
LTb
LCb setrgbcolor
[] 0 setdash
6803 704 M
0 63 V
0 4052 R
0 -63 V
stroke
LTb
1.000 UL
LTb
946 4819 N
946 704 L
5857 0 V
0 4115 V
-5857 0 V
Z stroke
1.000 UP
1.000 UL
LTb
1.000 UL
LTb
4661 3711 N
0 1045 V
2010 0 V
0 -1045 V
-2010 0 V
Z stroke
% Begin plot #1
1.000 UP
1.000 UL
LTb
0.58 0.00 0.83 C
946 4523 Pls
958 1927 Pls
969 1831 Pls
981 1739 Pls
993 1676 Pls
1005 2144 Pls
1016 1757 Pls
1028 1675 Pls
1040 1656 Pls
1051 1638 Pls
1063 1624 Pls
1075 1627 Pls
1087 1635 Pls
1098 1623 Pls
1110 1612 Pls
1122 1624 Pls
1133 1604 Pls
1145 1616 Pls
1157 1623 Pls
1169 2003 Pls
1180 1692 Pls
1192 1619 Pls
1204 1639 Pls
1215 1601 Pls
1227 1601 Pls
1239 1613 Pls
1251 1624 Pls
1262 1587 Pls
1274 1607 Pls
1286 1592 Pls
1297 1597 Pls
1309 1625 Pls
1321 1630 Pls
1344 3023 Pls
1356 1811 Pls
1368 1743 Pls
1379 1713 Pls
1391 1636 Pls
1403 1831 Pls
1415 1622 Pls
1426 1637 Pls
1438 1728 Pls
1450 1624 Pls
1461 1603 Pls
1473 1601 Pls
1485 1612 Pls
1497 1696 Pls
1508 1600 Pls
1520 1605 Pls
1532 1608 Pls
1543 1587 Pls
1555 1588 Pls
1567 2092 Pls
1579 1620 Pls
1590 1607 Pls
1602 1602 Pls
1614 1597 Pls
1625 1602 Pls
1637 1603 Pls
1649 1581 Pls
1661 1605 Pls
1672 1601 Pls
1684 1605 Pls
1696 1618 Pls
1707 1580 Pls
1719 1591 Pls
1731 1978 Pls
1743 1633 Pls
1754 1628 Pls
1766 1599 Pls
1778 1584 Pls
1789 1597 Pls
1801 1594 Pls
1813 1602 Pls
1825 1593 Pls
1836 1590 Pls
1848 1601 Pls
1860 1629 Pls
1871 1591 Pls
1883 1599 Pls
1895 1969 Pls
1907 1652 Pls
1918 1617 Pls
1930 1661 Pls
1942 1578 Pls
1953 1579 Pls
1965 1594 Pls
1977 1605 Pls
1989 1589 Pls
2000 1579 Pls
2012 1607 Pls
2024 1756 Pls
2035 1613 Pls
2047 1605 Pls
2059 1998 Pls
2071 1660 Pls
2082 1609 Pls
2094 1621 Pls
2106 1616 Pls
2117 1609 Pls
2129 1598 Pls
2141 1597 Pls
2153 1610 Pls
2164 1607 Pls
2176 1579 Pls
2188 1605 Pls
2199 1601 Pls
2211 1603 Pls
2223 1977 Pls
2235 1670 Pls
2246 1637 Pls
2258 1613 Pls
2270 1605 Pls
2281 1607 Pls
2293 1590 Pls
2305 1602 Pls
2317 1618 Pls
2328 1602 Pls
2340 1618 Pls
2352 1613 Pls
2363 1667 Pls
2375 1609 Pls
2387 1607 Pls
2399 1708 Pls
2410 1628 Pls
2422 1614 Pls
2434 1629 Pls
2445 1618 Pls
2457 1603 Pls
2469 1607 Pls
2481 1621 Pls
2492 1616 Pls
2504 1600 Pls
2516 1608 Pls
2527 1598 Pls
2539 1606 Pls
2551 1650 Pls
2563 2023 Pls
2574 1628 Pls
2586 1622 Pls
2598 1608 Pls
2609 1599 Pls
2621 1599 Pls
2633 1605 Pls
2645 1599 Pls
2656 1595 Pls
2668 1599 Pls
2680 1676 Pls
2691 1590 Pls
2703 1613 Pls
2715 1600 Pls
2727 2025 Pls
2738 1639 Pls
2750 1628 Pls
2762 1612 Pls
2773 1590 Pls
2785 1608 Pls
2797 1588 Pls
2809 1593 Pls
2820 1603 Pls
2832 1602 Pls
2844 1611 Pls
2855 1592 Pls
2867 1590 Pls
2879 1613 Pls
2902 2722 Pls
2914 1786 Pls
2926 1722 Pls
2937 1690 Pls
2949 1650 Pls
2961 1643 Pls
2973 1643 Pls
2984 1638 Pls
2996 1660 Pls
3008 2261 Pls
3019 1803 Pls
3031 1651 Pls
3043 1633 Pls
3055 1699 Pls
3066 1681 Pls
3078 1684 Pls
3090 1672 Pls
3101 1622 Pls
3113 1603 Pls
3125 1593 Pls
3137 1602 Pls
3148 1603 Pls
3160 1608 Pls
3172 2076 Pls
3183 1773 Pls
3195 1649 Pls
3207 1621 Pls
3219 1584 Pls
3230 1591 Pls
3242 1606 Pls
3254 1604 Pls
3265 1607 Pls
3277 1594 Pls
3289 1602 Pls
3301 1593 Pls
3312 1597 Pls
3324 1583 Pls
3336 1595 Pls
3347 2058 Pls
3359 1632 Pls
3371 1638 Pls
3383 1611 Pls
3394 1600 Pls
3406 1612 Pls
3418 1590 Pls
3429 1605 Pls
3441 1606 Pls
3453 1628 Pls
3465 1602 Pls
3476 1608 Pls
3488 1597 Pls
3500 1595 Pls
3511 2044 Pls
3523 1798 Pls
3535 1637 Pls
3547 1592 Pls
3558 1590 Pls
3570 1603 Pls
3582 1613 Pls
3593 1606 Pls
3605 1603 Pls
3617 1586 Pls
3629 1611 Pls
3640 1599 Pls
3652 1605 Pls
3664 1588 Pls
3675 2067 Pls
3687 1632 Pls
3699 1632 Pls
3711 1600 Pls
3722 1614 Pls
3734 1594 Pls
3746 1603 Pls
3757 1597 Pls
3769 1594 Pls
3781 1605 Pls
3793 1605 Pls
3804 1600 Pls
3816 1589 Pls
3828 1582 Pls
3839 1999 Pls
3851 1661 Pls
3863 1607 Pls
3875 1583 Pls
3886 1595 Pls
3898 1576 Pls
3910 1603 Pls
3921 1710 Pls
3933 1597 Pls
3945 1584 Pls
3956 1595 Pls
3968 1598 Pls
3980 1592 Pls
3992 1596 Pls
4003 2075 Pls
4015 1700 Pls
4027 1635 Pls
4038 1626 Pls
4050 1597 Pls
4062 1585 Pls
4074 1598 Pls
4085 1595 Pls
4097 1588 Pls
4109 1617 Pls
4120 1644 Pls
4132 1590 Pls
4144 1593 Pls
4156 1602 Pls
4167 1949 Pls
4179 1722 Pls
4191 1630 Pls
4202 1606 Pls
4214 1591 Pls
4226 1600 Pls
4238 1602 Pls
4249 1586 Pls
4261 1593 Pls
4273 1606 Pls
4284 1604 Pls
4296 1593 Pls
4308 1624 Pls
4320 1596 Pls
4331 1601 Pls
4355 1882 Pls
4366 1694 Pls
4378 1673 Pls
4390 1641 Pls
4402 1660 Pls
4413 1645 Pls
4425 2242 Pls
4448 1727 Pls
4460 1697 Pls
4472 1620 Pls
4484 1621 Pls
4495 1636 Pls
4507 1613 Pls
4519 1599 Pls
4530 1599 Pls
4542 1646 Pls
4554 1623 Pls
4577 1808 Pls
4589 1675 Pls
4601 1621 Pls
4612 1636 Pls
4624 1610 Pls
4636 1619 Pls
4648 1602 Pls
4659 1606 Pls
4671 1621 Pls
4683 1614 Pls
4694 1970 Pls
4718 1637 Pls
4730 1626 Pls
4741 1609 Pls
4753 1617 Pls
4765 1602 Pls
4776 1610 Pls
4788 1600 Pls
4800 1622 Pls
4812 1592 Pls
4823 1588 Pls
4847 1718 Pls
4858 1603 Pls
4870 1621 Pls
4882 1592 Pls
4894 1591 Pls
4905 1594 Pls
4917 1601 Pls
4929 1619 Pls
4940 1587 Pls
4952 1601 Pls
4964 1619 Pls
4987 1624 Pls
4999 1599 Pls
5011 1591 Pls
5022 1706 Pls
5034 1623 Pls
5046 1599 Pls
5058 1590 Pls
5069 1597 Pls
5081 1601 Pls
5093 1607 Pls
5116 1727 Pls
5128 1613 Pls
5140 1696 Pls
5151 1599 Pls
5163 1618 Pls
5175 1593 Pls
5186 1612 Pls
5198 1590 Pls
5210 1592 Pls
5222 1588 Pls
5233 1596 Pls
5257 1703 Pls
5268 1609 Pls
5280 1600 Pls
5292 1610 Pls
5304 1599 Pls
5315 1605 Pls
5327 1632 Pls
5339 1606 Pls
5350 1600 Pls
5362 1583 Pls
5374 1945 Pls
5397 1628 Pls
5409 1598 Pls
5421 1621 Pls
5432 1584 Pls
5444 1587 Pls
5456 1592 Pls
5468 1589 Pls
5479 1602 Pls
5491 1614 Pls
5503 1587 Pls
5526 1952 Pls
5538 1674 Pls
5550 1737 Pls
5561 1629 Pls
5573 1637 Pls
5585 1672 Pls
5596 1653 Pls
5608 1678 Pls
5620 1618 Pls
5632 1654 Pls
5643 1597 Pls
5655 1582 Pls
5667 2044 Pls
5678 1730 Pls
5690 1635 Pls
5702 1609 Pls
5714 1594 Pls
5725 1615 Pls
5737 1567 Pls
5749 1599 Pls
5760 1592 Pls
5772 1578 Pls
5784 1589 Pls
5796 1571 Pls
5807 1594 Pls
5819 1599 Pls
5831 1589 Pls
5842 2085 Pls
5854 1621 Pls
5866 1606 Pls
5878 1578 Pls
5889 1577 Pls
5901 1612 Pls
5913 1576 Pls
5924 1569 Pls
5936 1599 Pls
5948 1577 Pls
5960 1581 Pls
5971 1583 Pls
5983 1584 Pls
5995 1655 Pls
6006 2016 Pls
6018 1621 Pls
6030 1619 Pls
6042 1604 Pls
6053 1588 Pls
6065 1599 Pls
6077 1579 Pls
6088 1582 Pls
6100 1573 Pls
6112 1581 Pls
6124 1578 Pls
6135 1582 Pls
6147 1590 Pls
6159 1586 Pls
6170 1992 Pls
6182 1655 Pls
6194 1623 Pls
6206 1594 Pls
6217 1637 Pls
6229 1591 Pls
6241 1607 Pls
6252 1601 Pls
6264 1580 Pls
6276 1583 Pls
6288 1588 Pls
6299 1583 Pls
6311 1597 Pls
6323 1570 Pls
6334 1934 Pls
6346 1680 Pls
6358 1619 Pls
6370 1617 Pls
6381 1603 Pls
6393 1588 Pls
6405 1592 Pls
6416 1629 Pls
6428 1617 Pls
6440 1591 Pls
6452 1577 Pls
6463 1593 Pls
6475 1693 Pls
6487 1571 Pls
6498 1626 Pls
6510 2008 Pls
6522 1607 Pls
6534 1620 Pls
6545 1594 Pls
6557 1591 Pls
6569 1588 Pls
6580 1610 Pls
6592 1598 Pls
6604 1593 Pls
6616 1590 Pls
6627 1590 Pls
6639 1585 Pls
6651 1597 Pls
6662 1601 Pls
6674 2021 Pls
6686 1656 Pls
6698 1640 Pls
6709 1620 Pls
6721 1593 Pls
6733 1615 Pls
6744 1591 Pls
6756 1591 Pls
6768 1585 Pls
6780 1592 Pls
6791 1595 Pls
LTw
% End plot #1
% Begin plot #2
1.000 UP
1.000 UL
LTb
LCb setrgbcolor
[] 0 setdash
0.00 0.62 0.45 C
946 4590 Crs
958 2024 Crs
969 1866 Crs
981 1802 Crs
993 1790 Crs
1005 1759 Crs
1016 1749 Crs
1028 4192 Crs
1040 3467 Crs
1051 3673 Crs
1063 1786 Crs
1075 1759 Crs
1087 1708 Crs
1098 1705 Crs
1110 1710 Crs
1122 1707 Crs
1133 1686 Crs
1145 1693 Crs
1157 1696 Crs
1169 1713 Crs
1180 3839 Crs
1192 3620 Crs
1204 1719 Crs
1215 1722 Crs
1227 1708 Crs
1239 1688 Crs
1251 1716 Crs
1262 1691 Crs
1274 1693 Crs
1286 1696 Crs
1297 1711 Crs
1309 1704 Crs
1321 1700 Crs
1333 4068 Crs
1344 3111 Crs
1356 1712 Crs
1368 1712 Crs
1379 1721 Crs
1391 1671 Crs
1403 1696 Crs
1415 1682 Crs
1426 1697 Crs
1438 1694 Crs
1450 1695 Crs
1461 1697 Crs
1473 1687 Crs
1485 4052 Crs
1497 3134 Crs
1508 1697 Crs
1520 1721 Crs
1532 1692 Crs
1543 1664 Crs
1555 1683 Crs
1567 1685 Crs
1579 1703 Crs
1590 1698 Crs
1602 1675 Crs
1614 1681 Crs
1625 1714 Crs
1637 3803 Crs
1649 3140 Crs
1661 1733 Crs
1672 1706 Crs
1684 1690 Crs
1696 1691 Crs
1707 1682 Crs
1719 1690 Crs
1731 1693 Crs
1743 1687 Crs
1754 1708 Crs
1766 1690 Crs
1778 1686 Crs
1789 3758 Crs
1801 3362 Crs
1813 1704 Crs
1825 1683 Crs
1836 1711 Crs
1848 1674 Crs
1860 1709 Crs
1871 1703 Crs
1883 1671 Crs
1895 1684 Crs
1907 1682 Crs
1918 1715 Crs
1930 1959 Crs
1942 4040 Crs
1953 2919 Crs
1965 1702 Crs
1977 1707 Crs
1989 1696 Crs
2000 1662 Crs
2012 1699 Crs
2024 1797 Crs
2035 1709 Crs
2047 1665 Crs
2059 1695 Crs
2071 1687 Crs
2082 2628 Crs
2094 4021 Crs
2106 2394 Crs
2117 1709 Crs
2129 1706 Crs
2141 1672 Crs
2153 1685 Crs
2164 1682 Crs
2176 1691 Crs
2188 1683 Crs
2199 1690 Crs
2211 1685 Crs
2223 1687 Crs
2235 2881 Crs
2246 3767 Crs
2258 1983 Crs
2270 1715 Crs
2281 1690 Crs
2293 1699 Crs
2305 1699 Crs
2317 1709 Crs
2328 1702 Crs
2340 1693 Crs
2352 1687 Crs
2363 1711 Crs
2375 1691 Crs
2387 2823 Crs
2399 3766 Crs
2410 1988 Crs
2422 1712 Crs
2434 1701 Crs
2445 1686 Crs
2457 1714 Crs
2469 1707 Crs
2481 1683 Crs
2492 1704 Crs
2504 1696 Crs
2516 1675 Crs
2527 1709 Crs
2539 4367 Crs
2551 3165 Crs
2563 2872 Crs
2574 1803 Crs
2586 1675 Crs
2598 1715 Crs
2609 1686 Crs
2621 1695 Crs
2633 1685 Crs
2645 1691 Crs
2656 1699 Crs
2668 1691 Crs
2680 1697 Crs
2691 3795 Crs
2703 3580 Crs
2715 1683 Crs
2727 1663 Crs
2738 1682 Crs
2750 1657 Crs
2762 1671 Crs
2773 1668 Crs
2785 1661 Crs
2797 1660 Crs
2809 1669 Crs
2820 1667 Crs
2832 1736 Crs
2844 3751 Crs
2855 3502 Crs
2867 1722 Crs
2879 1684 Crs
2891 1683 Crs
2902 1674 Crs
2914 1738 Crs
2926 1670 Crs
2937 1660 Crs
2949 1672 Crs
2961 1666 Crs
2973 1685 Crs
2984 1681 Crs
2996 3766 Crs
3008 3537 Crs
3019 1691 Crs
3031 1668 Crs
3043 1662 Crs
3055 1681 Crs
3066 1668 Crs
3078 1710 Crs
3090 1669 Crs
3101 1674 Crs
3113 1691 Crs
3125 1675 Crs
3137 1698 Crs
3148 3531 Crs
3160 3585 Crs
3172 1684 Crs
3183 1686 Crs
3195 1662 Crs
3207 1676 Crs
3219 1680 Crs
3230 1660 Crs
3242 1664 Crs
3254 1652 Crs
3265 1662 Crs
3277 1668 Crs
3289 1686 Crs
3301 3497 Crs
3312 3731 Crs
3324 1693 Crs
3336 1671 Crs
3347 1703 Crs
3359 1679 Crs
3371 1641 Crs
3383 1658 Crs
3394 1685 Crs
3406 1670 Crs
3418 1674 Crs
3429 1673 Crs
3441 1671 Crs
3453 3312 Crs
3465 3759 Crs
3476 1698 Crs
3488 1695 Crs
3500 1683 Crs
3511 1682 Crs
3523 1763 Crs
3535 1654 Crs
3547 1663 Crs
3558 1688 Crs
3570 1655 Crs
3582 1668 Crs
3593 1733 Crs
3605 3745 Crs
3617 3534 Crs
3629 1703 Crs
3640 1679 Crs
3652 1691 Crs
3664 1669 Crs
3675 1663 Crs
3687 1673 Crs
3699 1671 Crs
3711 1658 Crs
3722 1660 Crs
3734 1677 Crs
3746 1675 Crs
3757 3763 Crs
3769 3547 Crs
3781 1721 Crs
3793 1794 Crs
3804 1675 Crs
3816 1674 Crs
3828 1661 Crs
3839 1687 Crs
3851 1780 Crs
3863 1669 Crs
3875 1668 Crs
3886 1691 Crs
3898 1665 Crs
3910 3734 Crs
3921 3554 Crs
3933 1685 Crs
3945 1669 Crs
3956 1678 Crs
3968 1656 Crs
3980 1678 Crs
3992 1636 Crs
4003 1680 Crs
4015 1674 Crs
4027 1675 Crs
4038 1682 Crs
4050 2399 Crs
4062 3184 Crs
4074 3861 Crs
4085 2974 Crs
4097 2314 Crs
4109 2524 Crs
4120 2279 Crs
4132 2235 Crs
4144 2029 Crs
4156 1775 Crs
4167 1681 Crs
4179 2220 Crs
4191 3210 Crs
4202 4143 Crs
4214 2886 Crs
4226 2226 Crs
4238 1980 Crs
4249 1658 Crs
4261 1672 Crs
4273 1662 Crs
4284 1679 Crs
4296 1666 Crs
4308 1676 Crs
4320 1657 Crs
4331 1663 Crs
4343 3311 Crs
4355 3992 Crs
4366 1717 Crs
4378 1755 Crs
4390 1670 Crs
4402 1684 Crs
4413 1659 Crs
4425 1663 Crs
4437 1678 Crs
4448 1670 Crs
4460 1685 Crs
4472 1669 Crs
4484 1650 Crs
4495 3311 Crs
4507 3785 Crs
4519 1729 Crs
4530 1657 Crs
4542 1700 Crs
4554 1681 Crs
4566 1691 Crs
4577 1679 Crs
4589 1684 Crs
4601 1658 Crs
4612 1655 Crs
4624 1661 Crs
4636 1663 Crs
4648 3087 Crs
4659 3740 Crs
4671 1959 Crs
4683 1692 Crs
4694 1654 Crs
4706 1672 Crs
4718 1663 Crs
4730 1680 Crs
4741 1664 Crs
4753 1652 Crs
4765 1687 Crs
4776 1748 Crs
4788 1694 Crs
4800 2855 Crs
4812 4038 Crs
4823 1968 Crs
4835 1670 Crs
4847 1672 Crs
4858 1670 Crs
4870 1686 Crs
4882 1670 Crs
4894 1655 Crs
4905 1664 Crs
4917 1665 Crs
4929 1673 Crs
4940 1682 Crs
4952 2849 Crs
4964 3726 Crs
4976 1970 Crs
4987 1663 Crs
4999 1675 Crs
5011 1681 Crs
5022 1768 Crs
5034 1695 Crs
5046 1667 Crs
5058 1664 Crs
5069 1672 Crs
5081 1678 Crs
5093 1702 Crs
5104 3592 Crs
5116 3787 Crs
5128 1709 Crs
5140 1668 Crs
5151 1668 Crs
5163 1674 Crs
5175 1664 Crs
5186 1673 Crs
5198 1637 Crs
5210 1669 Crs
5222 1680 Crs
5233 1677 Crs
5245 1678 Crs
5257 3320 Crs
5268 3753 Crs
5280 1734 Crs
5292 1698 Crs
5304 1672 Crs
5315 1754 Crs
5327 1668 Crs
5339 1685 Crs
5350 1664 Crs
5362 1679 Crs
5374 1667 Crs
5386 1677 Crs
5397 1677 Crs
5409 3370 Crs
5421 4012 Crs
5432 1727 Crs
5444 1680 Crs
5456 1664 Crs
5468 1666 Crs
5479 1671 Crs
5491 1642 Crs
5503 1701 Crs
5514 1658 Crs
5526 1661 Crs
5538 1662 Crs
5550 2417 Crs
5561 2920 Crs
5573 3357 Crs
5585 3472 Crs
5596 1731 Crs
5608 1673 Crs
5620 1691 Crs
5632 1678 Crs
5643 1675 Crs
5655 1694 Crs
5667 1689 Crs
5678 1666 Crs
5690 1665 Crs
5702 1675 Crs
5714 4013 Crs
5725 3353 Crs
5737 1761 Crs
5749 1668 Crs
5760 1670 Crs
5772 1678 Crs
5784 1657 Crs
5796 1702 Crs
5807 1661 Crs
5819 1691 Crs
5831 1649 Crs
5842 1659 Crs
5854 1661 Crs
5866 3799 Crs
5878 3308 Crs
5889 1692 Crs
5901 1686 Crs
5913 1660 Crs
5924 1683 Crs
5936 1715 Crs
5948 1676 Crs
5960 1683 Crs
5971 1687 Crs
5983 1671 Crs
5995 1690 Crs
6006 1689 Crs
6018 3791 Crs
6030 3316 Crs
6042 1799 Crs
6053 1668 Crs
6065 1672 Crs
6077 1668 Crs
6088 1670 Crs
6100 1659 Crs
6112 1676 Crs
6124 1681 Crs
6135 1676 Crs
6147 1655 Crs
6159 1682 Crs
6170 3765 Crs
6182 3494 Crs
6194 1690 Crs
6206 1674 Crs
6217 1667 Crs
6229 1671 Crs
6241 1661 Crs
6252 1677 Crs
6264 1657 Crs
6276 1705 Crs
6288 1644 Crs
6299 1668 Crs
6311 1666 Crs
6323 3710 Crs
6334 3527 Crs
6346 1704 Crs
6358 1682 Crs
6370 1685 Crs
6381 1654 Crs
6393 1659 Crs
6405 1657 Crs
6416 1651 Crs
6428 1682 Crs
6440 1683 Crs
6452 1650 Crs
6463 1683 Crs
6475 3468 Crs
6487 3734 Crs
6498 1716 Crs
6510 1659 Crs
6522 1669 Crs
6534 1695 Crs
6545 1693 Crs
6557 1664 Crs
6569 1648 Crs
6580 1675 Crs
6592 1661 Crs
6604 1671 Crs
6616 1654 Crs
6627 3309 Crs
6639 3757 Crs
6651 1710 Crs
6662 1658 Crs
6674 1651 Crs
6686 1673 Crs
6698 1680 Crs
6709 1654 Crs
6721 1680 Crs
6733 1655 Crs
6744 1672 Crs
6756 1686 Crs
6768 1697 Crs
6780 3089 Crs
6791 3696 Crs
LTw
% End plot #2
% Begin plot #3
1.000 UP
1.000 UL
LTb
LCb setrgbcolor
[] 0 setdash
0.34 0.71 0.91 C
958 2109 Star
969 1987 Star
981 2025 Star
993 1874 Star
1005 1847 Star
1016 1815 Star
1028 2210 Star
1040 1857 Star
1051 1773 Star
1063 1743 Star
1075 1846 Star
1087 1806 Star
1098 1771 Star
1110 1815 Star
1122 1746 Star
1133 1829 Star
1145 1763 Star
1157 1768 Star
1169 3728 Star
1180 2172 Star
1192 2157 Star
1204 1755 Star
1215 1735 Star
1227 1795 Star
1239 1768 Star
1251 1766 Star
1262 1800 Star
1274 1810 Star
1286 1859 Star
1297 1825 Star
1309 1798 Star
1321 1778 Star
1333 1772 Star
1344 1820 Star
1356 1791 Star
1368 1767 Star
1379 1744 Star
1391 1819 Star
1403 1809 Star
1415 1808 Star
1426 1784 Star
1438 1820 Star
1450 1771 Star
1461 1780 Star
1473 1729 Star
1485 1709 Star
1497 1721 Star
1508 1770 Star
1520 1752 Star
1532 1737 Star
1543 1742 Star
1555 1702 Star
1567 1706 Star
1579 1712 Star
1590 1766 Star
1602 1731 Star
1614 1717 Star
1625 1725 Star
1637 1720 Star
1649 1729 Star
1661 1722 Star
1672 1752 Star
1684 1737 Star
1696 1731 Star
1707 1745 Star
1719 1724 Star
1731 1703 Star
1743 1730 Star
1754 1724 Star
1766 1723 Star
1778 1733 Star
1789 1708 Star
1801 1735 Star
1813 1714 Star
1825 1702 Star
1836 1729 Star
1848 1727 Star
1860 1728 Star
1871 1738 Star
1883 1715 Star
1895 1709 Star
1907 1788 Star
1918 1695 Star
1930 1731 Star
1942 1734 Star
1953 1697 Star
1965 1707 Star
1977 1727 Star
1989 1719 Star
2000 1722 Star
2012 1756 Star
2024 1840 Star
2035 1730 Star
2047 1690 Star
2059 1717 Star
2071 1767 Star
2082 1710 Star
2094 1711 Star
2106 1721 Star
2117 1728 Star
2129 1715 Star
2141 1714 Star
2153 1726 Star
2164 1724 Star
2176 1749 Star
2188 1715 Star
2199 1698 Star
2211 1692 Star
2223 1712 Star
2235 1693 Star
2246 1721 Star
2258 1742 Star
2270 1688 Star
2281 1734 Star
2293 1725 Star
2305 1714 Star
2317 3335 Star
2328 1882 Star
2340 1764 Star
2352 1756 Star
2363 1787 Star
2375 1725 Star
2387 1723 Star
2399 1725 Star
2410 1716 Star
2422 1727 Star
2434 1687 Star
2445 1738 Star
2457 1702 Star
2469 1739 Star
2481 1734 Star
2492 1785 Star
2504 1775 Star
2516 1762 Star
2527 1748 Star
2539 1724 Star
2551 1722 Star
2563 1701 Star
2574 1746 Star
2586 1713 Star
2598 1722 Star
2609 1718 Star
2621 1725 Star
2633 1729 Star
2645 1744 Star
2656 1776 Star
2668 1746 Star
2680 1724 Star
2691 1691 Star
2703 1697 Star
2715 1714 Star
2727 1693 Star
2738 1721 Star
2750 1730 Star
2762 1724 Star
2773 1717 Star
2785 1737 Star
2797 1732 Star
2809 1748 Star
2820 1730 Star
2832 1745 Star
2844 1750 Star
2855 1745 Star
2867 1727 Star
2879 1708 Star
2891 1719 Star
2902 1739 Star
2914 1695 Star
2926 1718 Star
2937 1691 Star
2949 1714 Star
2961 1736 Star
2973 1728 Star
2984 1766 Star
2996 1725 Star
3008 1698 Star
3019 1725 Star
3031 1717 Star
3043 1706 Star
3055 1727 Star
3066 1704 Star
3078 1732 Star
3090 1712 Star
3101 1721 Star
3113 1729 Star
3125 1745 Star
3137 1752 Star
3148 1769 Star
3160 1729 Star
3172 1716 Star
3183 1716 Star
3195 1717 Star
3207 1710 Star
3219 1721 Star
3230 1729 Star
3242 1707 Star
3254 1711 Star
3265 1705 Star
3277 1714 Star
3289 1708 Star
3301 1755 Star
3312 1776 Star
3324 1725 Star
3336 1685 Star
3347 1681 Star
3359 1713 Star
3371 1714 Star
3383 1716 Star
3394 1688 Star
3406 1733 Star
3418 1724 Star
3429 1753 Star
3441 1710 Star
3453 1744 Star
3465 1743 Star
3476 1765 Star
3488 1714 Star
3500 1701 Star
3511 1764 Star
3523 1998 Star
3535 1717 Star
3547 1720 Star
3558 1722 Star
3570 1712 Star
3582 1709 Star
3593 1717 Star
3605 1739 Star
3617 1761 Star
3629 1755 Star
3640 1741 Star
3652 1736 Star
3664 1710 Star
3675 1694 Star
3687 1727 Star
3699 1712 Star
3711 1698 Star
3722 1696 Star
3734 1732 Star
3746 1701 Star
3757 1819 Star
3769 1744 Star
3781 1747 Star
3793 1739 Star
3804 1938 Star
3816 1725 Star
3828 1717 Star
3839 1729 Star
3851 1693 Star
3863 1720 Star
3875 1698 Star
3886 1715 Star
3898 1700 Star
3910 1726 Star
3921 1696 Star
3945 1845 Star
3956 1770 Star
3968 1760 Star
3980 1711 Star
3992 1725 Star
4003 1729 Star
4015 1705 Star
4027 1721 Star
4038 1696 Star
4050 1714 Star
4062 1718 Star
4074 1693 Star
4085 1725 Star
4097 1760 Star
4109 1748 Star
4120 1782 Star
4132 1731 Star
4144 1727 Star
4156 1708 Star
4167 1723 Star
4179 1715 Star
4191 1696 Star
4202 1719 Star
4214 1723 Star
4226 1723 Star
4238 1778 Star
4249 1731 Star
4261 1741 Star
4273 1728 Star
4284 1731 Star
4296 1728 Star
4308 1702 Star
4320 1722 Star
4331 1726 Star
4343 1734 Star
4355 1719 Star
4366 1694 Star
4378 1714 Star
4390 1726 Star
4402 1714 Star
4413 1710 Star
4425 1737 Star
4437 1744 Star
4448 1743 Star
4460 1706 Star
4472 1728 Star
4484 1692 Star
4495 1704 Star
4507 1716 Star
4519 1724 Star
4530 1724 Star
4542 1707 Star
4554 1695 Star
4566 1698 Star
4577 1712 Star
4589 1781 Star
4601 1710 Star
4612 1757 Star
4624 1699 Star
4636 1701 Star
4648 1716 Star
4659 1718 Star
4671 1705 Star
4683 1705 Star
4694 1708 Star
4706 1697 Star
4718 1717 Star
4730 1697 Star
4741 1685 Star
4753 1731 Star
4765 1776 Star
4776 1724 Star
4788 1721 Star
4800 1684 Star
4812 1719 Star
4823 1712 Star
4835 1703 Star
4847 1720 Star
4858 1693 Star
4870 1706 Star
4882 1690 Star
4894 1710 Star
4905 1737 Star
4917 1749 Star
4929 1740 Star
4940 1735 Star
4952 1732 Star
4964 1716 Star
4976 1702 Star
4987 1711 Star
4999 1729 Star
5011 1714 Star
5022 1781 Star
5034 1704 Star
5046 1732 Star
5058 1711 Star
5069 1724 Star
5081 1748 Star
5093 1755 Star
5104 1714 Star
5116 1705 Star
5128 1701 Star
5140 1704 Star
5151 1683 Star
5163 1708 Star
5175 1698 Star
5186 1703 Star
5198 1713 Star
5210 1699 Star
5222 1727 Star
5233 1742 Star
5245 1747 Star
5257 1725 Star
5268 1687 Star
5280 1691 Star
5292 1721 Star
5304 1722 Star
5315 1783 Star
5327 1714 Star
5339 1731 Star
5350 1719 Star
5362 1723 Star
5374 1687 Star
5386 1722 Star
5397 1743 Star
5409 1744 Star
5421 1758 Star
5432 1714 Star
5444 1703 Star
5456 1695 Star
5468 1712 Star
5479 1704 Star
5491 1730 Star
5503 1704 Star
5514 1713 Star
5526 1731 Star
5538 1692 Star
5550 2476 Star
5561 1860 Star
5573 1713 Star
5585 1749 Star
5596 1720 Star
5608 1730 Star
5620 1747 Star
5632 1712 Star
5643 1716 Star
5655 1696 Star
5667 1717 Star
5678 1722 Star
5690 1708 Star
5702 1717 Star
5714 1730 Star
5725 1731 Star
5737 1769 Star
5749 1719 Star
5760 1734 Star
5772 1703 Star
5784 1733 Star
5796 1709 Star
5807 1710 Star
5819 1789 Star
5831 1731 Star
5842 1851 Star
5854 1718 Star
5866 1736 Star
5878 1741 Star
5889 1743 Star
5901 1784 Star
5913 1733 Star
5924 1702 Star
5936 1717 Star
5948 1718 Star
5960 1716 Star
5971 1712 Star
5983 1698 Star
5995 1708 Star
6006 1725 Star
6018 1704 Star
6030 1687 Star
6042 1740 Star
6053 1751 Star
6065 1769 Star
6077 1768 Star
6088 1710 Star
6100 1688 Star
6112 1704 Star
6124 1727 Star
6135 1788 Star
6147 1713 Star
6159 1710 Star
6170 1746 Star
6182 1718 Star
6194 1718 Star
6206 1715 Star
6217 1727 Star
6229 1749 Star
6241 1693 Star
6252 1725 Star
6264 1702 Star
6276 1724 Star
6288 1718 Star
6299 1710 Star
6311 1712 Star
6323 1717 Star
6334 1703 Star
6346 1720 Star
6358 1692 Star
6370 1739 Star
6381 1747 Star
6393 1740 Star
6405 1726 Star
6416 1700 Star
6428 1697 Star
6440 1722 Star
6452 1701 Star
6463 1712 Star
6475 1717 Star
6487 1719 Star
6498 1701 Star
6510 1734 Star
6522 1702 Star
6534 1749 Star
6545 1731 Star
6557 1765 Star
6569 1798 Star
6580 1700 Star
6592 1709 Star
6604 1718 Star
6616 1705 Star
6627 1723 Star
6639 1715 Star
6651 1726 Star
6662 1681 Star
6674 1701 Star
6686 1687 Star
6698 1748 Star
6709 1718 Star
6721 1740 Star
6733 1740 Star
6744 1711 Star
6756 1719 Star
6768 1718 Star
6780 1705 Star
6791 1714 Star
LTw
% End plot #3
% Begin plot #4
1.000 UP
1.000 UL
LTb
LCb setrgbcolor
[] 0 setdash
0.90 0.62 0.00 C
958 2559 Box
969 2353 Box
981 3466 Box
993 2388 Box
1005 2879 Box
1016 2193 Box
1028 2526 Box
1040 1985 Box
1051 1848 Box
1063 1856 Box
1075 1857 Box
1087 1844 Box
1098 2703 Box
1110 2489 Box
1122 1920 Box
1133 1930 Box
1145 1865 Box
1157 1931 Box
1169 1895 Box
1180 1889 Box
1192 1900 Box
1204 1870 Box
1215 2887 Box
1227 2336 Box
1239 1944 Box
1251 1924 Box
1262 1832 Box
1274 1800 Box
1286 1841 Box
1297 1810 Box
1309 1792 Box
1321 1784 Box
1333 2845 Box
1344 2432 Box
1356 1890 Box
1368 1980 Box
1379 1838 Box
1391 1834 Box
1403 1860 Box
1415 1817 Box
1426 1830 Box
1438 1834 Box
1450 3021 Box
1461 2086 Box
1473 1858 Box
1485 1820 Box
1497 1815 Box
1508 1841 Box
1520 1831 Box
1532 1808 Box
1543 1814 Box
1555 1779 Box
1567 2494 Box
1579 2136 Box
1590 1834 Box
1602 1783 Box
1614 1841 Box
1625 1877 Box
1637 1839 Box
1649 1808 Box
1661 1818 Box
1672 1866 Box
1684 2763 Box
1696 2154 Box
1707 1837 Box
1719 1800 Box
1731 1781 Box
1743 1809 Box
1754 1804 Box
1766 2233 Box
1778 1858 Box
1789 1807 Box
1801 2646 Box
1813 2459 Box
1825 1856 Box
1836 1835 Box
1848 1827 Box
1860 1952 Box
1871 1830 Box
1883 1894 Box
1895 1914 Box
1907 1880 Box
1918 2487 Box
1930 2213 Box
1942 1896 Box
1953 1868 Box
1965 1871 Box
1977 1859 Box
1989 1846 Box
2000 1835 Box
2012 1826 Box
2024 1953 Box
2035 2676 Box
2047 1917 Box
2059 1831 Box
2071 1826 Box
2082 1830 Box
2094 1814 Box
2106 1822 Box
2117 1792 Box
2129 1793 Box
2141 1799 Box
2153 1971 Box
2164 1833 Box
2176 1812 Box
2188 1808 Box
2199 1804 Box
2211 1778 Box
2223 1815 Box
2235 1804 Box
2246 1786 Box
2258 1799 Box
2270 2397 Box
2281 2433 Box
2293 1968 Box
2305 1921 Box
2317 1792 Box
2328 1764 Box
2340 1763 Box
2352 1763 Box
2363 1769 Box
2375 1795 Box
2387 2476 Box
2399 2187 Box
2410 1797 Box
2422 1780 Box
2434 1795 Box
2445 1805 Box
2457 1773 Box
2469 1802 Box
2481 1825 Box
2492 1811 Box
2504 1940 Box
2516 1804 Box
2527 1780 Box
2539 1801 Box
2551 1803 Box
2563 1818 Box
2574 1796 Box
2586 1779 Box
2598 1776 Box
2609 1802 Box
2621 2228 Box
2633 2320 Box
2645 1870 Box
2656 1810 Box
2668 1793 Box
2680 1787 Box
2691 1782 Box
2703 1791 Box
2715 1790 Box
2727 1796 Box
2738 2471 Box
2750 2659 Box
2762 1847 Box
2773 1777 Box
2785 1771 Box
2797 1782 Box
2809 1768 Box
2820 1736 Box
2832 1780 Box
2844 1764 Box
2855 2355 Box
2867 2185 Box
2879 1762 Box
2891 1771 Box
2902 1763 Box
2914 1770 Box
2926 1748 Box
2937 1754 Box
2949 1763 Box
2961 1765 Box
2973 2224 Box
2984 1929 Box
2996 1765 Box
3008 1777 Box
3019 1785 Box
3031 1761 Box
3043 1750 Box
3055 1807 Box
3066 1775 Box
3078 1779 Box
3090 2358 Box
3101 2122 Box
3113 1785 Box
3125 1765 Box
3137 1773 Box
3148 1761 Box
3160 1777 Box
3172 1761 Box
3183 1757 Box
3195 1777 Box
3207 1996 Box
3219 1808 Box
3230 1785 Box
3242 1779 Box
3254 1791 Box
3265 1784 Box
3277 1774 Box
3289 1785 Box
3301 1783 Box
3312 1769 Box
3324 2326 Box
3336 2315 Box
3347 1834 Box
3359 1801 Box
3371 1749 Box
3383 1759 Box
3394 1765 Box
3406 1762 Box
3418 1761 Box
3429 1747 Box
3441 2266 Box
3453 2190 Box
3465 1780 Box
3476 1732 Box
3488 1757 Box
3500 1765 Box
3511 1754 Box
3523 1792 Box
3535 1774 Box
3547 1782 Box
3558 2474 Box
3570 2089 Box
3582 1781 Box
3593 1744 Box
3605 1764 Box
3617 1760 Box
3629 1772 Box
3640 1773 Box
3652 1768 Box
3664 1741 Box
3675 2345 Box
3687 2123 Box
3699 1780 Box
3711 1761 Box
3722 1758 Box
3734 1759 Box
3746 1794 Box
3757 1763 Box
3769 1737 Box
3781 1774 Box
3793 2331 Box
3804 2252 Box
3816 1770 Box
3828 1738 Box
3839 1751 Box
3851 1775 Box
3863 1745 Box
3875 1747 Box
3886 1754 Box
3898 1770 Box
3910 2213 Box
3921 2050 Box
3933 1759 Box
3945 1746 Box
3956 1758 Box
3968 1771 Box
3980 1758 Box
3992 1753 Box
4003 1764 Box
4015 1767 Box
4027 2508 Box
4038 2062 Box
4050 1753 Box
4062 1767 Box
4074 1748 Box
4085 1765 Box
4097 1723 Box
4109 1766 Box
4120 1759 Box
4132 1772 Box
4144 2401 Box
4156 2280 Box
4167 1800 Box
4179 1786 Box
4191 1799 Box
4202 1770 Box
4214 1801 Box
4226 1769 Box
4238 1796 Box
4249 1791 Box
4261 2375 Box
4273 2178 Box
4284 1796 Box
4296 1789 Box
4308 1793 Box
4320 1781 Box
4331 1785 Box
4343 1824 Box
4355 1776 Box
4366 1782 Box
4378 2334 Box
4390 2219 Box
4402 1754 Box
4413 1753 Box
4425 1757 Box
4437 1732 Box
4448 1746 Box
4460 1739 Box
4472 1753 Box
4484 1761 Box
4495 1860 Box
4507 1771 Box
4519 1767 Box
4530 1738 Box
4542 1768 Box
4554 1799 Box
4566 1734 Box
4577 1756 Box
4589 1752 Box
4601 1735 Box
4612 2216 Box
4624 2160 Box
4636 1849 Box
4648 1751 Box
4659 1764 Box
4671 1761 Box
4683 1736 Box
4694 1730 Box
4706 1737 Box
4718 1736 Box
4730 1915 Box
4741 1742 Box
4753 1757 Box
4765 1741 Box
4776 1770 Box
4788 1753 Box
4800 1755 Box
4812 1757 Box
4823 1757 Box
4835 1756 Box
4847 2433 Box
4858 2405 Box
4870 1826 Box
4882 1794 Box
4894 1766 Box
4905 1740 Box
4917 1747 Box
4929 1763 Box
4940 1764 Box
4952 1757 Box
4964 1896 Box
4976 1757 Box
4987 1773 Box
4999 1750 Box
5011 1761 Box
5022 1802 Box
5034 1754 Box
5046 1755 Box
5058 1737 Box
5069 1763 Box
5081 2240 Box
5093 2281 Box
5104 1819 Box
5116 1747 Box
5128 1728 Box
5140 1739 Box
5151 1753 Box
5163 1748 Box
5175 1748 Box
5186 1750 Box
5198 1974 Box
5210 1749 Box
5222 1762 Box
5233 1736 Box
5245 1777 Box
5257 1739 Box
5268 1763 Box
5280 1762 Box
5292 1734 Box
5304 1735 Box
5315 2287 Box
5327 2315 Box
5339 1871 Box
5350 1773 Box
5362 1732 Box
5374 1749 Box
5386 1752 Box
5397 1726 Box
5409 1739 Box
5421 1756 Box
5432 1842 Box
5444 1740 Box
5456 1728 Box
5468 1746 Box
5479 1725 Box
5491 1725 Box
5503 1755 Box
5514 1727 Box
5526 1762 Box
5538 1737 Box
5550 2276 Box
5561 2472 Box
5573 1872 Box
5585 1744 Box
5596 1731 Box
5608 1738 Box
5620 1734 Box
5632 1740 Box
5643 1738 Box
5655 1725 Box
5667 2041 Box
5678 1772 Box
5690 1755 Box
5702 1767 Box
5714 1775 Box
5725 1763 Box
5737 1760 Box
5749 1772 Box
5760 1764 Box
5772 1754 Box
5784 2368 Box
5796 2307 Box
5807 1829 Box
5819 1799 Box
5831 1772 Box
5842 1766 Box
5854 1789 Box
5866 1785 Box
5878 1771 Box
5889 1784 Box
5901 1908 Box
5913 1768 Box
5924 1778 Box
5936 1778 Box
5948 1772 Box
5960 1801 Box
5971 1778 Box
5983 1813 Box
5995 1766 Box
6006 1768 Box
6018 2242 Box
6030 2439 Box
6042 1889 Box
6053 1829 Box
6065 1788 Box
6077 1766 Box
6088 1764 Box
6100 1776 Box
6112 1762 Box
6124 1763 Box
6135 1930 Box
6147 1801 Box
6159 1777 Box
6170 1766 Box
6182 1798 Box
6194 1775 Box
6206 1774 Box
6217 1776 Box
6229 1769 Box
6241 1771 Box
6252 2337 Box
6264 2379 Box
6276 1836 Box
6288 1791 Box
6299 1739 Box
6311 1755 Box
6323 1758 Box
6334 1762 Box
6346 1762 Box
6358 1765 Box
6370 2156 Box
6381 2136 Box
6393 1761 Box
6405 1743 Box
6416 1762 Box
6428 1756 Box
6440 1753 Box
6452 1754 Box
6463 1745 Box
6475 1772 Box
6487 2398 Box
6498 2102 Box
6510 1791 Box
6522 1765 Box
6534 1766 Box
6545 1750 Box
6557 1759 Box
6569 1749 Box
6580 1760 Box
6592 1756 Box
6604 2375 Box
6616 2197 Box
6627 1773 Box
6639 1769 Box
6651 1771 Box
6662 1766 Box
6674 1766 Box
6686 1750 Box
6698 1771 Box
6709 1766 Box
6721 2189 Box
6733 2147 Box
6744 1780 Box
6756 1738 Box
6768 1748 Box
6780 1799 Box
6791 1737 Box
LTw
% End plot #4
LCw setrgbcolor
1.000 4661 3711 2010 1045 BoxColFill
1.000 UL
LTb
LCb setrgbcolor
[] 0 setdash
4661 3711 N
0 1045 V
2010 0 V
0 -1045 V
-2010 0 V
Z stroke
% Begin plot #5
1.000 UP
1.000 UL
LTb
0.58 0.00 0.83 C
LCb setrgbcolor
1.000 UP
1.000 UL
LTb
0.58 0.00 0.83 C
6243 4563 Pls
LTw
% End plot #5
% Begin plot #6
1.000 UP
1.000 UL
LTb
LCb setrgbcolor
[] 0 setdash
0.00 0.62 0.45 C
LCb setrgbcolor
1.000 UP
1.000 UL
LTb
0.00 0.62 0.45 C
6243 4343 Crs
LTw
% End plot #6
% Begin plot #7
1.000 UP
1.000 UL
LTb
LCb setrgbcolor
[] 0 setdash
0.34 0.71 0.91 C
LCb setrgbcolor
1.000 UP
1.000 UL
LTb
0.34 0.71 0.91 C
6243 4123 Star
LTw
% End plot #7
% Begin plot #8
1.000 UP
1.000 UL
LTb
LCb setrgbcolor
[] 0 setdash
0.90 0.62 0.00 C
LCb setrgbcolor
1.000 UP
1.000 UL
LTb
0.90 0.62 0.00 C
6243 3903 Box
LTw
% End plot #8
2.000 UL
LTb
LCb setrgbcolor
[] 0 setdash
1.000 UL
LTb
946 4819 N
946 704 L
5857 0 V
0 4115 V
-5857 0 V
Z stroke
1.000 UP
1.000 UL
LTb
stroke
grestore
end
showpage
%%Trailer
