%!PS-Adobe-2.0 EPSF-2.0
%%Title: time_consumption_plot_0_kernel_user_netlink.tex
%%Creator: gnuplot 5.2 patchlevel 8
%%CreationDate: Tue Mar 16 17:25:41 2021
%%DocumentFonts: 
%%BoundingBox: 50 50 410 302
%%EndComments
%%BeginProlog
/gnudict 256 dict def
gnudict begin
%
% The following true/false flags may be edited by hand if desired.
% The unit line width and grayscale image gamma correction may also be changed.
%
/Color true def
/Blacktext true def
/Solid false def
/Dashlength 1 def
/Landscape false def
/Level1 false def
/Level3 false def
/Rounded false def
/ClipToBoundingBox false def
/SuppressPDFMark false def
/TransparentPatterns false def
/gnulinewidth 5.000 def
/userlinewidth gnulinewidth def
/Gamma 1.0 def
/BackgroundColor {-1.000 -1.000 -1.000} def
%
/vshift -73 def
/dl1 {
  10.0 Dashlength userlinewidth gnulinewidth div mul mul mul
  Rounded { currentlinewidth 0.75 mul sub dup 0 le { pop 0.01 } if } if
} def
/dl2 {
  10.0 Dashlength userlinewidth gnulinewidth div mul mul mul
  Rounded { currentlinewidth 0.75 mul add } if
} def
/hpt_ 31.5 def
/vpt_ 31.5 def
/hpt hpt_ def
/vpt vpt_ def
/doclip {
  ClipToBoundingBox {
    newpath 50 50 moveto 410 50 lineto 410 302 lineto 50 302 lineto closepath
    clip
  } if
} def
%
% Gnuplot Prolog Version 5.2 (Dec 2017)
%
%/SuppressPDFMark true def
%
/M {moveto} bind def
/L {lineto} bind def
/R {rmoveto} bind def
/V {rlineto} bind def
/N {newpath moveto} bind def
/Z {closepath} bind def
/C {setrgbcolor} bind def
/f {rlineto fill} bind def
/g {setgray} bind def
/Gshow {show} def   % May be redefined later in the file to support UTF-8
/vpt2 vpt 2 mul def
/hpt2 hpt 2 mul def
/Lshow {currentpoint stroke M 0 vshift R 
	Blacktext {gsave 0 setgray textshow grestore} {textshow} ifelse} def
/Rshow {currentpoint stroke M dup stringwidth pop neg vshift R
	Blacktext {gsave 0 setgray textshow grestore} {textshow} ifelse} def
/Cshow {currentpoint stroke M dup stringwidth pop -2 div vshift R 
	Blacktext {gsave 0 setgray textshow grestore} {textshow} ifelse} def
/UP {dup vpt_ mul /vpt exch def hpt_ mul /hpt exch def
  /hpt2 hpt 2 mul def /vpt2 vpt 2 mul def} def
/DL {Color {setrgbcolor Solid {pop []} if 0 setdash}
 {pop pop pop 0 setgray Solid {pop []} if 0 setdash} ifelse} def
/BL {stroke userlinewidth 2 mul setlinewidth
	Rounded {1 setlinejoin 1 setlinecap} if} def
/AL {stroke userlinewidth 2 div setlinewidth
	Rounded {1 setlinejoin 1 setlinecap} if} def
/UL {dup gnulinewidth mul /userlinewidth exch def
	dup 1 lt {pop 1} if 10 mul /udl exch def} def
/PL {stroke userlinewidth setlinewidth
	Rounded {1 setlinejoin 1 setlinecap} if} def
3.8 setmiterlimit
% Classic Line colors (version 5.0)
/LCw {1 1 1} def
/LCb {0 0 0} def
/LCa {0 0 0} def
/LC0 {1 0 0} def
/LC1 {0 1 0} def
/LC2 {0 0 1} def
/LC3 {1 0 1} def
/LC4 {0 1 1} def
/LC5 {1 1 0} def
/LC6 {0 0 0} def
/LC7 {1 0.3 0} def
/LC8 {0.5 0.5 0.5} def
% Default dash patterns (version 5.0)
/LTB {BL [] LCb DL} def
/LTw {PL [] 1 setgray} def
/LTb {PL [] LCb DL} def
/LTa {AL [1 udl mul 2 udl mul] 0 setdash LCa setrgbcolor} def
/LT0 {PL [] LC0 DL} def
/LT1 {PL [2 dl1 3 dl2] LC1 DL} def
/LT2 {PL [1 dl1 1.5 dl2] LC2 DL} def
/LT3 {PL [6 dl1 2 dl2 1 dl1 2 dl2] LC3 DL} def
/LT4 {PL [1 dl1 2 dl2 6 dl1 2 dl2 1 dl1 2 dl2] LC4 DL} def
/LT5 {PL [4 dl1 2 dl2] LC5 DL} def
/LT6 {PL [1.5 dl1 1.5 dl2 1.5 dl1 1.5 dl2 1.5 dl1 6 dl2] LC6 DL} def
/LT7 {PL [3 dl1 3 dl2 1 dl1 3 dl2] LC7 DL} def
/LT8 {PL [2 dl1 2 dl2 2 dl1 6 dl2] LC8 DL} def
/SL {[] 0 setdash} def
/Pnt {stroke [] 0 setdash gsave 1 setlinecap M 0 0 V stroke grestore} def
/Dia {stroke [] 0 setdash 2 copy vpt add M
  hpt neg vpt neg V hpt vpt neg V
  hpt vpt V hpt neg vpt V closepath stroke
  Pnt} def
/Pls {stroke [] 0 setdash vpt sub M 0 vpt2 V
  currentpoint stroke M
  hpt neg vpt neg R hpt2 0 V stroke
 } def
/Box {stroke [] 0 setdash 2 copy exch hpt sub exch vpt add M
  0 vpt2 neg V hpt2 0 V 0 vpt2 V
  hpt2 neg 0 V closepath stroke
  Pnt} def
/Crs {stroke [] 0 setdash exch hpt sub exch vpt add M
  hpt2 vpt2 neg V currentpoint stroke M
  hpt2 neg 0 R hpt2 vpt2 V stroke} def
/TriU {stroke [] 0 setdash 2 copy vpt 1.12 mul add M
  hpt neg vpt -1.62 mul V
  hpt 2 mul 0 V
  hpt neg vpt 1.62 mul V closepath stroke
  Pnt} def
/Star {2 copy Pls Crs} def
/BoxF {stroke [] 0 setdash exch hpt sub exch vpt add M
  0 vpt2 neg V hpt2 0 V 0 vpt2 V
  hpt2 neg 0 V closepath fill} def
/TriUF {stroke [] 0 setdash vpt 1.12 mul add M
  hpt neg vpt -1.62 mul V
  hpt 2 mul 0 V
  hpt neg vpt 1.62 mul V closepath fill} def
/TriD {stroke [] 0 setdash 2 copy vpt 1.12 mul sub M
  hpt neg vpt 1.62 mul V
  hpt 2 mul 0 V
  hpt neg vpt -1.62 mul V closepath stroke
  Pnt} def
/TriDF {stroke [] 0 setdash vpt 1.12 mul sub M
  hpt neg vpt 1.62 mul V
  hpt 2 mul 0 V
  hpt neg vpt -1.62 mul V closepath fill} def
/DiaF {stroke [] 0 setdash vpt add M
  hpt neg vpt neg V hpt vpt neg V
  hpt vpt V hpt neg vpt V closepath fill} def
/Pent {stroke [] 0 setdash 2 copy gsave
  translate 0 hpt M 4 {72 rotate 0 hpt L} repeat
  closepath stroke grestore Pnt} def
/PentF {stroke [] 0 setdash gsave
  translate 0 hpt M 4 {72 rotate 0 hpt L} repeat
  closepath fill grestore} def
/Circle {stroke [] 0 setdash 2 copy
  hpt 0 360 arc stroke Pnt} def
/CircleF {stroke [] 0 setdash hpt 0 360 arc fill} def
/C0 {BL [] 0 setdash 2 copy moveto vpt 90 450 arc} bind def
/C1 {BL [] 0 setdash 2 copy moveto
	2 copy vpt 0 90 arc closepath fill
	vpt 0 360 arc closepath} bind def
/C2 {BL [] 0 setdash 2 copy moveto
	2 copy vpt 90 180 arc closepath fill
	vpt 0 360 arc closepath} bind def
/C3 {BL [] 0 setdash 2 copy moveto
	2 copy vpt 0 180 arc closepath fill
	vpt 0 360 arc closepath} bind def
/C4 {BL [] 0 setdash 2 copy moveto
	2 copy vpt 180 270 arc closepath fill
	vpt 0 360 arc closepath} bind def
/C5 {BL [] 0 setdash 2 copy moveto
	2 copy vpt 0 90 arc
	2 copy moveto
	2 copy vpt 180 270 arc closepath fill
	vpt 0 360 arc} bind def
/C6 {BL [] 0 setdash 2 copy moveto
	2 copy vpt 90 270 arc closepath fill
	vpt 0 360 arc closepath} bind def
/C7 {BL [] 0 setdash 2 copy moveto
	2 copy vpt 0 270 arc closepath fill
	vpt 0 360 arc closepath} bind def
/C8 {BL [] 0 setdash 2 copy moveto
	2 copy vpt 270 360 arc closepath fill
	vpt 0 360 arc closepath} bind def
/C9 {BL [] 0 setdash 2 copy moveto
	2 copy vpt 270 450 arc closepath fill
	vpt 0 360 arc closepath} bind def
/C10 {BL [] 0 setdash 2 copy 2 copy moveto vpt 270 360 arc closepath fill
	2 copy moveto
	2 copy vpt 90 180 arc closepath fill
	vpt 0 360 arc closepath} bind def
/C11 {BL [] 0 setdash 2 copy moveto
	2 copy vpt 0 180 arc closepath fill
	2 copy moveto
	2 copy vpt 270 360 arc closepath fill
	vpt 0 360 arc closepath} bind def
/C12 {BL [] 0 setdash 2 copy moveto
	2 copy vpt 180 360 arc closepath fill
	vpt 0 360 arc closepath} bind def
/C13 {BL [] 0 setdash 2 copy moveto
	2 copy vpt 0 90 arc closepath fill
	2 copy moveto
	2 copy vpt 180 360 arc closepath fill
	vpt 0 360 arc closepath} bind def
/C14 {BL [] 0 setdash 2 copy moveto
	2 copy vpt 90 360 arc closepath fill
	vpt 0 360 arc} bind def
/C15 {BL [] 0 setdash 2 copy vpt 0 360 arc closepath fill
	vpt 0 360 arc closepath} bind def
/Rec {newpath 4 2 roll moveto 1 index 0 rlineto 0 exch rlineto
	neg 0 rlineto closepath} bind def
/Square {dup Rec} bind def
/Bsquare {vpt sub exch vpt sub exch vpt2 Square} bind def
/S0 {BL [] 0 setdash 2 copy moveto 0 vpt rlineto BL Bsquare} bind def
/S1 {BL [] 0 setdash 2 copy vpt Square fill Bsquare} bind def
/S2 {BL [] 0 setdash 2 copy exch vpt sub exch vpt Square fill Bsquare} bind def
/S3 {BL [] 0 setdash 2 copy exch vpt sub exch vpt2 vpt Rec fill Bsquare} bind def
/S4 {BL [] 0 setdash 2 copy exch vpt sub exch vpt sub vpt Square fill Bsquare} bind def
/S5 {BL [] 0 setdash 2 copy 2 copy vpt Square fill
	exch vpt sub exch vpt sub vpt Square fill Bsquare} bind def
/S6 {BL [] 0 setdash 2 copy exch vpt sub exch vpt sub vpt vpt2 Rec fill Bsquare} bind def
/S7 {BL [] 0 setdash 2 copy exch vpt sub exch vpt sub vpt vpt2 Rec fill
	2 copy vpt Square fill Bsquare} bind def
/S8 {BL [] 0 setdash 2 copy vpt sub vpt Square fill Bsquare} bind def
/S9 {BL [] 0 setdash 2 copy vpt sub vpt vpt2 Rec fill Bsquare} bind def
/S10 {BL [] 0 setdash 2 copy vpt sub vpt Square fill 2 copy exch vpt sub exch vpt Square fill
	Bsquare} bind def
/S11 {BL [] 0 setdash 2 copy vpt sub vpt Square fill 2 copy exch vpt sub exch vpt2 vpt Rec fill
	Bsquare} bind def
/S12 {BL [] 0 setdash 2 copy exch vpt sub exch vpt sub vpt2 vpt Rec fill Bsquare} bind def
/S13 {BL [] 0 setdash 2 copy exch vpt sub exch vpt sub vpt2 vpt Rec fill
	2 copy vpt Square fill Bsquare} bind def
/S14 {BL [] 0 setdash 2 copy exch vpt sub exch vpt sub vpt2 vpt Rec fill
	2 copy exch vpt sub exch vpt Square fill Bsquare} bind def
/S15 {BL [] 0 setdash 2 copy Bsquare fill Bsquare} bind def
/D0 {gsave translate 45 rotate 0 0 S0 stroke grestore} bind def
/D1 {gsave translate 45 rotate 0 0 S1 stroke grestore} bind def
/D2 {gsave translate 45 rotate 0 0 S2 stroke grestore} bind def
/D3 {gsave translate 45 rotate 0 0 S3 stroke grestore} bind def
/D4 {gsave translate 45 rotate 0 0 S4 stroke grestore} bind def
/D5 {gsave translate 45 rotate 0 0 S5 stroke grestore} bind def
/D6 {gsave translate 45 rotate 0 0 S6 stroke grestore} bind def
/D7 {gsave translate 45 rotate 0 0 S7 stroke grestore} bind def
/D8 {gsave translate 45 rotate 0 0 S8 stroke grestore} bind def
/D9 {gsave translate 45 rotate 0 0 S9 stroke grestore} bind def
/D10 {gsave translate 45 rotate 0 0 S10 stroke grestore} bind def
/D11 {gsave translate 45 rotate 0 0 S11 stroke grestore} bind def
/D12 {gsave translate 45 rotate 0 0 S12 stroke grestore} bind def
/D13 {gsave translate 45 rotate 0 0 S13 stroke grestore} bind def
/D14 {gsave translate 45 rotate 0 0 S14 stroke grestore} bind def
/D15 {gsave translate 45 rotate 0 0 S15 stroke grestore} bind def
/DiaE {stroke [] 0 setdash vpt add M
  hpt neg vpt neg V hpt vpt neg V
  hpt vpt V hpt neg vpt V closepath stroke} def
/BoxE {stroke [] 0 setdash exch hpt sub exch vpt add M
  0 vpt2 neg V hpt2 0 V 0 vpt2 V
  hpt2 neg 0 V closepath stroke} def
/TriUE {stroke [] 0 setdash vpt 1.12 mul add M
  hpt neg vpt -1.62 mul V
  hpt 2 mul 0 V
  hpt neg vpt 1.62 mul V closepath stroke} def
/TriDE {stroke [] 0 setdash vpt 1.12 mul sub M
  hpt neg vpt 1.62 mul V
  hpt 2 mul 0 V
  hpt neg vpt -1.62 mul V closepath stroke} def
/PentE {stroke [] 0 setdash gsave
  translate 0 hpt M 4 {72 rotate 0 hpt L} repeat
  closepath stroke grestore} def
/CircE {stroke [] 0 setdash 
  hpt 0 360 arc stroke} def
/Opaque {gsave closepath 1 setgray fill grestore 0 setgray closepath} def
/DiaW {stroke [] 0 setdash vpt add M
  hpt neg vpt neg V hpt vpt neg V
  hpt vpt V hpt neg vpt V Opaque stroke} def
/BoxW {stroke [] 0 setdash exch hpt sub exch vpt add M
  0 vpt2 neg V hpt2 0 V 0 vpt2 V
  hpt2 neg 0 V Opaque stroke} def
/TriUW {stroke [] 0 setdash vpt 1.12 mul add M
  hpt neg vpt -1.62 mul V
  hpt 2 mul 0 V
  hpt neg vpt 1.62 mul V Opaque stroke} def
/TriDW {stroke [] 0 setdash vpt 1.12 mul sub M
  hpt neg vpt 1.62 mul V
  hpt 2 mul 0 V
  hpt neg vpt -1.62 mul V Opaque stroke} def
/PentW {stroke [] 0 setdash gsave
  translate 0 hpt M 4 {72 rotate 0 hpt L} repeat
  Opaque stroke grestore} def
/CircW {stroke [] 0 setdash 
  hpt 0 360 arc Opaque stroke} def
/BoxFill {gsave Rec 1 setgray fill grestore} def
/Density {
  /Fillden exch def
  currentrgbcolor
  /ColB exch def /ColG exch def /ColR exch def
  /ColR ColR Fillden mul Fillden sub 1 add def
  /ColG ColG Fillden mul Fillden sub 1 add def
  /ColB ColB Fillden mul Fillden sub 1 add def
  ColR ColG ColB setrgbcolor} def
/BoxColFill {gsave Rec PolyFill} def
/PolyFill {gsave Density fill grestore grestore} def
/h {rlineto rlineto rlineto closepath gsave fill grestore stroke} bind def
%
% PostScript Level 1 Pattern Fill routine for rectangles
% Usage: x y w h s a XX PatternFill
%	x,y = lower left corner of box to be filled
%	w,h = width and height of box
%	  a = angle in degrees between lines and x-axis
%	 XX = 0/1 for no/yes cross-hatch
%
/PatternFill {gsave /PFa [ 9 2 roll ] def
  PFa 0 get PFa 2 get 2 div add PFa 1 get PFa 3 get 2 div add translate
  PFa 2 get -2 div PFa 3 get -2 div PFa 2 get PFa 3 get Rec
  TransparentPatterns {} {gsave 1 setgray fill grestore} ifelse
  clip
  currentlinewidth 0.5 mul setlinewidth
  /PFs PFa 2 get dup mul PFa 3 get dup mul add sqrt def
  0 0 M PFa 5 get rotate PFs -2 div dup translate
  0 1 PFs PFa 4 get div 1 add floor cvi
	{PFa 4 get mul 0 M 0 PFs V} for
  0 PFa 6 get ne {
	0 1 PFs PFa 4 get div 1 add floor cvi
	{PFa 4 get mul 0 2 1 roll M PFs 0 V} for
 } if
  stroke grestore} def
%
/languagelevel where
 {pop languagelevel} {1} ifelse
dup 2 lt
	{/InterpretLevel1 true def
	 /InterpretLevel3 false def}
	{/InterpretLevel1 Level1 def
	 2 gt
	    {/InterpretLevel3 Level3 def}
	    {/InterpretLevel3 false def}
	 ifelse }
 ifelse
%
% PostScript level 2 pattern fill definitions
%
/Level2PatternFill {
/Tile8x8 {/PaintType 2 /PatternType 1 /TilingType 1 /BBox [0 0 8 8] /XStep 8 /YStep 8}
	bind def
/KeepColor {currentrgbcolor [/Pattern /DeviceRGB] setcolorspace} bind def
<< Tile8x8
 /PaintProc {0.5 setlinewidth pop 0 0 M 8 8 L 0 8 M 8 0 L stroke} 
>> matrix makepattern
/Pat1 exch def
<< Tile8x8
 /PaintProc {0.5 setlinewidth pop 0 0 M 8 8 L 0 8 M 8 0 L stroke
	0 4 M 4 8 L 8 4 L 4 0 L 0 4 L stroke}
>> matrix makepattern
/Pat2 exch def
<< Tile8x8
 /PaintProc {0.5 setlinewidth pop 0 0 M 0 8 L
	8 8 L 8 0 L 0 0 L fill}
>> matrix makepattern
/Pat3 exch def
<< Tile8x8
 /PaintProc {0.5 setlinewidth pop -4 8 M 8 -4 L
	0 12 M 12 0 L stroke}
>> matrix makepattern
/Pat4 exch def
<< Tile8x8
 /PaintProc {0.5 setlinewidth pop -4 0 M 8 12 L
	0 -4 M 12 8 L stroke}
>> matrix makepattern
/Pat5 exch def
<< Tile8x8
 /PaintProc {0.5 setlinewidth pop -2 8 M 4 -4 L
	0 12 M 8 -4 L 4 12 M 10 0 L stroke}
>> matrix makepattern
/Pat6 exch def
<< Tile8x8
 /PaintProc {0.5 setlinewidth pop -2 0 M 4 12 L
	0 -4 M 8 12 L 4 -4 M 10 8 L stroke}
>> matrix makepattern
/Pat7 exch def
<< Tile8x8
 /PaintProc {0.5 setlinewidth pop 8 -2 M -4 4 L
	12 0 M -4 8 L 12 4 M 0 10 L stroke}
>> matrix makepattern
/Pat8 exch def
<< Tile8x8
 /PaintProc {0.5 setlinewidth pop 0 -2 M 12 4 L
	-4 0 M 12 8 L -4 4 M 8 10 L stroke}
>> matrix makepattern
/Pat9 exch def
/Pattern1 {PatternBgnd KeepColor Pat1 setpattern} bind def
/Pattern2 {PatternBgnd KeepColor Pat2 setpattern} bind def
/Pattern3 {PatternBgnd KeepColor Pat3 setpattern} bind def
/Pattern4 {PatternBgnd KeepColor Landscape {Pat5} {Pat4} ifelse setpattern} bind def
/Pattern5 {PatternBgnd KeepColor Landscape {Pat4} {Pat5} ifelse setpattern} bind def
/Pattern6 {PatternBgnd KeepColor Landscape {Pat9} {Pat6} ifelse setpattern} bind def
/Pattern7 {PatternBgnd KeepColor Landscape {Pat8} {Pat7} ifelse setpattern} bind def
} def
%
%
%End of PostScript Level 2 code
%
/PatternBgnd {
  TransparentPatterns {} {gsave 1 setgray fill grestore} ifelse
} def
%
% Substitute for Level 2 pattern fill codes with
% grayscale if Level 2 support is not selected.
%
/Level1PatternFill {
/Pattern1 {0.250 Density} bind def
/Pattern2 {0.500 Density} bind def
/Pattern3 {0.750 Density} bind def
/Pattern4 {0.125 Density} bind def
/Pattern5 {0.375 Density} bind def
/Pattern6 {0.625 Density} bind def
/Pattern7 {0.875 Density} bind def
} def
%
% Now test for support of Level 2 code
%
Level1 {Level1PatternFill} {Level2PatternFill} ifelse
%
/Symbol-Oblique /Symbol findfont [1 0 .167 1 0 0] makefont
dup length dict begin {1 index /FID eq {pop pop} {def} ifelse} forall
currentdict end definefont pop
%
Level1 SuppressPDFMark or 
{} {
/SDict 10 dict def
systemdict /pdfmark known not {
  userdict /pdfmark systemdict /cleartomark get put
} if
SDict begin [
  /Title (time_consumption_plot_0_kernel_user_netlink.tex)
  /Subject (gnuplot plot)
  /Creator (gnuplot 5.2 patchlevel 8)
%  /Producer (gnuplot)
%  /Keywords ()
  /CreationDate (Tue Mar 16 17:25:41 2021)
  /DOCINFO pdfmark
end
} ifelse
%
% Support for boxed text - Ethan A Merritt Sep 2016
%
/InitTextBox { userdict /TBy2 3 -1 roll put userdict /TBx2 3 -1 roll put
           userdict /TBy1 3 -1 roll put userdict /TBx1 3 -1 roll put
	   /Boxing true def } def
/ExtendTextBox { dup type /stringtype eq
    { Boxing { gsave dup false charpath pathbbox
      dup TBy2 gt {userdict /TBy2 3 -1 roll put} {pop} ifelse
      dup TBx2 gt {userdict /TBx2 3 -1 roll put} {pop} ifelse
      dup TBy1 lt {userdict /TBy1 3 -1 roll put} {pop} ifelse
      dup TBx1 lt {userdict /TBx1 3 -1 roll put} {pop} ifelse
      grestore } if }
    {} ifelse} def
/PopTextBox { newpath TBx1 TBxmargin sub TBy1 TBymargin sub M
               TBx1 TBxmargin sub TBy2 TBymargin add L
	       TBx2 TBxmargin add TBy2 TBymargin add L
	       TBx2 TBxmargin add TBy1 TBymargin sub L closepath } def
/DrawTextBox { PopTextBox stroke /Boxing false def} def
/FillTextBox { gsave PopTextBox fill grestore /Boxing false def} def
0 0 0 0 InitTextBox
/TBxmargin 20 def
/TBymargin 20 def
/Boxing false def
/textshow { ExtendTextBox Gshow } def
%
end
%%EndProlog
%%Page: 1 1
gnudict begin
gsave
doclip
50 50 translate
0.050 0.050 scale
0 setgray
newpath
1.000 UL
LTb
LCb setrgbcolor
[] 0 setdash
0.500 UL
LTa
LCa setrgbcolor
946 704 M
5857 0 V
stroke
1.000 UL
LTb
LCb setrgbcolor
[] 0 setdash
946 704 M
63 0 V
5794 0 R
-63 0 V
stroke
LTb
0.500 UL
LTa
LCa setrgbcolor
946 1116 M
5857 0 V
stroke
1.000 UL
LTb
LCb setrgbcolor
[] 0 setdash
946 1116 M
63 0 V
5794 0 R
-63 0 V
stroke
LTb
0.500 UL
LTa
LCa setrgbcolor
946 1527 M
5857 0 V
stroke
1.000 UL
LTb
LCb setrgbcolor
[] 0 setdash
946 1527 M
63 0 V
5794 0 R
-63 0 V
stroke
LTb
0.500 UL
LTa
LCa setrgbcolor
946 1939 M
5857 0 V
stroke
1.000 UL
LTb
LCb setrgbcolor
[] 0 setdash
946 1939 M
63 0 V
5794 0 R
-63 0 V
stroke
LTb
0.500 UL
LTa
LCa setrgbcolor
946 2350 M
5857 0 V
stroke
1.000 UL
LTb
LCb setrgbcolor
[] 0 setdash
946 2350 M
63 0 V
5794 0 R
-63 0 V
stroke
LTb
0.500 UL
LTa
LCa setrgbcolor
946 2762 M
5857 0 V
stroke
1.000 UL
LTb
LCb setrgbcolor
[] 0 setdash
946 2762 M
63 0 V
5794 0 R
-63 0 V
stroke
LTb
0.500 UL
LTa
LCa setrgbcolor
946 3173 M
5857 0 V
stroke
1.000 UL
LTb
LCb setrgbcolor
[] 0 setdash
946 3173 M
63 0 V
5794 0 R
-63 0 V
stroke
LTb
0.500 UL
LTa
LCa setrgbcolor
946 3585 M
5857 0 V
stroke
1.000 UL
LTb
LCb setrgbcolor
[] 0 setdash
946 3585 M
63 0 V
5794 0 R
-63 0 V
stroke
LTb
0.500 UL
LTa
LCa setrgbcolor
946 3996 M
3715 0 V
2010 0 R
132 0 V
stroke
1.000 UL
LTb
LCb setrgbcolor
[] 0 setdash
946 3996 M
63 0 V
5794 0 R
-63 0 V
stroke
LTb
0.500 UL
LTa
LCa setrgbcolor
946 4408 M
3715 0 V
2010 0 R
132 0 V
stroke
1.000 UL
LTb
LCb setrgbcolor
[] 0 setdash
946 4408 M
63 0 V
5794 0 R
-63 0 V
stroke
LTb
0.500 UL
LTa
LCa setrgbcolor
946 4819 M
5857 0 V
stroke
1.000 UL
LTb
LCb setrgbcolor
[] 0 setdash
946 4819 M
63 0 V
5794 0 R
-63 0 V
stroke
LTb
0.500 UL
LTa
LCa setrgbcolor
946 704 M
0 4115 V
stroke
1.000 UL
LTb
LCb setrgbcolor
[] 0 setdash
946 704 M
0 63 V
0 4052 R
0 -63 V
stroke
LTb
0.500 UL
LTa
LCa setrgbcolor
2117 704 M
0 4115 V
stroke
1.000 UL
LTb
LCb setrgbcolor
[] 0 setdash
2117 704 M
0 63 V
0 4052 R
0 -63 V
stroke
LTb
0.500 UL
LTa
LCa setrgbcolor
3289 704 M
0 4115 V
stroke
1.000 UL
LTb
LCb setrgbcolor
[] 0 setdash
3289 704 M
0 63 V
0 4052 R
0 -63 V
stroke
LTb
0.500 UL
LTa
LCa setrgbcolor
4460 704 M
0 4115 V
stroke
1.000 UL
LTb
LCb setrgbcolor
[] 0 setdash
4460 704 M
0 63 V
0 4052 R
0 -63 V
stroke
LTb
0.500 UL
LTa
LCa setrgbcolor
5632 704 M
0 3007 V
0 1045 R
0 63 V
stroke
1.000 UL
LTb
LCb setrgbcolor
[] 0 setdash
5632 704 M
0 63 V
0 4052 R
0 -63 V
stroke
LTb
0.500 UL
LTa
LCa setrgbcolor
6803 704 M
0 4115 V
stroke
1.000 UL
LTb
LCb setrgbcolor
[] 0 setdash
6803 704 M
0 63 V
0 4052 R
0 -63 V
stroke
LTb
1.000 UL
LTb
946 4819 N
946 704 L
5857 0 V
0 4115 V
-5857 0 V
Z stroke
1.000 UP
1.000 UL
LTb
1.000 UL
LTb
4661 3711 N
0 1045 V
2010 0 V
0 -1045 V
-2010 0 V
Z stroke
% Begin plot #1
1.000 UP
1.000 UL
LTb
0.58 0.00 0.83 C
958 3136 Pls
969 3077 Pls
981 3001 Pls
993 2970 Pls
1005 3299 Pls
1016 3034 Pls
1028 2977 Pls
1040 2960 Pls
1051 2945 Pls
1063 2939 Pls
1075 2942 Pls
1087 2950 Pls
1098 2939 Pls
1110 2928 Pls
1122 2939 Pls
1133 2928 Pls
1145 2933 Pls
1157 2936 Pls
1169 3208 Pls
1180 2989 Pls
1192 2937 Pls
1204 2948 Pls
1215 2924 Pls
1227 2928 Pls
1239 2933 Pls
1251 2938 Pls
1262 2915 Pls
1274 2929 Pls
1286 2915 Pls
1297 2923 Pls
1309 2937 Pls
1321 2940 Pls
1344 3953 Pls
1356 3070 Pls
1368 3031 Pls
1379 2998 Pls
1391 2947 Pls
1403 3097 Pls
1415 2943 Pls
1426 2948 Pls
1438 3018 Pls
1450 2938 Pls
1461 2930 Pls
1473 2931 Pls
1485 2941 Pls
1497 2999 Pls
1508 2929 Pls
1520 2932 Pls
1532 2940 Pls
1543 2921 Pls
1555 2919 Pls
1567 3296 Pls
1579 2944 Pls
1590 2934 Pls
1602 2933 Pls
1614 2925 Pls
1625 2927 Pls
1637 2933 Pls
1649 2918 Pls
1661 2933 Pls
1672 2925 Pls
1684 2934 Pls
1696 2942 Pls
1707 2915 Pls
1719 2920 Pls
1731 3209 Pls
1743 2953 Pls
1754 2943 Pls
1766 2926 Pls
1778 2925 Pls
1789 2927 Pls
1801 2918 Pls
1813 2925 Pls
1825 2924 Pls
1836 2920 Pls
1848 2925 Pls
1860 2937 Pls
1871 2921 Pls
1883 2925 Pls
1895 3183 Pls
1907 2963 Pls
1918 2946 Pls
1930 2970 Pls
1942 2912 Pls
1953 2913 Pls
1965 2926 Pls
1977 2934 Pls
1989 2915 Pls
2000 2915 Pls
2012 2936 Pls
2024 3030 Pls
2035 2933 Pls
2047 2929 Pls
2059 3198 Pls
2071 2966 Pls
2082 2933 Pls
2094 2944 Pls
2106 2940 Pls
2117 2931 Pls
2129 2929 Pls
2141 2927 Pls
2153 2930 Pls
2164 2931 Pls
2176 2915 Pls
2188 2927 Pls
2199 2928 Pls
2211 2931 Pls
2223 3171 Pls
2235 2979 Pls
2246 2951 Pls
2258 2934 Pls
2270 2926 Pls
2281 2925 Pls
2293 2919 Pls
2305 2929 Pls
2317 2933 Pls
2328 2928 Pls
2340 2935 Pls
2352 2931 Pls
2363 2978 Pls
2375 2931 Pls
2387 2934 Pls
2399 2998 Pls
2410 2947 Pls
2422 2931 Pls
2434 2953 Pls
2445 2935 Pls
2457 2926 Pls
2469 2928 Pls
2481 2942 Pls
2492 2934 Pls
2504 2923 Pls
2516 2930 Pls
2527 2926 Pls
2539 2929 Pls
2551 2960 Pls
2563 3236 Pls
2574 2940 Pls
2586 2941 Pls
2598 2928 Pls
2609 2922 Pls
2621 2925 Pls
2633 2933 Pls
2645 2924 Pls
2656 2920 Pls
2668 2925 Pls
2680 2979 Pls
2691 2925 Pls
2703 2931 Pls
2715 2921 Pls
2727 3225 Pls
2738 2949 Pls
2750 2946 Pls
2762 2934 Pls
2773 2921 Pls
2785 2931 Pls
2797 2916 Pls
2809 2919 Pls
2820 2931 Pls
2832 2926 Pls
2844 2931 Pls
2855 2921 Pls
2867 2918 Pls
2879 2934 Pls
2902 3744 Pls
2914 3052 Pls
2926 2998 Pls
2937 2987 Pls
2949 2954 Pls
2961 2946 Pls
2973 2951 Pls
2984 2947 Pls
2996 2968 Pls
3008 2971 Pls
3019 3073 Pls
3031 2962 Pls
3043 2950 Pls
3055 3001 Pls
3066 2978 Pls
3078 2982 Pls
3090 2967 Pls
3101 2941 Pls
3113 2931 Pls
3125 2928 Pls
3137 2930 Pls
3148 2925 Pls
3160 2931 Pls
3172 3005 Pls
3183 3050 Pls
3195 2960 Pls
3207 2941 Pls
3219 2916 Pls
3230 2921 Pls
3242 2931 Pls
3254 2930 Pls
3265 2928 Pls
3277 2920 Pls
3289 2930 Pls
3301 2918 Pls
3312 2920 Pls
3324 2913 Pls
3336 2923 Pls
3347 3257 Pls
3359 2944 Pls
3371 2947 Pls
3383 2931 Pls
3394 2928 Pls
3406 2933 Pls
3418 2921 Pls
3429 2931 Pls
3441 2929 Pls
3453 2944 Pls
3465 2929 Pls
3476 2934 Pls
3488 2926 Pls
3500 2920 Pls
3511 3258 Pls
3523 3065 Pls
3535 2958 Pls
3547 2924 Pls
3558 2918 Pls
3570 2928 Pls
3582 2931 Pls
3593 2928 Pls
3605 2928 Pls
3617 2920 Pls
3629 2932 Pls
3640 2927 Pls
3652 2928 Pls
3664 2918 Pls
3675 3265 Pls
3687 2946 Pls
3699 2944 Pls
3711 2926 Pls
3722 2938 Pls
3734 2921 Pls
3746 2928 Pls
3757 2927 Pls
3769 2929 Pls
3781 2929 Pls
3793 2932 Pls
3804 2921 Pls
3816 2925 Pls
3828 2915 Pls
3839 3187 Pls
3851 2972 Pls
3863 2930 Pls
3875 2916 Pls
3886 2921 Pls
3898 2912 Pls
3910 2927 Pls
3921 3008 Pls
3933 2926 Pls
3945 2920 Pls
3956 2923 Pls
3968 2920 Pls
3980 2918 Pls
3992 2925 Pls
4003 3261 Pls
4015 3000 Pls
4027 2951 Pls
4038 2942 Pls
4050 2926 Pls
4062 2915 Pls
4074 2924 Pls
4085 2922 Pls
4097 2916 Pls
4109 2938 Pls
4120 2957 Pls
4132 2925 Pls
4144 2924 Pls
4156 2928 Pls
4167 3186 Pls
4179 3005 Pls
4191 2944 Pls
4202 2934 Pls
4214 2920 Pls
4226 2925 Pls
4238 2928 Pls
4249 2917 Pls
4261 2918 Pls
4273 2934 Pls
4284 2928 Pls
4296 2921 Pls
4308 2939 Pls
4320 2922 Pls
4331 2924 Pls
4355 3111 Pls
4366 2992 Pls
4378 2972 Pls
4390 2951 Pls
4402 2963 Pls
4413 2957 Pls
4425 2980 Pls
4448 3010 Pls
4460 2995 Pls
4472 2937 Pls
4484 2942 Pls
4495 2952 Pls
4507 2937 Pls
4519 2921 Pls
4530 2924 Pls
4542 2960 Pls
4554 2935 Pls
4577 3068 Pls
4589 2970 Pls
4601 2944 Pls
4612 2947 Pls
4624 2928 Pls
4636 2932 Pls
4648 2927 Pls
4659 2930 Pls
4671 2943 Pls
4683 2937 Pls
4694 2929 Pls
4718 2953 Pls
4730 2940 Pls
4741 2928 Pls
4753 2937 Pls
4765 2924 Pls
4776 2928 Pls
4788 2919 Pls
4800 2936 Pls
4812 2920 Pls
4823 2920 Pls
4847 3011 Pls
4858 2921 Pls
4870 2935 Pls
4882 2912 Pls
4894 2918 Pls
4905 2918 Pls
4917 2921 Pls
4929 2941 Pls
4940 2912 Pls
4952 2925 Pls
4964 2937 Pls
4987 2946 Pls
4999 2929 Pls
5011 2915 Pls
5022 3001 Pls
5034 2944 Pls
5046 2925 Pls
5058 2921 Pls
5069 2931 Pls
5081 2932 Pls
5093 2925 Pls
5116 3011 Pls
5128 2938 Pls
5140 3002 Pls
5151 2922 Pls
5163 2936 Pls
5175 2924 Pls
5186 2934 Pls
5198 2921 Pls
5210 2921 Pls
5222 2916 Pls
5233 2924 Pls
5257 3000 Pls
5268 2934 Pls
5280 2924 Pls
5292 2927 Pls
5304 2923 Pls
5315 2925 Pls
5327 2950 Pls
5339 2933 Pls
5350 2927 Pls
5362 2912 Pls
5374 2925 Pls
5397 2949 Pls
5409 2925 Pls
5421 2941 Pls
5432 2917 Pls
5444 2918 Pls
5456 2918 Pls
5468 2919 Pls
5479 2924 Pls
5491 2928 Pls
5503 2915 Pls
5526 3184 Pls
5538 2973 Pls
5550 3024 Pls
5561 2948 Pls
5573 2950 Pls
5585 2970 Pls
5596 2965 Pls
5608 2976 Pls
5620 2935 Pls
5632 2957 Pls
5643 2928 Pls
5655 2914 Pls
5667 2919 Pls
5678 3015 Pls
5690 2952 Pls
5702 2937 Pls
5714 2917 Pls
5725 2947 Pls
5737 2905 Pls
5749 2927 Pls
5760 2917 Pls
5772 2911 Pls
5784 2919 Pls
5796 2906 Pls
5807 2921 Pls
5819 2925 Pls
5831 2918 Pls
5842 3293 Pls
5854 2940 Pls
5866 2929 Pls
5878 2909 Pls
5889 2912 Pls
5901 2931 Pls
5913 2910 Pls
5924 2906 Pls
5936 2925 Pls
5948 2906 Pls
5960 2912 Pls
5971 2912 Pls
5983 2915 Pls
5995 2969 Pls
6006 3229 Pls
6018 2947 Pls
6030 2941 Pls
6042 2931 Pls
6053 2918 Pls
6065 2922 Pls
6077 2912 Pls
6088 2915 Pls
6100 2911 Pls
6112 2909 Pls
6124 2916 Pls
6135 2913 Pls
6147 2919 Pls
6159 2921 Pls
6170 3201 Pls
6182 2964 Pls
6194 2941 Pls
6206 2930 Pls
6217 2956 Pls
6229 2918 Pls
6241 2931 Pls
6252 2925 Pls
6264 2915 Pls
6276 2909 Pls
6288 2915 Pls
6299 2917 Pls
6311 2923 Pls
6323 2905 Pls
6334 2913 Pls
6346 2988 Pls
6358 2941 Pls
6370 2937 Pls
6381 2927 Pls
6393 2914 Pls
6405 2919 Pls
6416 2947 Pls
6428 2929 Pls
6440 2915 Pls
6452 2902 Pls
6463 2923 Pls
6475 2995 Pls
6487 2906 Pls
6498 2941 Pls
6510 3227 Pls
6522 2935 Pls
6534 2937 Pls
6545 2929 Pls
6557 2919 Pls
6569 2917 Pls
6580 2930 Pls
6592 2921 Pls
6604 2918 Pls
6616 2917 Pls
6627 2918 Pls
6639 2917 Pls
6651 2921 Pls
6662 2925 Pls
6674 3222 Pls
6686 2961 Pls
6698 2948 Pls
6709 2938 Pls
6721 2918 Pls
6733 2937 Pls
6744 2926 Pls
6756 2917 Pls
6768 2915 Pls
6780 2917 Pls
6791 2922 Pls
LTw
% End plot #1
% Begin plot #2
1.000 UP
1.000 UL
LTb
LCb setrgbcolor
[] 0 setdash
0.00 0.62 0.45 C
958 3195 Crs
969 3094 Crs
981 3047 Crs
993 3037 Crs
1005 3020 Crs
1016 3014 Crs
1028 4423 Crs
1040 4129 Crs
1051 4428 Crs
1063 3043 Crs
1075 3027 Crs
1087 2990 Crs
1098 2988 Crs
1110 2990 Crs
1122 2992 Crs
1133 2985 Crs
1145 2982 Crs
1157 2981 Crs
1169 2992 Crs
1180 4407 Crs
1192 4414 Crs
1204 2996 Crs
1215 3002 Crs
1227 2992 Crs
1239 2978 Crs
1251 2990 Crs
1262 2978 Crs
1274 2988 Crs
1286 2986 Crs
1297 2994 Crs
1309 2992 Crs
1321 2990 Crs
1333 4578 Crs
1344 4036 Crs
1356 2995 Crs
1368 2997 Crs
1379 3000 Crs
1391 2970 Crs
1403 2986 Crs
1415 2972 Crs
1426 2983 Crs
1438 2981 Crs
1450 2981 Crs
1461 2982 Crs
1473 2978 Crs
1485 4561 Crs
1497 4056 Crs
1508 2989 Crs
1520 2990 Crs
1532 2982 Crs
1543 2970 Crs
1555 2970 Crs
1567 2976 Crs
1579 2992 Crs
1590 2981 Crs
1602 2967 Crs
1614 2976 Crs
1625 2993 Crs
1637 4380 Crs
1649 4051 Crs
1661 3007 Crs
1672 2996 Crs
1684 2982 Crs
1696 2984 Crs
1707 2976 Crs
1719 2976 Crs
1731 2979 Crs
1743 2973 Crs
1754 2993 Crs
1766 2979 Crs
1778 2976 Crs
1789 4364 Crs
1801 4217 Crs
1813 2985 Crs
1825 2976 Crs
1836 2991 Crs
1848 2970 Crs
1860 2995 Crs
1871 2988 Crs
1883 2970 Crs
1895 2972 Crs
1907 2975 Crs
1918 2992 Crs
1930 2988 Crs
1942 4412 Crs
1953 3891 Crs
1965 2990 Crs
1977 2989 Crs
1989 2982 Crs
2000 2964 Crs
2012 2989 Crs
2024 3053 Crs
2035 2987 Crs
2047 2961 Crs
2059 2981 Crs
2071 2980 Crs
2082 3339 Crs
2094 4215 Crs
2106 3502 Crs
2117 2994 Crs
2129 2989 Crs
2141 2968 Crs
2153 2973 Crs
2164 2973 Crs
2176 2981 Crs
2188 2971 Crs
2199 2977 Crs
2211 2979 Crs
2223 2976 Crs
2235 3511 Crs
2246 4206 Crs
2258 3205 Crs
2270 2998 Crs
2281 2978 Crs
2293 2987 Crs
2305 2979 Crs
2317 2990 Crs
2328 2982 Crs
2340 2983 Crs
2352 2979 Crs
2363 2990 Crs
2375 2982 Crs
2387 3520 Crs
2399 4217 Crs
2410 3206 Crs
2422 2998 Crs
2434 2989 Crs
2445 2982 Crs
2457 2998 Crs
2469 2993 Crs
2481 2973 Crs
2492 2987 Crs
2504 2977 Crs
2516 2971 Crs
2527 2989 Crs
2539 4606 Crs
2551 3723 Crs
2563 3867 Crs
2574 3062 Crs
2586 2974 Crs
2598 2995 Crs
2609 2973 Crs
2621 2973 Crs
2633 2976 Crs
2645 2982 Crs
2656 2991 Crs
2668 2982 Crs
2680 2979 Crs
2691 4366 Crs
2703 4391 Crs
2715 2976 Crs
2727 2960 Crs
2738 2976 Crs
2750 2952 Crs
2762 2965 Crs
2773 2962 Crs
2785 2956 Crs
2797 2960 Crs
2809 2963 Crs
2820 2968 Crs
2832 3005 Crs
2844 4192 Crs
2855 4324 Crs
2867 2998 Crs
2879 2976 Crs
2891 2969 Crs
2902 2967 Crs
2914 3012 Crs
2926 2966 Crs
2937 2960 Crs
2949 2964 Crs
2961 2961 Crs
2973 2976 Crs
2984 2969 Crs
2996 4198 Crs
3008 4354 Crs
3019 2976 Crs
3031 2970 Crs
3043 2959 Crs
3055 2971 Crs
3066 2966 Crs
3078 2992 Crs
3090 2961 Crs
3101 2971 Crs
3113 2978 Crs
3125 2971 Crs
3137 2975 Crs
3148 4162 Crs
3160 4381 Crs
3172 2980 Crs
3183 2972 Crs
3195 2960 Crs
3207 2967 Crs
3219 2973 Crs
3230 2953 Crs
3242 2964 Crs
3254 2950 Crs
3265 2960 Crs
3277 2963 Crs
3289 2979 Crs
3301 4012 Crs
3312 4329 Crs
3324 2987 Crs
3336 2966 Crs
3347 2987 Crs
3359 2977 Crs
3371 2947 Crs
3383 2958 Crs
3394 2976 Crs
3406 2960 Crs
3418 2967 Crs
3429 2966 Crs
3441 2961 Crs
3453 3850 Crs
3465 4193 Crs
3476 2987 Crs
3488 2982 Crs
3500 2971 Crs
3511 2974 Crs
3523 3032 Crs
3535 2951 Crs
3547 2962 Crs
3558 2977 Crs
3570 2960 Crs
3582 2963 Crs
3593 3002 Crs
3605 4345 Crs
3617 4350 Crs
3629 2990 Crs
3640 2971 Crs
3652 2970 Crs
3664 2963 Crs
3675 2960 Crs
3687 2967 Crs
3699 2967 Crs
3711 2957 Crs
3722 2956 Crs
3734 2968 Crs
3746 2964 Crs
3757 4196 Crs
3769 4357 Crs
3781 2999 Crs
3793 3053 Crs
3804 2971 Crs
3816 2969 Crs
3828 2955 Crs
3839 2976 Crs
3851 3042 Crs
3863 2969 Crs
3875 2964 Crs
3886 2973 Crs
3898 2961 Crs
3910 4176 Crs
3921 4363 Crs
3933 2976 Crs
3945 2963 Crs
3956 2972 Crs
3968 2954 Crs
3980 2973 Crs
3992 2942 Crs
4003 2970 Crs
4015 2969 Crs
4027 2965 Crs
4038 2972 Crs
4050 3460 Crs
4062 3912 Crs
4074 4251 Crs
4085 3925 Crs
4097 3432 Crs
4109 3578 Crs
4120 3411 Crs
4132 3359 Crs
4144 3225 Crs
4156 3037 Crs
4167 2972 Crs
4179 3181 Crs
4191 3748 Crs
4202 4468 Crs
4214 3873 Crs
4226 3373 Crs
4238 3188 Crs
4249 2960 Crs
4261 2973 Crs
4273 2961 Crs
4284 2973 Crs
4296 2966 Crs
4308 2966 Crs
4320 2957 Crs
4331 2963 Crs
4343 3852 Crs
4355 4356 Crs
4366 3002 Crs
4378 3027 Crs
4390 2966 Crs
4402 2975 Crs
4413 2954 Crs
4425 2960 Crs
4437 2972 Crs
4448 2962 Crs
4460 2977 Crs
4472 2961 Crs
4484 2947 Crs
4495 3666 Crs
4507 4203 Crs
4519 3008 Crs
4530 2958 Crs
4542 2990 Crs
4554 2973 Crs
4566 2978 Crs
4577 2975 Crs
4589 2976 Crs
4601 2960 Crs
4612 2952 Crs
4624 2959 Crs
4636 2961 Crs
4648 3659 Crs
4659 4158 Crs
4671 3183 Crs
4683 2977 Crs
4694 2953 Crs
4706 2968 Crs
4718 2957 Crs
4730 2972 Crs
4741 2961 Crs
4753 2954 Crs
4765 2976 Crs
4776 3021 Crs
4788 2978 Crs
4800 3504 Crs
4812 4215 Crs
4823 3183 Crs
4835 2967 Crs
4847 2966 Crs
4858 2968 Crs
4870 2971 Crs
4882 2963 Crs
4894 2955 Crs
4905 2959 Crs
4917 2961 Crs
4929 2969 Crs
4940 2978 Crs
4952 3506 Crs
4964 4143 Crs
4976 3192 Crs
4987 2961 Crs
4999 2969 Crs
5011 2973 Crs
5022 3041 Crs
5034 2972 Crs
5046 2959 Crs
5058 2960 Crs
5069 2971 Crs
5081 2969 Crs
5093 2981 Crs
5104 4045 Crs
5116 4369 Crs
5128 2994 Crs
5140 2966 Crs
5151 2960 Crs
5163 2970 Crs
5175 2960 Crs
5186 2970 Crs
5198 2940 Crs
5210 2966 Crs
5222 2970 Crs
5233 2966 Crs
5245 2970 Crs
5257 3867 Crs
5268 4185 Crs
5280 3007 Crs
5292 2985 Crs
5304 2967 Crs
5315 3031 Crs
5327 2959 Crs
5339 2975 Crs
5350 2957 Crs
5362 2968 Crs
5374 2959 Crs
5386 2972 Crs
5397 2971 Crs
5409 3893 Crs
5421 4372 Crs
5432 3003 Crs
5444 2971 Crs
5456 2963 Crs
5468 2963 Crs
5479 2960 Crs
5491 2952 Crs
5503 2981 Crs
5514 2955 Crs
5526 2958 Crs
5538 2954 Crs
5550 2966 Crs
5561 3676 Crs
5573 4006 Crs
5585 3995 Crs
5596 3002 Crs
5608 2965 Crs
5620 2973 Crs
5632 2967 Crs
5643 2968 Crs
5655 2979 Crs
5667 2971 Crs
5678 2963 Crs
5690 2961 Crs
5702 2966 Crs
5714 4707 Crs
5725 4217 Crs
5737 3030 Crs
5749 2960 Crs
5760 2968 Crs
5772 2972 Crs
5784 2958 Crs
5796 2992 Crs
5807 2957 Crs
5819 2979 Crs
5831 2947 Crs
5842 2959 Crs
5854 2957 Crs
5866 4379 Crs
5878 4186 Crs
5889 2976 Crs
5901 2973 Crs
5913 2961 Crs
5924 2975 Crs
5936 2994 Crs
5948 2964 Crs
5960 2973 Crs
5971 2979 Crs
5983 2961 Crs
5995 2978 Crs
6006 2977 Crs
6018 4392 Crs
6030 4187 Crs
6042 3059 Crs
6053 2967 Crs
6065 2966 Crs
6077 2959 Crs
6088 2963 Crs
6100 2953 Crs
6112 2964 Crs
6124 2973 Crs
6135 2969 Crs
6147 2950 Crs
6159 2966 Crs
6170 4347 Crs
6182 4321 Crs
6194 2982 Crs
6206 2971 Crs
6217 2960 Crs
6229 2963 Crs
6241 2958 Crs
6252 2968 Crs
6264 2956 Crs
6276 2989 Crs
6288 2948 Crs
6299 2966 Crs
6311 2962 Crs
6323 4164 Crs
6334 4340 Crs
6346 2982 Crs
6358 2971 Crs
6370 2972 Crs
6381 2948 Crs
6393 2957 Crs
6405 2956 Crs
6416 2945 Crs
6428 2976 Crs
6440 2970 Crs
6452 2949 Crs
6463 2976 Crs
6475 3968 Crs
6487 4337 Crs
6498 2992 Crs
6510 2954 Crs
6522 2966 Crs
6534 2979 Crs
6545 2977 Crs
6557 2959 Crs
6569 2947 Crs
6580 2974 Crs
6592 2958 Crs
6604 2966 Crs
6616 2954 Crs
6627 3864 Crs
6639 4174 Crs
6651 2993 Crs
6662 2952 Crs
6674 2947 Crs
6686 2967 Crs
6698 2971 Crs
6709 2954 Crs
6721 2968 Crs
6733 2952 Crs
6744 2967 Crs
6756 2976 Crs
6768 2983 Crs
6780 3679 Crs
6791 4153 Crs
LTw
% End plot #2
% Begin plot #3
1.000 UP
1.000 UL
LTb
LCb setrgbcolor
[] 0 setdash
0.34 0.71 0.91 C
958 3260 Star
969 3176 Star
981 3206 Star
993 3108 Star
1005 3076 Star
1016 3062 Star
1028 3348 Star
1040 3084 Star
1051 3036 Star
1063 3006 Star
1075 3084 Star
1087 3054 Star
1098 3032 Star
1110 3056 Star
1122 3015 Star
1133 3079 Star
1145 3024 Star
1157 3027 Star
1169 4472 Star
1180 3322 Star
1192 3318 Star
1204 3019 Star
1215 3008 Star
1227 3046 Star
1239 3027 Star
1251 3034 Star
1262 3057 Star
1274 3058 Star
1286 3099 Star
1297 3063 Star
1309 3054 Star
1321 3030 Star
1333 3041 Star
1344 3064 Star
1356 3037 Star
1368 3030 Star
1379 3013 Star
1391 3067 Star
1403 3060 Star
1415 3057 Star
1426 3041 Star
1438 3062 Star
1450 3040 Star
1461 3044 Star
1473 3001 Star
1485 2995 Star
1497 2995 Star
1508 3034 Star
1520 3023 Star
1532 3011 Star
1543 3014 Star
1555 2989 Star
1567 2991 Star
1579 2992 Star
1590 3024 Star
1602 3006 Star
1614 2996 Star
1625 3003 Star
1637 2998 Star
1649 3008 Star
1661 2999 Star
1672 3021 Star
1684 3008 Star
1696 3005 Star
1707 3017 Star
1719 2997 Star
1731 2986 Star
1743 3008 Star
1754 2996 Star
1766 3000 Star
1778 3002 Star
1789 2987 Star
1801 3006 Star
1813 2999 Star
1825 2987 Star
1836 2995 Star
1848 3001 Star
1860 3001 Star
1871 3014 Star
1883 2992 Star
1895 2987 Star
1907 3047 Star
1918 2986 Star
1930 3002 Star
1942 3012 Star
1953 2986 Star
1965 2986 Star
1977 3008 Star
1989 2993 Star
2000 2998 Star
2012 3024 Star
2024 3090 Star
2035 3000 Star
2047 2979 Star
2059 2994 Star
2071 3034 Star
2082 2994 Star
2094 2993 Star
2106 2996 Star
2117 2996 Star
2129 2997 Star
2141 2992 Star
2153 3002 Star
2164 3000 Star
2176 3018 Star
2188 2996 Star
2199 2981 Star
2211 2979 Star
2223 2995 Star
2235 2981 Star
2246 2995 Star
2258 3005 Star
2270 2981 Star
2281 3011 Star
2293 3000 Star
2305 2997 Star
2317 4176 Star
2328 3111 Star
2340 3023 Star
2352 3019 Star
2363 3047 Star
2375 3004 Star
2387 2994 Star
2399 3002 Star
2410 2993 Star
2422 3007 Star
2434 2979 Star
2445 3008 Star
2457 2988 Star
2469 3011 Star
2481 3007 Star
2492 3044 Star
2504 3037 Star
2516 3020 Star
2527 3014 Star
2539 3005 Star
2551 3005 Star
2563 2984 Star
2574 3016 Star
2586 2994 Star
2598 3003 Star
2609 2997 Star
2621 3002 Star
2633 2998 Star
2645 3013 Star
2656 3032 Star
2668 3011 Star
2680 3005 Star
2691 2983 Star
2703 2985 Star
2715 2997 Star
2727 2979 Star
2738 3001 Star
2750 3002 Star
2762 3007 Star
2773 3000 Star
2785 3006 Star
2797 3011 Star
2809 3022 Star
2820 3010 Star
2832 3019 Star
2844 3021 Star
2855 3018 Star
2867 3008 Star
2879 2988 Star
2891 3001 Star
2902 3014 Star
2914 2982 Star
2926 2997 Star
2937 2975 Star
2949 2995 Star
2961 3003 Star
2973 3005 Star
2984 3030 Star
2996 3001 Star
3008 2985 Star
3019 3005 Star
3031 2999 Star
3043 2992 Star
3055 2996 Star
3066 2989 Star
3078 3005 Star
3090 2995 Star
3101 3001 Star
3113 2998 Star
3125 3011 Star
3137 3017 Star
3148 3029 Star
3160 3006 Star
3172 2996 Star
3183 2998 Star
3195 2998 Star
3207 2992 Star
3219 2997 Star
3230 3007 Star
3242 2992 Star
3254 2992 Star
3265 2989 Star
3277 2997 Star
3289 2990 Star
3301 3027 Star
3312 3030 Star
3324 3004 Star
3336 2973 Star
3347 2972 Star
3359 2995 Star
3371 2988 Star
3383 2996 Star
3394 2980 Star
3406 3008 Star
3418 3000 Star
3429 3023 Star
3441 2992 Star
3453 3008 Star
3465 3019 Star
3476 3027 Star
3488 2992 Star
3500 2983 Star
3511 3030 Star
3523 3203 Star
3535 3000 Star
3547 3005 Star
3558 3005 Star
3570 2995 Star
3582 2992 Star
3593 2998 Star
3605 3010 Star
3617 3025 Star
3629 3022 Star
3640 3017 Star
3652 3014 Star
3664 2992 Star
3675 2983 Star
3687 3005 Star
3699 2997 Star
3711 2986 Star
3722 2979 Star
3734 3005 Star
3746 2990 Star
3757 3068 Star
3769 3013 Star
3781 3015 Star
3793 3008 Star
3804 3163 Star
3816 3005 Star
3828 2997 Star
3839 3007 Star
3851 2982 Star
3863 3002 Star
3875 2982 Star
3886 2994 Star
3898 2989 Star
3910 3002 Star
3921 2989 Star
3945 3079 Star
3956 3024 Star
3968 3024 Star
3980 2984 Star
3992 2998 Star
4003 3002 Star
4015 2989 Star
4027 3001 Star
4038 2982 Star
4050 2995 Star
4062 2987 Star
4074 2982 Star
4085 3002 Star
4097 3023 Star
4109 3014 Star
4120 3038 Star
4132 3003 Star
4144 3003 Star
4156 2989 Star
4167 3001 Star
4179 2995 Star
4191 2985 Star
4202 2991 Star
4214 2998 Star
4226 2998 Star
4238 3043 Star
4249 3002 Star
4261 3015 Star
4273 3002 Star
4284 3006 Star
4296 3005 Star
4308 2987 Star
4320 2998 Star
4331 3003 Star
4343 3012 Star
4355 2998 Star
4366 2982 Star
4378 2988 Star
4390 2999 Star
4402 2995 Star
4413 2986 Star
4425 3008 Star
4437 3013 Star
4448 3014 Star
4460 2990 Star
4472 3008 Star
4484 2980 Star
4495 2992 Star
4507 2995 Star
4519 3002 Star
4530 3003 Star
4542 2989 Star
4554 2986 Star
4566 2984 Star
4577 2983 Star
4589 3038 Star
4601 2994 Star
4612 3020 Star
4624 2986 Star
4636 2984 Star
4648 2990 Star
4659 2998 Star
4671 2982 Star
4683 2988 Star
4694 2987 Star
4706 2982 Star
4718 2996 Star
4730 2988 Star
4741 2970 Star
4753 3011 Star
4765 3038 Star
4776 3004 Star
4788 2996 Star
4800 2970 Star
4812 2995 Star
4823 2992 Star
4835 2989 Star
4847 2992 Star
4858 2979 Star
4870 2988 Star
4882 2973 Star
4894 2991 Star
4905 3010 Star
4917 3015 Star
4929 3011 Star
4940 3006 Star
4952 3003 Star
4964 3002 Star
4976 2984 Star
4987 2996 Star
4999 3002 Star
5011 2991 Star
5022 3046 Star
5034 2986 Star
5046 3012 Star
5058 2994 Star
5069 3001 Star
5081 3013 Star
5093 3019 Star
5104 2997 Star
5116 2987 Star
5128 2987 Star
5140 2991 Star
5151 2976 Star
5163 2995 Star
5175 2982 Star
5186 2992 Star
5198 2999 Star
5210 2986 Star
5222 3002 Star
5233 3007 Star
5245 3021 Star
5257 2998 Star
5268 2973 Star
5280 2979 Star
5292 2995 Star
5304 3001 Star
5315 3045 Star
5327 2992 Star
5339 3010 Star
5350 2994 Star
5362 2997 Star
5374 2978 Star
5386 3002 Star
5397 3009 Star
5409 3011 Star
5421 3020 Star
5432 2991 Star
5444 2986 Star
5456 2982 Star
5468 2995 Star
5479 2986 Star
5491 3003 Star
5503 2986 Star
5514 2995 Star
5526 3007 Star
5538 2981 Star
5550 3040 Star
5561 3101 Star
5573 2997 Star
5585 3020 Star
5596 2995 Star
5608 3006 Star
5620 3018 Star
5632 2996 Star
5643 2996 Star
5655 2982 Star
5667 2995 Star
5678 3001 Star
5690 2988 Star
5702 2996 Star
5714 2995 Star
5725 3012 Star
5737 3028 Star
5749 3000 Star
5760 3006 Star
5772 2989 Star
5784 3006 Star
5796 2990 Star
5807 2992 Star
5819 3046 Star
5831 3006 Star
5842 3094 Star
5854 2998 Star
5866 3012 Star
5878 3009 Star
5889 3010 Star
5901 3037 Star
5913 3010 Star
5924 2989 Star
5936 2992 Star
5948 2997 Star
5960 2993 Star
5971 2989 Star
5983 2987 Star
5995 2993 Star
6006 3006 Star
6018 2985 Star
6030 2981 Star
6042 3012 Star
6053 3016 Star
6065 3029 Star
6077 3037 Star
6088 2990 Star
6100 2973 Star
6112 2988 Star
6124 3007 Star
6135 3055 Star
6147 2988 Star
6159 2988 Star
6170 3017 Star
6182 2998 Star
6194 2996 Star
6206 2992 Star
6217 3004 Star
6229 3018 Star
6241 2984 Star
6252 2998 Star
6264 2986 Star
6276 3004 Star
6288 2998 Star
6299 2992 Star
6311 2993 Star
6323 2995 Star
6334 2988 Star
6346 2997 Star
6358 2983 Star
6370 3010 Star
6381 3017 Star
6393 3011 Star
6405 3007 Star
6416 2985 Star
6428 2982 Star
6440 3001 Star
6452 2986 Star
6463 2996 Star
6475 2998 Star
6487 3000 Star
6498 2986 Star
6510 3008 Star
6522 2988 Star
6534 3023 Star
6545 3008 Star
6557 3025 Star
6569 3059 Star
6580 2982 Star
6592 2986 Star
6604 2998 Star
6616 2992 Star
6627 2999 Star
6639 2995 Star
6651 3003 Star
6662 2970 Star
6674 2990 Star
6686 2979 Star
6698 3021 Star
6709 2998 Star
6721 3016 Star
6733 3009 Star
6744 2992 Star
6756 2997 Star
6768 2994 Star
6780 2991 Star
6791 2997 Star
LTw
% End plot #3
% Begin plot #4
1.000 UP
1.000 UL
LTb
LCb setrgbcolor
[] 0 setdash
0.90 0.62 0.00 C
958 3598 Box
969 3434 Box
981 4283 Box
993 3455 Box
1005 3840 Box
1016 3349 Box
1028 3565 Box
1040 3197 Box
1051 3093 Box
1063 3101 Box
1075 3101 Box
1087 3098 Box
1098 3718 Box
1110 3560 Box
1122 3150 Box
1133 3154 Box
1145 3106 Box
1157 3162 Box
1169 3128 Box
1180 3123 Box
1192 3136 Box
1204 3112 Box
1215 3855 Box
1227 3465 Box
1239 3168 Box
1251 3155 Box
1262 3089 Box
1274 3069 Box
1286 3085 Box
1297 3066 Box
1309 3059 Box
1321 3050 Box
1333 3831 Box
1344 3527 Box
1356 3133 Box
1368 3197 Box
1379 3086 Box
1391 3085 Box
1403 3111 Box
1415 3075 Box
1426 3085 Box
1438 3090 Box
1450 3940 Box
1461 3275 Box
1473 3107 Box
1485 3077 Box
1497 3076 Box
1508 3097 Box
1520 3085 Box
1532 3083 Box
1543 3074 Box
1555 3056 Box
1567 3570 Box
1579 3309 Box
1590 3084 Box
1602 3058 Box
1614 3092 Box
1625 3120 Box
1637 3091 Box
1649 3072 Box
1661 3083 Box
1672 3112 Box
1684 3757 Box
1696 3323 Box
1707 3094 Box
1719 3063 Box
1731 3059 Box
1743 3068 Box
1754 3073 Box
1766 3378 Box
1778 3098 Box
1789 3069 Box
1801 3676 Box
1813 3546 Box
1825 3112 Box
1836 3090 Box
1848 3084 Box
1860 3181 Box
1871 3088 Box
1883 3134 Box
1895 3157 Box
1907 3121 Box
1918 3547 Box
1930 3371 Box
1942 3135 Box
1953 3112 Box
1965 3118 Box
1977 3104 Box
1989 3090 Box
2000 3091 Box
2012 3082 Box
2024 3171 Box
2035 3706 Box
2047 3152 Box
2059 3085 Box
2071 3084 Box
2082 3085 Box
2094 3082 Box
2106 3080 Box
2117 3064 Box
2129 3065 Box
2141 3072 Box
2153 3187 Box
2164 3087 Box
2176 3077 Box
2188 3071 Box
2199 3072 Box
2211 3046 Box
2223 3075 Box
2235 3069 Box
2246 3056 Box
2258 3061 Box
2270 3501 Box
2281 3520 Box
2293 3190 Box
2305 3152 Box
2317 3051 Box
2328 3041 Box
2340 3037 Box
2352 3035 Box
2363 3043 Box
2375 3061 Box
2387 3543 Box
2399 3351 Box
2410 3062 Box
2422 3056 Box
2434 3060 Box
2445 3061 Box
2457 3046 Box
2469 3067 Box
2481 3079 Box
2492 3074 Box
2504 3165 Box
2516 3063 Box
2527 3052 Box
2539 3069 Box
2551 3067 Box
2563 3076 Box
2574 3062 Box
2586 3051 Box
2598 3049 Box
2609 3069 Box
2621 3358 Box
2633 3445 Box
2645 3116 Box
2656 3071 Box
2668 3058 Box
2680 3056 Box
2691 3051 Box
2703 3058 Box
2715 3060 Box
2727 3066 Box
2738 3543 Box
2750 3689 Box
2762 3098 Box
2773 3048 Box
2785 3046 Box
2797 3050 Box
2809 3037 Box
2820 3018 Box
2832 3050 Box
2844 3041 Box
2855 3464 Box
2867 3347 Box
2879 3036 Box
2891 3046 Box
2902 3044 Box
2914 3038 Box
2926 3034 Box
2937 3040 Box
2949 3045 Box
2961 3038 Box
2973 3373 Box
2984 3165 Box
2996 3039 Box
3008 3043 Box
3019 3053 Box
3031 3041 Box
3043 3040 Box
3055 3071 Box
3066 3043 Box
3078 3045 Box
3090 3463 Box
3101 3306 Box
3113 3050 Box
3125 3040 Box
3137 3043 Box
3148 3040 Box
3160 3045 Box
3172 3037 Box
3183 3037 Box
3195 3044 Box
3207 3201 Box
3219 3065 Box
3230 3047 Box
3242 3041 Box
3254 3057 Box
3265 3054 Box
3277 3046 Box
3289 3054 Box
3301 3046 Box
3312 3045 Box
3324 3419 Box
3336 3434 Box
3347 3092 Box
3359 3063 Box
3371 3030 Box
3383 3037 Box
3394 3037 Box
3406 3039 Box
3418 3034 Box
3429 3028 Box
3441 3392 Box
3453 3353 Box
3465 3053 Box
3476 3018 Box
3488 3032 Box
3500 3037 Box
3511 3031 Box
3523 3062 Box
3535 3040 Box
3547 3047 Box
3558 3546 Box
3570 3282 Box
3582 3050 Box
3593 3030 Box
3605 3037 Box
3617 3033 Box
3629 3039 Box
3640 3045 Box
3652 3046 Box
3664 3020 Box
3675 3456 Box
3687 3309 Box
3699 3050 Box
3711 3037 Box
3722 3034 Box
3734 3035 Box
3746 3053 Box
3757 3037 Box
3769 3024 Box
3781 3048 Box
3793 3447 Box
3804 3391 Box
3816 3040 Box
3828 3019 Box
3839 3031 Box
3851 3045 Box
3863 3027 Box
3875 3027 Box
3886 3028 Box
3898 3048 Box
3910 3351 Box
3921 3239 Box
3933 3034 Box
3945 3027 Box
3956 3034 Box
3968 3043 Box
3980 3044 Box
3992 3029 Box
4003 3043 Box
4015 3040 Box
4027 3572 Box
4038 3261 Box
4050 3030 Box
4062 3042 Box
4074 3029 Box
4085 3042 Box
4097 3015 Box
4109 3043 Box
4120 3038 Box
4132 3047 Box
4144 3509 Box
4156 3410 Box
4167 3070 Box
4179 3059 Box
4191 3063 Box
4202 3042 Box
4214 3066 Box
4226 3044 Box
4238 3058 Box
4249 3059 Box
4261 3486 Box
4273 3343 Box
4284 3065 Box
4296 3059 Box
4308 3062 Box
4320 3059 Box
4331 3057 Box
4343 3087 Box
4355 3044 Box
4366 3056 Box
4378 3457 Box
4390 3373 Box
4402 3030 Box
4413 3034 Box
4425 3031 Box
4437 3024 Box
4448 3025 Box
4460 3030 Box
4472 3034 Box
4484 3035 Box
4495 3112 Box
4507 3052 Box
4519 3041 Box
4530 3025 Box
4542 3045 Box
4554 3064 Box
4566 3021 Box
4577 3037 Box
4589 3037 Box
4601 3022 Box
4612 3368 Box
4624 3334 Box
4636 3097 Box
4648 3037 Box
4659 3044 Box
4671 3036 Box
4683 3024 Box
4694 3021 Box
4706 3021 Box
4718 3026 Box
4730 3155 Box
4741 3031 Box
4753 3032 Box
4765 3026 Box
4776 3043 Box
4788 3033 Box
4800 3039 Box
4812 3037 Box
4823 3038 Box
4835 3034 Box
4847 3533 Box
4858 3506 Box
4870 3079 Box
4882 3063 Box
4894 3047 Box
4905 3023 Box
4917 3035 Box
4929 3043 Box
4940 3043 Box
4952 3037 Box
4964 3139 Box
4976 3040 Box
4987 3053 Box
4999 3030 Box
5011 3042 Box
5022 3066 Box
5034 3038 Box
5046 3039 Box
5058 3021 Box
5069 3038 Box
5081 3383 Box
5093 3418 Box
5104 3080 Box
5116 3028 Box
5128 3019 Box
5140 3024 Box
5151 3037 Box
5163 3036 Box
5175 3032 Box
5186 3039 Box
5198 3200 Box
5210 3032 Box
5222 3045 Box
5233 3021 Box
5245 3053 Box
5257 3030 Box
5268 3036 Box
5280 3043 Box
5292 3022 Box
5304 3023 Box
5315 3412 Box
5327 3444 Box
5339 3118 Box
5350 3047 Box
5362 3018 Box
5374 3030 Box
5386 3030 Box
5397 3018 Box
5409 3024 Box
5421 3033 Box
5432 3099 Box
5444 3030 Box
5456 3022 Box
5468 3024 Box
5479 3016 Box
5491 3016 Box
5503 3034 Box
5514 3014 Box
5526 3045 Box
5538 3027 Box
5550 3409 Box
5561 3557 Box
5573 3124 Box
5585 3030 Box
5596 3020 Box
5608 3025 Box
5620 3015 Box
5632 3021 Box
5643 3025 Box
5655 3015 Box
5667 3248 Box
5678 3050 Box
5690 3040 Box
5702 3049 Box
5714 3054 Box
5725 3041 Box
5737 3036 Box
5749 3047 Box
5760 3047 Box
5772 3040 Box
5784 3475 Box
5796 3449 Box
5807 3094 Box
5819 3072 Box
5831 3045 Box
5842 3043 Box
5854 3058 Box
5866 3058 Box
5878 3049 Box
5889 3056 Box
5901 3149 Box
5913 3041 Box
5924 3051 Box
5936 3053 Box
5948 3046 Box
5960 3075 Box
5971 3047 Box
5983 3078 Box
5995 3044 Box
6006 3043 Box
6018 3376 Box
6030 3547 Box
6042 3130 Box
6053 3085 Box
6065 3058 Box
6077 3040 Box
6088 3040 Box
6100 3049 Box
6112 3041 Box
6124 3039 Box
6135 3162 Box
6147 3067 Box
6159 3047 Box
6170 3042 Box
6182 3060 Box
6194 3043 Box
6206 3054 Box
6217 3046 Box
6229 3042 Box
6241 3044 Box
6252 3456 Box
6264 3486 Box
6276 3094 Box
6288 3062 Box
6299 3030 Box
6311 3024 Box
6323 3038 Box
6334 3037 Box
6346 3039 Box
6358 3037 Box
6370 3325 Box
6381 3313 Box
6393 3041 Box
6405 3017 Box
6416 3036 Box
6428 3039 Box
6440 3029 Box
6452 3030 Box
6463 3028 Box
6475 3044 Box
6487 3492 Box
6498 3287 Box
6510 3059 Box
6522 3040 Box
6534 3038 Box
6545 3027 Box
6557 3028 Box
6569 3029 Box
6580 3039 Box
6592 3033 Box
6604 3491 Box
6616 3366 Box
6627 3050 Box
6639 3050 Box
6651 3046 Box
6662 3046 Box
6674 3044 Box
6686 3030 Box
6698 3047 Box
6709 3046 Box
6721 3356 Box
6733 3325 Box
6744 3061 Box
6756 3028 Box
6768 3032 Box
6780 3075 Box
6791 3026 Box
LTw
% End plot #4
LCw setrgbcolor
1.000 4661 3711 2010 1045 BoxColFill
1.000 UL
LTb
LCb setrgbcolor
[] 0 setdash
4661 3711 N
0 1045 V
2010 0 V
0 -1045 V
-2010 0 V
Z stroke
% Begin plot #5
1.000 UP
1.000 UL
LTb
0.58 0.00 0.83 C
LCb setrgbcolor
1.000 UP
1.000 UL
LTb
0.58 0.00 0.83 C
6243 4563 Pls
LTw
% End plot #5
% Begin plot #6
1.000 UP
1.000 UL
LTb
LCb setrgbcolor
[] 0 setdash
0.00 0.62 0.45 C
LCb setrgbcolor
1.000 UP
1.000 UL
LTb
0.00 0.62 0.45 C
6243 4343 Crs
LTw
% End plot #6
% Begin plot #7
1.000 UP
1.000 UL
LTb
LCb setrgbcolor
[] 0 setdash
0.34 0.71 0.91 C
LCb setrgbcolor
1.000 UP
1.000 UL
LTb
0.34 0.71 0.91 C
6243 4123 Star
LTw
% End plot #7
% Begin plot #8
1.000 UP
1.000 UL
LTb
LCb setrgbcolor
[] 0 setdash
0.90 0.62 0.00 C
LCb setrgbcolor
1.000 UP
1.000 UL
LTb
0.90 0.62 0.00 C
6243 3903 Box
LTw
% End plot #8
2.000 UL
LTb
LCb setrgbcolor
[] 0 setdash
1.000 UL
LTb
946 4819 N
946 704 L
5857 0 V
0 4115 V
-5857 0 V
Z stroke
1.000 UP
1.000 UL
LTb
1.000 UL
LTb
0.500 UL
LTa
LCa setrgbcolor
946 704 M
5857 0 V
stroke
1.000 UL
LTb
LCb setrgbcolor
[] 0 setdash
946 704 M
63 0 V
5794 0 R
-63 0 V
stroke
LTb
0.500 UL
LTa
LCa setrgbcolor
946 1116 M
5857 0 V
stroke
1.000 UL
LTb
LCb setrgbcolor
[] 0 setdash
946 1116 M
63 0 V
5794 0 R
-63 0 V
stroke
LTb
0.500 UL
LTa
LCa setrgbcolor
946 1527 M
5857 0 V
stroke
1.000 UL
LTb
LCb setrgbcolor
[] 0 setdash
946 1527 M
63 0 V
5794 0 R
-63 0 V
stroke
LTb
0.500 UL
LTa
LCa setrgbcolor
946 1939 M
5857 0 V
stroke
1.000 UL
LTb
LCb setrgbcolor
[] 0 setdash
946 1939 M
63 0 V
5794 0 R
-63 0 V
stroke
LTb
0.500 UL
LTa
LCa setrgbcolor
946 2350 M
5857 0 V
stroke
1.000 UL
LTb
LCb setrgbcolor
[] 0 setdash
946 2350 M
63 0 V
5794 0 R
-63 0 V
stroke
LTb
0.500 UL
LTa
LCa setrgbcolor
946 2762 M
5857 0 V
stroke
1.000 UL
LTb
LCb setrgbcolor
[] 0 setdash
946 2762 M
63 0 V
5794 0 R
-63 0 V
stroke
LTb
0.500 UL
LTa
LCa setrgbcolor
946 3173 M
5857 0 V
stroke
1.000 UL
LTb
LCb setrgbcolor
[] 0 setdash
946 3173 M
63 0 V
5794 0 R
-63 0 V
stroke
LTb
0.500 UL
LTa
LCa setrgbcolor
946 3585 M
5857 0 V
stroke
1.000 UL
LTb
LCb setrgbcolor
[] 0 setdash
946 3585 M
63 0 V
5794 0 R
-63 0 V
stroke
LTb
0.500 UL
LTa
LCa setrgbcolor
946 3996 M
3715 0 V
2010 0 R
132 0 V
stroke
1.000 UL
LTb
LCb setrgbcolor
[] 0 setdash
946 3996 M
63 0 V
5794 0 R
-63 0 V
stroke
LTb
0.500 UL
LTa
LCa setrgbcolor
946 4408 M
3715 0 V
2010 0 R
132 0 V
stroke
1.000 UL
LTb
LCb setrgbcolor
[] 0 setdash
946 4408 M
63 0 V
5794 0 R
-63 0 V
stroke
LTb
0.500 UL
LTa
LCa setrgbcolor
946 4819 M
5857 0 V
stroke
1.000 UL
LTb
LCb setrgbcolor
[] 0 setdash
946 4819 M
63 0 V
5794 0 R
-63 0 V
stroke
LTb
0.500 UL
LTa
LCa setrgbcolor
946 704 M
0 4115 V
stroke
1.000 UL
LTb
LCb setrgbcolor
[] 0 setdash
946 704 M
0 63 V
0 4052 R
0 -63 V
stroke
LTb
0.500 UL
LTa
LCa setrgbcolor
2117 704 M
0 4115 V
stroke
1.000 UL
LTb
LCb setrgbcolor
[] 0 setdash
2117 704 M
0 63 V
0 4052 R
0 -63 V
stroke
LTb
0.500 UL
LTa
LCa setrgbcolor
3289 704 M
0 4115 V
stroke
1.000 UL
LTb
LCb setrgbcolor
[] 0 setdash
3289 704 M
0 63 V
0 4052 R
0 -63 V
stroke
LTb
0.500 UL
LTa
LCa setrgbcolor
4460 704 M
0 4115 V
stroke
1.000 UL
LTb
LCb setrgbcolor
[] 0 setdash
4460 704 M
0 63 V
0 4052 R
0 -63 V
stroke
LTb
0.500 UL
LTa
LCa setrgbcolor
5632 704 M
0 3007 V
0 1045 R
0 63 V
stroke
1.000 UL
LTb
LCb setrgbcolor
[] 0 setdash
5632 704 M
0 63 V
0 4052 R
0 -63 V
stroke
LTb
0.500 UL
LTa
LCa setrgbcolor
6803 704 M
0 4115 V
stroke
1.000 UL
LTb
LCb setrgbcolor
[] 0 setdash
6803 704 M
0 63 V
0 4052 R
0 -63 V
stroke
LTb
1.000 UL
LTb
946 4819 N
946 704 L
5857 0 V
0 4115 V
-5857 0 V
Z stroke
1.000 UP
1.000 UL
LTb
1.000 UL
LTb
4661 3711 N
0 1045 V
2010 0 V
0 -1045 V
-2010 0 V
Z stroke
% Begin plot #1
1.000 UP
1.000 UL
LTb
0.58 0.00 0.83 C
946 1354 Pls
958 1247 Pls
969 1234 Pls
981 1241 Pls
993 1225 Pls
1005 1247 Pls
1016 1221 Pls
1028 1217 Pls
1040 1220 Pls
1051 1221 Pls
1063 1217 Pls
1075 1215 Pls
1087 1214 Pls
1098 1216 Pls
1110 1219 Pls
1122 1216 Pls
1133 1213 Pls
1145 1217 Pls
1157 1219 Pls
1169 1232 Pls
1180 1217 Pls
1192 1215 Pls
1204 1218 Pls
1215 1215 Pls
1227 1211 Pls
1239 1215 Pls
1251 1217 Pls
1262 1213 Pls
1274 1214 Pls
1286 1216 Pls
1297 1212 Pls
1309 1219 Pls
1321 1220 Pls
1333 3226 Pls
1344 1251 Pls
1356 1226 Pls
1368 1214 Pls
1379 1224 Pls
1391 1217 Pls
1403 1214 Pls
1415 1212 Pls
1426 1217 Pls
1438 1215 Pls
1450 1218 Pls
1461 1210 Pls
1473 1208 Pls
1485 1205 Pls
1497 1210 Pls
1508 1208 Pls
1520 1209 Pls
1532 1204 Pls
1543 1207 Pls
1555 1209 Pls
1567 1211 Pls
1579 1209 Pls
1590 1208 Pls
1602 1206 Pls
1614 1210 Pls
1625 1212 Pls
1637 1207 Pls
1649 1205 Pls
1661 1208 Pls
1672 1213 Pls
1684 1208 Pls
1696 1209 Pls
1707 1208 Pls
1719 1211 Pls
1731 1212 Pls
1743 1209 Pls
1754 1215 Pls
1766 1211 Pls
1778 1200 Pls
1789 1208 Pls
1801 1215 Pls
1813 1215 Pls
1825 1208 Pls
1836 1210 Pls
1848 1214 Pls
1860 1222 Pls
1871 1210 Pls
1883 1212 Pls
1895 1231 Pls
1907 1213 Pls
1918 1205 Pls
1930 1214 Pls
1942 1209 Pls
1953 1208 Pls
1965 1207 Pls
1977 1207 Pls
1989 1215 Pls
2000 1207 Pls
2012 1207 Pls
2024 1224 Pls
2035 1215 Pls
2047 1212 Pls
2059 1238 Pls
2071 1216 Pls
2082 1212 Pls
2094 1210 Pls
2106 1210 Pls
2117 1213 Pls
2129 1207 Pls
2141 1208 Pls
2153 1215 Pls
2164 1212 Pls
2176 1206 Pls
2188 1215 Pls
2199 1211 Pls
2211 1209 Pls
2223 1250 Pls
2235 1212 Pls
2246 1214 Pls
2258 1214 Pls
2270 1215 Pls
2281 1218 Pls
2293 1211 Pls
2305 1210 Pls
2317 1218 Pls
2328 1211 Pls
2340 1216 Pls
2352 1216 Pls
2363 1210 Pls
2375 1213 Pls
2387 1208 Pls
2399 1220 Pls
2410 1212 Pls
2422 1218 Pls
2434 1206 Pls
2445 1216 Pls
2457 1214 Pls
2469 1215 Pls
2481 1212 Pls
2492 1215 Pls
2504 1215 Pls
2516 1214 Pls
2527 1210 Pls
2539 1213 Pls
2551 1215 Pls
2563 1218 Pls
2574 1218 Pls
2586 1213 Pls
2598 1216 Pls
2609 1215 Pls
2621 1212 Pls
2633 1208 Pls
2645 1213 Pls
2656 1214 Pls
2668 1212 Pls
2680 1215 Pls
2691 1205 Pls
2703 1217 Pls
2715 1216 Pls
2727 1231 Pls
2738 1218 Pls
2750 1212 Pls
2762 1213 Pls
2773 1209 Pls
2785 1213 Pls
2797 1212 Pls
2809 1213 Pls
2820 1209 Pls
2832 1213 Pls
2844 1215 Pls
2855 1211 Pls
2867 1212 Pls
2879 1213 Pls
2891 1631 Pls
2902 1234 Pls
2914 1225 Pls
2926 1231 Pls
2937 1218 Pls
2949 1221 Pls
2961 1224 Pls
2973 1218 Pls
2984 1219 Pls
2996 1215 Pls
3008 1662 Pls
3019 1217 Pls
3031 1214 Pls
3043 1212 Pls
3055 1211 Pls
3066 1221 Pls
3078 1218 Pls
3090 1224 Pls
3101 1213 Pls
3113 1209 Pls
3125 1205 Pls
3137 1209 Pls
3148 1215 Pls
3160 1212 Pls
3172 1489 Pls
3183 1218 Pls
3195 1214 Pls
3207 1212 Pls
3219 1209 Pls
3230 1209 Pls
3242 1212 Pls
3254 1211 Pls
3265 1215 Pls
3277 1213 Pls
3289 1209 Pls
3301 1214 Pls
3312 1215 Pls
3324 1212 Pls
3336 1211 Pls
3347 1224 Pls
3359 1218 Pls
3371 1219 Pls
3383 1215 Pls
3394 1209 Pls
3406 1214 Pls
3418 1208 Pls
3429 1211 Pls
3441 1213 Pls
3453 1215 Pls
3465 1210 Pls
3476 1209 Pls
3488 1209 Pls
3500 1214 Pls
3511 1213 Pls
3523 1221 Pls
3535 1207 Pls
3547 1208 Pls
3558 1212 Pls
3570 1212 Pls
3582 1216 Pls
3593 1215 Pls
3605 1212 Pls
3617 1207 Pls
3629 1214 Pls
3640 1210 Pls
3652 1214 Pls
3664 1210 Pls
3675 1222 Pls
3687 1215 Pls
3699 1218 Pls
3711 1212 Pls
3722 1211 Pls
3734 1212 Pls
3746 1212 Pls
3757 1208 Pls
3769 1204 Pls
3781 1212 Pls
3793 1209 Pls
3804 1217 Pls
3816 1204 Pls
3828 1208 Pls
3839 1250 Pls
3851 1212 Pls
3863 1213 Pls
3875 1208 Pls
3886 1212 Pls
3898 1208 Pls
3910 1213 Pls
3921 1212 Pls
3933 1209 Pls
3945 1205 Pls
3956 1211 Pls
3968 1216 Pls
3980 1214 Pls
3992 1210 Pls
4003 1233 Pls
4015 1212 Pls
4027 1212 Pls
4038 1215 Pls
4050 1209 Pls
4062 1211 Pls
4074 1212 Pls
4085 1212 Pls
4097 1212 Pls
4109 1212 Pls
4120 1214 Pls
4132 1205 Pls
4144 1208 Pls
4156 1212 Pls
4167 1213 Pls
4179 1224 Pls
4191 1215 Pls
4202 1208 Pls
4214 1211 Pls
4226 1212 Pls
4238 1211 Pls
4249 1210 Pls
4261 1215 Pls
4273 1208 Pls
4284 1213 Pls
4296 1212 Pls
4308 1216 Pls
4320 1213 Pls
4331 1215 Pls
4343 1266 Pls
4355 1237 Pls
4366 1216 Pls
4378 1221 Pls
4390 1218 Pls
4402 1220 Pls
4413 1215 Pls
4425 1639 Pls
4437 1230 Pls
4448 1223 Pls
4460 1215 Pls
4472 1215 Pls
4484 1212 Pls
4495 1212 Pls
4507 1211 Pls
4519 1215 Pls
4530 1213 Pls
4542 1212 Pls
4554 1220 Pls
4566 4596 Pls
4577 1226 Pls
4589 1224 Pls
4601 1209 Pls
4612 1218 Pls
4624 1218 Pls
4636 1220 Pls
4648 1212 Pls
4659 1212 Pls
4671 1211 Pls
4683 1212 Pls
4694 1486 Pls
4706 1218 Pls
4718 1212 Pls
4730 1217 Pls
4741 1216 Pls
4753 1213 Pls
4765 1215 Pls
4776 1218 Pls
4788 1218 Pls
4800 1218 Pls
4812 1212 Pls
4823 1208 Pls
4835 1274 Pls
4847 1215 Pls
4858 1219 Pls
4870 1218 Pls
4882 1219 Pls
4894 1213 Pls
4905 1215 Pls
4917 1217 Pls
4929 1212 Pls
4940 1215 Pls
4952 1214 Pls
4964 1215 Pls
4976 1223 Pls
4987 1210 Pls
4999 1208 Pls
5011 1215 Pls
5022 1216 Pls
5034 1212 Pls
5046 1212 Pls
5058 1209 Pls
5069 1205 Pls
5081 1206 Pls
5093 1218 Pls
5104 4561 Pls
5116 1221 Pls
5128 1210 Pls
5140 1207 Pls
5151 1215 Pls
5163 1215 Pls
5175 1208 Pls
5186 1212 Pls
5198 1209 Pls
5210 1211 Pls
5222 1212 Pls
5233 1211 Pls
5245 1284 Pls
5257 1215 Pls
5268 1211 Pls
5280 1214 Pls
5292 1218 Pls
5304 1214 Pls
5315 1217 Pls
5327 1211 Pls
5339 1209 Pls
5350 1211 Pls
5362 1213 Pls
5374 1471 Pls
5386 1228 Pls
5397 1209 Pls
5409 1212 Pls
5421 1213 Pls
5432 1208 Pls
5444 1210 Pls
5456 1213 Pls
5468 1210 Pls
5479 1215 Pls
5491 1221 Pls
5503 1213 Pls
5514 1332 Pls
5526 1217 Pls
5538 1221 Pls
5550 1217 Pls
5561 1211 Pls
5573 1215 Pls
5585 1222 Pls
5596 1212 Pls
5608 1221 Pls
5620 1216 Pls
5632 1221 Pls
5643 1208 Pls
5655 1210 Pls
5667 1551 Pls
5678 1220 Pls
5690 1212 Pls
5702 1207 Pls
5714 1216 Pls
5725 1202 Pls
5737 1208 Pls
5749 1210 Pls
5760 1215 Pls
5772 1210 Pls
5784 1210 Pls
5796 1210 Pls
5807 1212 Pls
5819 1212 Pls
5831 1211 Pls
5842 1208 Pls
5854 1214 Pls
5866 1213 Pls
5878 1212 Pls
5889 1208 Pls
5901 1216 Pls
5913 1209 Pls
5924 1208 Pls
5936 1212 Pls
5948 1215 Pls
5960 1212 Pls
5971 1213 Pls
5983 1211 Pls
5995 1210 Pls
6006 1220 Pls
6018 1206 Pls
6030 1211 Pls
6042 1210 Pls
6053 1210 Pls
6065 1215 Pls
6077 1209 Pls
6088 1209 Pls
6100 1206 Pls
6112 1214 Pls
6124 1205 Pls
6135 1211 Pls
6147 1211 Pls
6159 1206 Pls
6170 1231 Pls
6182 1215 Pls
6194 1214 Pls
6206 1203 Pls
6217 1209 Pls
6229 1212 Pls
6241 1212 Pls
6252 1213 Pls
6264 1208 Pls
6276 1216 Pls
6288 1214 Pls
6299 1208 Pls
6311 1212 Pls
6323 1210 Pls
6334 1475 Pls
6346 1210 Pls
6358 1212 Pls
6370 1213 Pls
6381 1213 Pls
6393 1215 Pls
6405 1212 Pls
6416 1212 Pls
6428 1221 Pls
6440 1215 Pls
6452 1218 Pls
6463 1209 Pls
6475 1212 Pls
6487 1209 Pls
6498 1216 Pls
6510 1216 Pls
6522 1208 Pls
6534 1215 Pls
6545 1204 Pls
6557 1212 Pls
6569 1212 Pls
6580 1215 Pls
6592 1215 Pls
6604 1215 Pls
6616 1213 Pls
6627 1212 Pls
6639 1209 Pls
6651 1214 Pls
6662 1213 Pls
6674 1231 Pls
6686 1218 Pls
6698 1219 Pls
6709 1215 Pls
6721 1214 Pls
6733 1212 Pls
6744 1205 Pls
6756 1214 Pls
6768 1212 Pls
6780 1215 Pls
6791 1212 Pls
LTw
% End plot #1
% Begin plot #2
1.000 UP
1.000 UL
LTb
LCb setrgbcolor
[] 0 setdash
0.00 0.62 0.45 C
946 1371 Crs
958 1260 Crs
969 1244 Crs
981 1243 Crs
993 1244 Crs
1005 1237 Crs
1016 1236 Crs
1028 1658 Crs
1040 1409 Crs
1051 1264 Crs
1063 1234 Crs
1075 1229 Crs
1087 1228 Crs
1098 1228 Crs
1110 1230 Crs
1122 1226 Crs
1133 1218 Crs
1145 1224 Crs
1157 1228 Crs
1169 1231 Crs
1180 1410 Crs
1192 1239 Crs
1204 1231 Crs
1215 1228 Crs
1227 1226 Crs
1239 1225 Crs
1251 1234 Crs
1262 1228 Crs
1274 1219 Crs
1286 1224 Crs
1297 1227 Crs
1309 1224 Crs
1321 1222 Crs
1333 1410 Crs
1344 1235 Crs
1356 1227 Crs
1368 1224 Crs
1379 1228 Crs
1391 1221 Crs
1403 1224 Crs
1415 1228 Crs
1426 1227 Crs
1438 1227 Crs
1450 1228 Crs
1461 1228 Crs
1473 1225 Crs
1485 1415 Crs
1497 1232 Crs
1508 1221 Crs
1520 1238 Crs
1532 1224 Crs
1543 1215 Crs
1555 1231 Crs
1567 1225 Crs
1579 1223 Crs
1590 1230 Crs
1602 1227 Crs
1614 1222 Crs
1625 1230 Crs
1637 1410 Crs
1649 1242 Crs
1661 1231 Crs
1672 1221 Crs
1684 1223 Crs
1696 1221 Crs
1707 1223 Crs
1719 1228 Crs
1731 1228 Crs
1743 1230 Crs
1754 1225 Crs
1766 1225 Crs
1778 1227 Crs
1789 1392 Crs
1801 1242 Crs
1813 1230 Crs
1825 1224 Crs
1836 1230 Crs
1848 1223 Crs
1860 1224 Crs
1871 1227 Crs
1883 1221 Crs
1895 1229 Crs
1907 1224 Crs
1918 1231 Crs
1930 1419 Crs
1942 1555 Crs
1953 1236 Crs
1965 1224 Crs
1977 1229 Crs
1989 1227 Crs
2000 1220 Crs
2012 1223 Crs
2024 1233 Crs
2035 1232 Crs
2047 1225 Crs
2059 1228 Crs
2071 1223 Crs
2082 1570 Crs
2094 1739 Crs
2106 1231 Crs
2117 1225 Crs
2129 1228 Crs
2141 1224 Crs
2153 1228 Crs
2164 1227 Crs
2176 1224 Crs
2188 1229 Crs
2199 1228 Crs
2211 1222 Crs
2223 1228 Crs
2235 1587 Crs
2246 1557 Crs
2258 1220 Crs
2270 1226 Crs
2281 1227 Crs
2293 1224 Crs
2305 1232 Crs
2317 1229 Crs
2328 1232 Crs
2340 1224 Crs
2352 1224 Crs
2363 1231 Crs
2375 1223 Crs
2387 1535 Crs
2399 1545 Crs
2410 1223 Crs
2422 1224 Crs
2434 1224 Crs
2445 1220 Crs
2457 1224 Crs
2469 1224 Crs
2481 1228 Crs
2492 1228 Crs
2504 1232 Crs
2516 1223 Crs
2527 1231 Crs
2539 1606 Crs
2551 1588 Crs
2563 1224 Crs
2574 1228 Crs
2586 1220 Crs
2598 1228 Crs
2609 1229 Crs
2621 1236 Crs
2633 1225 Crs
2645 1224 Crs
2656 1221 Crs
2668 1223 Crs
2680 1231 Crs
2691 1418 Crs
2703 1231 Crs
2715 1224 Crs
2727 1224 Crs
2738 1223 Crs
2750 1228 Crs
2762 1226 Crs
2773 1227 Crs
2785 1228 Crs
2797 1223 Crs
2809 1227 Crs
2820 1220 Crs
2832 1235 Crs
2844 1559 Crs
2855 1240 Crs
2867 1231 Crs
2879 1224 Crs
2891 1231 Crs
2902 1226 Crs
2914 1229 Crs
2926 1224 Crs
2937 1222 Crs
2949 1228 Crs
2961 1226 Crs
2973 1226 Crs
2984 1230 Crs
2996 1564 Crs
3008 1236 Crs
3019 1230 Crs
3031 1219 Crs
3043 1225 Crs
3055 1228 Crs
3066 1222 Crs
3078 1228 Crs
3090 1228 Crs
3101 1222 Crs
3113 1228 Crs
3125 1223 Crs
3137 1236 Crs
3148 1423 Crs
3160 1246 Crs
3172 1221 Crs
3183 1230 Crs
3195 1224 Crs
3207 1228 Crs
3219 1224 Crs
3230 1230 Crs
3242 1221 Crs
3254 1226 Crs
3265 1224 Crs
3277 1225 Crs
3289 1223 Crs
3301 1548 Crs
3312 1407 Crs
3324 1220 Crs
3336 1225 Crs
3347 1228 Crs
3359 1220 Crs
3371 1221 Crs
3383 1223 Crs
3394 1225 Crs
3406 1231 Crs
3418 1226 Crs
3429 1226 Crs
3441 1230 Crs
3453 1572 Crs
3465 1564 Crs
3476 1224 Crs
3488 1227 Crs
3500 1229 Crs
3511 1225 Crs
3523 1228 Crs
3535 1227 Crs
3547 1223 Crs
3558 1226 Crs
3570 1219 Crs
3582 1225 Crs
3593 1235 Crs
3605 1401 Crs
3617 1238 Crs
3629 1224 Crs
3640 1226 Crs
3652 1235 Crs
3664 1227 Crs
3675 1224 Crs
3687 1225 Crs
3699 1224 Crs
3711 1224 Crs
3722 1227 Crs
3734 1228 Crs
3746 1230 Crs
3757 1564 Crs
3769 1240 Crs
3781 1229 Crs
3793 1231 Crs
3804 1223 Crs
3816 1224 Crs
3828 1228 Crs
3839 1227 Crs
3851 1231 Crs
3863 1221 Crs
3875 1224 Crs
3886 1232 Crs
3898 1225 Crs
3910 1562 Crs
3921 1240 Crs
3933 1226 Crs
3945 1226 Crs
3956 1224 Crs
3968 1226 Crs
3980 1224 Crs
3992 1222 Crs
4003 1228 Crs
4015 1224 Crs
4027 1229 Crs
4038 1228 Crs
4050 1276 Crs
4062 1413 Crs
4074 1582 Crs
4085 1243 Crs
4097 1241 Crs
4109 1252 Crs
4120 1235 Crs
4132 1255 Crs
4144 1234 Crs
4156 1231 Crs
4167 1227 Crs
4179 1422 Crs
4191 1596 Crs
4202 1577 Crs
4214 1230 Crs
4226 1234 Crs
4238 1234 Crs
4249 1221 Crs
4261 1218 Crs
4273 1223 Crs
4284 1224 Crs
4296 1221 Crs
4308 1229 Crs
4320 1223 Crs
4331 1222 Crs
4343 1569 Crs
4355 1575 Crs
4366 1224 Crs
4378 1226 Crs
4390 1224 Crs
4402 1226 Crs
4413 1228 Crs
4425 1225 Crs
4437 1224 Crs
4448 1228 Crs
4460 1224 Crs
4472 1228 Crs
4484 1228 Crs
4495 1755 Crs
4507 1573 Crs
4519 1226 Crs
4530 1222 Crs
4542 1222 Crs
4554 1226 Crs
4566 1228 Crs
4577 1222 Crs
4589 1225 Crs
4601 1221 Crs
4612 1227 Crs
4624 1224 Crs
4636 1224 Crs
4648 1593 Crs
4659 1585 Crs
4671 1224 Crs
4683 1229 Crs
4694 1225 Crs
4706 1224 Crs
4718 1228 Crs
4730 1226 Crs
4741 1224 Crs
4753 1222 Crs
4765 1228 Crs
4776 1228 Crs
4788 1230 Crs
4800 1574 Crs
4812 1750 Crs
4823 1231 Crs
4835 1224 Crs
4847 1226 Crs
4858 1222 Crs
4870 1231 Crs
4882 1227 Crs
4894 1224 Crs
4905 1227 Crs
4917 1225 Crs
4929 1224 Crs
4940 1221 Crs
4952 1568 Crs
4964 1589 Crs
4976 1223 Crs
4987 1224 Crs
4999 1225 Crs
5011 1225 Crs
5022 1222 Crs
5034 1237 Crs
5046 1229 Crs
5058 1225 Crs
5069 1221 Crs
5081 1227 Crs
5093 1233 Crs
5104 1586 Crs
5116 1408 Crs
5128 1225 Crs
5140 1222 Crs
5151 1229 Crs
5163 1223 Crs
5175 1225 Crs
5186 1222 Crs
5198 1225 Crs
5210 1224 Crs
5222 1228 Crs
5233 1229 Crs
5245 1226 Crs
5257 1560 Crs
5268 1567 Crs
5280 1231 Crs
5292 1225 Crs
5304 1224 Crs
5315 1221 Crs
5327 1230 Crs
5339 1227 Crs
5350 1228 Crs
5362 1229 Crs
5374 1229 Crs
5386 1224 Crs
5397 1224 Crs
5409 1572 Crs
5421 1575 Crs
5432 1230 Crs
5444 1227 Crs
5456 1222 Crs
5468 1224 Crs
5479 1231 Crs
5491 1217 Crs
5503 1232 Crs
5514 1226 Crs
5526 1225 Crs
5538 1230 Crs
5550 1785 Crs
5561 1452 Crs
5573 1449 Crs
5585 1546 Crs
5596 1234 Crs
5608 1228 Crs
5620 1232 Crs
5632 1229 Crs
5643 1226 Crs
5655 1228 Crs
5667 1233 Crs
5678 1224 Crs
5690 1225 Crs
5702 1228 Crs
5714 1240 Crs
5725 1235 Crs
5737 1228 Crs
5749 1229 Crs
5760 1222 Crs
5772 1224 Crs
5784 1222 Crs
5796 1221 Crs
5807 1226 Crs
5819 1227 Crs
5831 1228 Crs
5842 1223 Crs
5854 1226 Crs
5866 1407 Crs
5878 1233 Crs
5889 1231 Crs
5901 1229 Crs
5913 1221 Crs
5924 1225 Crs
5936 1230 Crs
5948 1231 Crs
5960 1228 Crs
5971 1224 Crs
5983 1230 Crs
5995 1227 Crs
6006 1227 Crs
6018 1388 Crs
6030 1237 Crs
6042 1228 Crs
6053 1221 Crs
6065 1226 Crs
6077 1230 Crs
6088 1228 Crs
6100 1229 Crs
6112 1231 Crs
6124 1226 Crs
6135 1226 Crs
6147 1228 Crs
6159 1233 Crs
6170 1414 Crs
6182 1237 Crs
6194 1222 Crs
6206 1222 Crs
6217 1228 Crs
6229 1228 Crs
6241 1225 Crs
6252 1228 Crs
6264 1224 Crs
6276 1228 Crs
6288 1222 Crs
6299 1223 Crs
6311 1225 Crs
6323 1557 Crs
6334 1243 Crs
6346 1234 Crs
6358 1228 Crs
6370 1230 Crs
6381 1230 Crs
6393 1224 Crs
6405 1224 Crs
6416 1231 Crs
6428 1223 Crs
6440 1230 Crs
6452 1226 Crs
6463 1224 Crs
6475 1570 Crs
6487 1401 Crs
6498 1232 Crs
6510 1228 Crs
6522 1224 Crs
6534 1230 Crs
6545 1230 Crs
6557 1227 Crs
6569 1227 Crs
6580 1220 Crs
6592 1225 Crs
6604 1225 Crs
6616 1224 Crs
6627 1555 Crs
6639 1582 Crs
6651 1227 Crs
6662 1229 Crs
6674 1229 Crs
6686 1225 Crs
6698 1227 Crs
6709 1224 Crs
6721 1230 Crs
6733 1227 Crs
6744 1225 Crs
6756 1227 Crs
6768 1227 Crs
6780 1575 Crs
6791 1557 Crs
LTw
% End plot #2
% Begin plot #3
1.000 UP
1.000 UL
LTb
LCb setrgbcolor
[] 0 setdash
0.34 0.71 0.91 C
946 1410 Star
958 1260 Star
969 1252 Star
981 1250 Star
993 1235 Star
1005 1247 Star
1016 1237 Star
1028 1247 Star
1040 1247 Star
1051 1231 Star
1063 1239 Star
1075 1238 Star
1087 1238 Star
1098 1234 Star
1110 1243 Star
1122 1232 Star
1133 1231 Star
1145 1236 Star
1157 1237 Star
1169 1261 Star
1180 1245 Star
1192 1237 Star
1204 1234 Star
1215 1231 Star
1227 1237 Star
1239 1236 Star
1251 1228 Star
1262 1231 Star
1274 1237 Star
1286 1233 Star
1297 1243 Star
1309 1232 Star
1321 1241 Star
1333 1225 Star
1344 1238 Star
1356 1244 Star
1368 1233 Star
1379 1233 Star
1391 1234 Star
1403 1234 Star
1415 1237 Star
1426 1234 Star
1438 1240 Star
1450 1226 Star
1461 1228 Star
1473 1234 Star
1485 1224 Star
1497 1234 Star
1508 1231 Star
1520 1228 Star
1532 1230 Star
1543 1231 Star
1555 1224 Star
1567 1226 Star
1579 1229 Star
1590 1237 Star
1602 1230 Star
1614 1229 Star
1625 1228 Star
1637 1229 Star
1649 1227 Star
1661 1230 Star
1672 1230 Star
1684 1232 Star
1696 1231 Star
1707 1230 Star
1719 1234 Star
1731 1229 Star
1743 1228 Star
1754 1234 Star
1766 1230 Star
1778 1236 Star
1789 1231 Star
1801 1233 Star
1813 1224 Star
1825 1227 Star
1836 1239 Star
1848 1232 Star
1860 1233 Star
1871 1228 Star
1883 1232 Star
1895 1232 Star
1907 1231 Star
1918 1222 Star
1930 1234 Star
1942 1226 Star
1953 1224 Star
1965 1232 Star
1977 1225 Star
1989 1234 Star
2000 1231 Star
2012 1231 Star
2024 1228 Star
2035 1235 Star
2047 1226 Star
2059 1231 Star
2071 1229 Star
2082 1226 Star
2094 1228 Star
2106 1232 Star
2117 1237 Star
2129 1227 Star
2141 1231 Star
2153 1230 Star
2164 1231 Star
2176 1231 Star
2188 1228 Star
2199 1230 Star
2211 1227 Star
2223 1227 Star
2235 1226 Star
2246 1233 Star
2258 1239 Star
2270 1223 Star
2281 1228 Star
2293 1231 Star
2305 1226 Star
2317 1263 Star
2328 1237 Star
2340 1237 Star
2352 1235 Star
2363 1231 Star
2375 1228 Star
2387 1236 Star
2399 1229 Star
2410 1231 Star
2422 1226 Star
2434 1224 Star
2445 1234 Star
2457 1226 Star
2469 1231 Star
2481 1231 Star
2492 1232 Star
2504 1232 Star
2516 1239 Star
2527 1235 Star
2539 1226 Star
2551 1224 Star
2563 1229 Star
2574 1231 Star
2586 1228 Star
2598 1226 Star
2609 1229 Star
2621 1229 Star
2633 1236 Star
2645 1233 Star
2656 1237 Star
2668 1236 Star
2680 1226 Star
2691 1222 Star
2703 1225 Star
2715 1226 Star
2727 1228 Star
2738 1228 Star
2750 1233 Star
2762 1224 Star
2773 1225 Star
2785 1234 Star
2797 1225 Star
2809 1227 Star
2820 1225 Star
2832 1228 Star
2844 1230 Star
2855 1228 Star
2867 1224 Star
2879 1231 Star
2891 1226 Star
2902 1228 Star
2914 1227 Star
2926 1229 Star
2937 1231 Star
2949 1228 Star
2961 1237 Star
2973 1229 Star
2984 1232 Star
2996 1231 Star
3008 1225 Star
3019 1226 Star
3031 1226 Star
3043 1224 Star
3055 1237 Star
3066 1227 Star
3078 1231 Star
3090 1226 Star
3101 1227 Star
3113 1236 Star
3125 1236 Star
3137 1234 Star
3148 1235 Star
3160 1228 Star
3172 1228 Star
3183 1226 Star
3195 1227 Star
3207 1228 Star
3219 1231 Star
3230 1228 Star
3242 1226 Star
3254 1228 Star
3265 1227 Star
3277 1226 Star
3289 1228 Star
3301 1227 Star
3312 1239 Star
3324 1228 Star
3336 1229 Star
3347 1227 Star
3359 1227 Star
3371 1235 Star
3383 1228 Star
3394 1223 Star
3406 1230 Star
3418 1231 Star
3429 1229 Star
3441 1228 Star
3453 1238 Star
3465 1226 Star
3476 1234 Star
3488 1231 Star
3500 1230 Star
3511 1230 Star
3523 1234 Star
3535 1225 Star
3547 1222 Star
3558 1224 Star
3570 1226 Star
3582 1228 Star
3593 1227 Star
3605 1232 Star
3617 1233 Star
3629 1231 Star
3640 1226 Star
3652 1225 Star
3664 1228 Star
3675 1224 Star
3687 1228 Star
3699 1224 Star
3711 1225 Star
3722 1230 Star
3734 1232 Star
3746 1223 Star
3757 1234 Star
3769 1233 Star
3781 1233 Star
3793 1234 Star
3804 1228 Star
3816 1227 Star
3828 1228 Star
3839 1228 Star
3851 1224 Star
3863 1225 Star
3875 1228 Star
3886 1230 Star
3898 1224 Star
3910 1230 Star
3921 1221 Star
3933 1233 Star
3945 1242 Star
3956 1240 Star
3968 1234 Star
3980 1237 Star
3992 1234 Star
4003 1233 Star
4015 1228 Star
4027 1228 Star
4038 1228 Star
4050 1228 Star
4062 1239 Star
4074 1224 Star
4085 1229 Star
4097 1234 Star
4109 1234 Star
4120 1236 Star
4132 1233 Star
4144 1230 Star
4156 1229 Star
4167 1228 Star
4179 1229 Star
4191 1224 Star
4202 1236 Star
4214 1232 Star
4226 1232 Star
4238 1228 Star
4249 1234 Star
4261 1228 Star
4273 1232 Star
4284 1230 Star
4296 1228 Star
4308 1227 Star
4320 1231 Star
4331 1229 Star
4343 1226 Star
4355 1228 Star
4366 1225 Star
4378 1235 Star
4390 1233 Star
4402 1228 Star
4413 1234 Star
4425 1233 Star
4437 1233 Star
4448 1231 Star
4460 1227 Star
4472 1225 Star
4484 1226 Star
4495 1223 Star
4507 1229 Star
4519 1229 Star
4530 1228 Star
4542 1229 Star
4554 1223 Star
4566 1227 Star
4577 1238 Star
4589 1235 Star
4601 1226 Star
4612 1235 Star
4624 1225 Star
4636 1229 Star
4648 1234 Star
4659 1228 Star
4671 1234 Star
4683 1228 Star
4694 1231 Star
4706 1228 Star
4718 1229 Star
4730 1222 Star
4741 1232 Star
4753 1225 Star
4765 1231 Star
4776 1227 Star
4788 1232 Star
4800 1231 Star
4812 1231 Star
4823 1230 Star
4835 1226 Star
4847 1236 Star
4858 1228 Star
4870 1229 Star
4882 1231 Star
4894 1229 Star
4905 1231 Star
4917 1234 Star
4929 1231 Star
4940 1233 Star
4952 1234 Star
4964 1222 Star
4976 1230 Star
4987 1224 Star
4999 1232 Star
5011 1232 Star
5022 1228 Star
5034 1230 Star
5046 1224 Star
5058 1227 Star
5069 1230 Star
5081 1236 Star
5093 1234 Star
5104 1226 Star
5116 1229 Star
5128 1226 Star
5140 1224 Star
5151 1224 Star
5163 1224 Star
5175 1228 Star
5186 1223 Star
5198 1223 Star
5210 1226 Star
5222 1231 Star
5233 1237 Star
5245 1227 Star
5257 1233 Star
5268 1230 Star
5280 1226 Star
5292 1233 Star
5304 1228 Star
5315 1230 Star
5327 1231 Star
5339 1226 Star
5350 1233 Star
5362 1233 Star
5374 1225 Star
5386 1227 Star
5397 1236 Star
5409 1235 Star
5421 1236 Star
5432 1232 Star
5444 1229 Star
5456 1227 Star
5468 1227 Star
5479 1230 Star
5491 1232 Star
5503 1229 Star
5514 1227 Star
5526 1229 Star
5538 1225 Star
5550 1754 Star
5561 1231 Star
5573 1225 Star
5585 1230 Star
5596 1232 Star
5608 1229 Star
5620 1230 Star
5632 1225 Star
5643 1228 Star
5655 1228 Star
5667 1231 Star
5678 1228 Star
5690 1231 Star
5702 1229 Star
5714 1240 Star
5725 1224 Star
5737 1236 Star
5749 1227 Star
5760 1232 Star
5772 1225 Star
5784 1231 Star
5796 1229 Star
5807 1228 Star
5819 1233 Star
5831 1230 Star
5842 1232 Star
5854 1228 Star
5866 1228 Star
5878 1234 Star
5889 1235 Star
5901 1238 Star
5913 1228 Star
5924 1225 Star
5936 1234 Star
5948 1229 Star
5960 1231 Star
5971 1233 Star
5983 1224 Star
5995 1225 Star
6006 1225 Star
6018 1231 Star
6030 1222 Star
6042 1231 Star
6053 1234 Star
6065 1235 Star
6077 1227 Star
6088 1230 Star
6100 1231 Star
6112 1228 Star
6124 1226 Star
6135 1224 Star
6147 1234 Star
6159 1232 Star
6170 1231 Star
6182 1228 Star
6194 1230 Star
6206 1231 Star
6217 1229 Star
6229 1231 Star
6241 1223 Star
6252 1234 Star
6264 1228 Star
6276 1227 Star
6288 1228 Star
6299 1228 Star
6311 1228 Star
6323 1230 Star
6334 1227 Star
6346 1231 Star
6358 1223 Star
6370 1232 Star
6381 1231 Star
6393 1231 Star
6405 1225 Star
6416 1228 Star
6428 1228 Star
6440 1228 Star
6452 1227 Star
6463 1225 Star
6475 1228 Star
6487 1227 Star
6498 1227 Star
6510 1230 Star
6522 1226 Star
6534 1227 Star
6545 1228 Star
6557 1236 Star
6569 1227 Star
6580 1230 Star
6592 1234 Star
6604 1228 Star
6616 1224 Star
6627 1231 Star
6639 1229 Star
6651 1229 Star
6662 1228 Star
6674 1223 Star
6686 1224 Star
6698 1228 Star
6709 1228 Star
6721 1227 Star
6733 1234 Star
6744 1229 Star
6756 1230 Star
6768 1232 Star
6780 1225 Star
6791 1226 Star
LTw
% End plot #3
% Begin plot #4
1.000 UP
1.000 UL
LTb
LCb setrgbcolor
[] 0 setdash
0.90 0.62 0.00 C
946 1397 Box
958 1259 Box
969 1268 Box
981 1253 Box
993 1273 Box
1005 1257 Box
1016 1234 Box
1028 1267 Box
1040 1229 Box
1051 1231 Box
1063 1229 Box
1075 1229 Box
1087 1223 Box
1098 1247 Box
1110 1244 Box
1122 1228 Box
1133 1231 Box
1145 1231 Box
1157 1224 Box
1169 1231 Box
1180 1231 Box
1192 1227 Box
1204 1228 Box
1215 1248 Box
1227 1224 Box
1239 1227 Box
1251 1225 Box
1262 1222 Box
1274 1218 Box
1286 1233 Box
1297 1230 Box
1309 1222 Box
1321 1225 Box
1333 1240 Box
1344 1234 Box
1356 1221 Box
1368 1225 Box
1379 1230 Box
1391 1228 Box
1403 1221 Box
1415 1224 Box
1426 1224 Box
1438 1223 Box
1450 1263 Box
1461 1227 Box
1473 1224 Box
1485 1225 Box
1497 1222 Box
1508 1221 Box
1520 1226 Box
1532 1211 Box
1543 1224 Box
1555 1216 Box
1567 1238 Box
1579 1231 Box
1590 1229 Box
1602 1217 Box
1614 1226 Box
1625 1226 Box
1637 1226 Box
1649 1221 Box
1661 1218 Box
1672 1225 Box
1684 1253 Box
1696 1230 Box
1707 1221 Box
1719 1224 Box
1731 1215 Box
1743 1227 Box
1754 1218 Box
1766 1234 Box
1778 1234 Box
1789 1224 Box
1801 1246 Box
1813 1235 Box
1825 1218 Box
1836 1224 Box
1848 1224 Box
1860 1221 Box
1871 1221 Box
1883 1224 Box
1895 1216 Box
1907 1226 Box
1918 1256 Box
1930 1226 Box
1942 1224 Box
1953 1227 Box
1965 1223 Box
1977 1228 Box
1989 1232 Box
2000 1223 Box
2012 1224 Box
2024 1231 Box
2035 1239 Box
2047 1223 Box
2059 1225 Box
2071 1223 Box
2082 1224 Box
2094 1215 Box
2106 1224 Box
2117 1218 Box
2129 1218 Box
2141 1215 Box
2153 1229 Box
2164 1225 Box
2176 1220 Box
2188 1223 Box
2199 1219 Box
2211 1225 Box
2223 1223 Box
2235 1221 Box
2246 1221 Box
2258 1226 Box
2270 1234 Box
2281 1243 Box
2293 1224 Box
2305 1227 Box
2317 1231 Box
2328 1219 Box
2340 1223 Box
2352 1224 Box
2363 1221 Box
2375 1223 Box
2387 1251 Box
2399 1227 Box
2410 1224 Box
2422 1216 Box
2434 1224 Box
2445 1231 Box
2457 1221 Box
2469 1222 Box
2481 1227 Box
2492 1222 Box
2504 1228 Box
2516 1228 Box
2527 1221 Box
2539 1220 Box
2551 1223 Box
2563 1224 Box
2574 1223 Box
2586 1221 Box
2598 1221 Box
2609 1221 Box
2621 1250 Box
2633 1233 Box
2645 1224 Box
2656 1224 Box
2668 1224 Box
2680 1221 Box
2691 1223 Box
2703 1223 Box
2715 1220 Box
2727 1219 Box
2738 1248 Box
2750 1243 Box
2762 1224 Box
2773 1222 Box
2785 1220 Box
2797 1224 Box
2809 1226 Box
2820 1221 Box
2832 1223 Box
2844 1219 Box
2855 1240 Box
2867 1230 Box
2879 1223 Box
2891 1219 Box
2902 1215 Box
2914 1227 Box
2926 1215 Box
2937 1212 Box
2949 1215 Box
2961 1223 Box
2973 1232 Box
2984 1220 Box
2996 1222 Box
3008 1227 Box
3019 1224 Box
3031 1217 Box
3043 1211 Box
3055 1222 Box
3066 1226 Box
3078 1227 Box
3090 1244 Box
3101 1223 Box
3113 1226 Box
3125 1221 Box
3137 1224 Box
3148 1218 Box
3160 1225 Box
3172 1221 Box
3183 1218 Box
3195 1226 Box
3207 1234 Box
3219 1229 Box
3230 1230 Box
3242 1231 Box
3254 1224 Box
3265 1221 Box
3277 1221 Box
3289 1222 Box
3301 1228 Box
3312 1219 Box
3324 1263 Box
3336 1240 Box
3347 1221 Box
3359 1225 Box
3371 1220 Box
3383 1220 Box
3394 1224 Box
3406 1220 Box
3418 1224 Box
3429 1220 Box
3441 1245 Box
3453 1228 Box
3465 1220 Box
3476 1218 Box
3488 1223 Box
3500 1224 Box
3511 1221 Box
3523 1220 Box
3535 1228 Box
3547 1228 Box
3558 1247 Box
3570 1222 Box
3582 1224 Box
3593 1216 Box
3605 1223 Box
3617 1224 Box
3629 1228 Box
3640 1222 Box
3652 1218 Box
3664 1224 Box
3675 1240 Box
3687 1221 Box
3699 1222 Box
3711 1221 Box
3722 1221 Box
3734 1221 Box
3746 1230 Box
3757 1222 Box
3769 1217 Box
3781 1220 Box
3793 1239 Box
3804 1236 Box
3816 1225 Box
3828 1222 Box
3839 1219 Box
3851 1224 Box
3863 1219 Box
3875 1221 Box
3886 1224 Box
3898 1217 Box
3910 1247 Box
3921 1237 Box
3933 1222 Box
3945 1220 Box
3956 1221 Box
3968 1222 Box
3980 1212 Box
3992 1223 Box
4003 1218 Box
4015 1223 Box
4027 1247 Box
4038 1224 Box
4050 1221 Box
4062 1221 Box
4074 1220 Box
4085 1219 Box
4097 1215 Box
4109 1219 Box
4120 1218 Box
4132 1219 Box
4144 1229 Box
4156 1237 Box
4167 1218 Box
4179 1218 Box
4191 1224 Box
4202 1223 Box
4214 1222 Box
4226 1220 Box
4238 1227 Box
4249 1221 Box
4261 1233 Box
4273 1228 Box
4284 1219 Box
4296 1220 Box
4308 1221 Box
4320 1215 Box
4331 1219 Box
4343 1218 Box
4355 1225 Box
4366 1218 Box
4378 1231 Box
4390 1229 Box
4402 1222 Box
4413 1218 Box
4425 1224 Box
4437 1212 Box
4448 1222 Box
4460 1212 Box
4472 1218 Box
4484 1223 Box
4495 1221 Box
4507 1214 Box
4519 1221 Box
4530 1216 Box
4542 1218 Box
4554 1223 Box
4566 1217 Box
4577 1218 Box
4589 1215 Box
4601 1217 Box
4612 1231 Box
4624 1224 Box
4636 1228 Box
4648 1213 Box
4659 1216 Box
4671 1222 Box
4683 1216 Box
4694 1214 Box
4706 1219 Box
4718 1214 Box
4730 1219 Box
4741 1213 Box
4753 1223 Box
4765 1218 Box
4776 1221 Box
4788 1219 Box
4800 1215 Box
4812 1218 Box
4823 1217 Box
4835 1220 Box
4847 1230 Box
4858 1235 Box
4870 1228 Box
4882 1220 Box
4894 1215 Box
4905 1220 Box
4917 1213 Box
4929 1217 Box
4940 1218 Box
4952 1218 Box
4964 1221 Box
4976 1215 Box
4987 1214 Box
4999 1220 Box
5011 1216 Box
5022 1223 Box
5034 1215 Box
5046 1215 Box
5058 1220 Box
5069 1221 Box
5081 1234 Box
5093 1230 Box
5104 1221 Box
5116 1220 Box
5128 1215 Box
5140 1218 Box
5151 1215 Box
5163 1213 Box
5175 1217 Box
5186 1212 Box
5198 1218 Box
5210 1218 Box
5222 1214 Box
5233 1219 Box
5245 1217 Box
5257 1212 Box
5268 1224 Box
5280 1215 Box
5292 1216 Box
5304 1216 Box
5315 1241 Box
5327 1230 Box
5339 1223 Box
5350 1220 Box
5362 1218 Box
5374 1220 Box
5386 1221 Box
5397 1214 Box
5409 1218 Box
5421 1221 Box
5432 1220 Box
5444 1212 Box
5456 1212 Box
5468 1224 Box
5479 1215 Box
5491 1215 Box
5503 1219 Box
5514 1218 Box
5526 1214 Box
5538 1214 Box
5550 1235 Box
5561 1234 Box
5573 1218 Box
5585 1216 Box
5596 1216 Box
5608 1216 Box
5620 1223 Box
5632 1222 Box
5643 1216 Box
5655 1216 Box
5667 1220 Box
5678 1217 Box
5690 1213 Box
5702 1213 Box
5714 1215 Box
5725 1218 Box
5737 1221 Box
5749 1219 Box
5760 1213 Box
5772 1212 Box
5784 1239 Box
5796 1219 Box
5807 1215 Box
5819 1215 Box
5831 1221 Box
5842 1219 Box
5854 1221 Box
5866 1218 Box
5878 1217 Box
5889 1219 Box
5901 1220 Box
5913 1222 Box
5924 1220 Box
5936 1218 Box
5948 1221 Box
5960 1213 Box
5971 1224 Box
5983 1219 Box
5995 1218 Box
6006 1220 Box
6018 1243 Box
6030 1220 Box
6042 1224 Box
6053 1224 Box
6065 1221 Box
6077 1221 Box
6088 1221 Box
6100 1221 Box
6112 1218 Box
6124 1221 Box
6135 1224 Box
6147 1221 Box
6159 1223 Box
6170 1220 Box
6182 1226 Box
6194 1225 Box
6206 1214 Box
6217 1224 Box
6229 1222 Box
6241 1221 Box
6252 1234 Box
6264 1236 Box
6276 1221 Box
6288 1219 Box
6299 1212 Box
6311 1229 Box
6323 1218 Box
6334 1221 Box
6346 1220 Box
6358 1224 Box
6370 1229 Box
6381 1226 Box
6393 1217 Box
6405 1228 Box
6416 1223 Box
6428 1215 Box
6440 1223 Box
6452 1222 Box
6463 1218 Box
6475 1222 Box
6487 1244 Box
6498 1227 Box
6510 1221 Box
6522 1221 Box
6534 1224 Box
6545 1224 Box
6557 1228 Box
6569 1221 Box
6580 1218 Box
6592 1221 Box
6604 1228 Box
6616 1219 Box
6627 1218 Box
6639 1214 Box
6651 1220 Box
6662 1216 Box
6674 1218 Box
6686 1220 Box
6698 1218 Box
6709 1215 Box
6721 1224 Box
6733 1222 Box
6744 1212 Box
6756 1213 Box
6768 1217 Box
6780 1212 Box
6791 1215 Box
LTw
% End plot #4
LCw setrgbcolor
1.000 4661 3711 2010 1045 BoxColFill
1.000 UL
LTb
LCb setrgbcolor
[] 0 setdash
4661 3711 N
0 1045 V
2010 0 V
0 -1045 V
-2010 0 V
Z stroke
% Begin plot #5
1.000 UP
1.000 UL
LTb
0.58 0.00 0.83 C
LCb setrgbcolor
1.000 UP
1.000 UL
LTb
0.58 0.00 0.83 C
6243 4563 Pls
LTw
% End plot #5
% Begin plot #6
1.000 UP
1.000 UL
LTb
LCb setrgbcolor
[] 0 setdash
0.00 0.62 0.45 C
LCb setrgbcolor
1.000 UP
1.000 UL
LTb
0.00 0.62 0.45 C
6243 4343 Crs
LTw
% End plot #6
% Begin plot #7
1.000 UP
1.000 UL
LTb
LCb setrgbcolor
[] 0 setdash
0.34 0.71 0.91 C
LCb setrgbcolor
1.000 UP
1.000 UL
LTb
0.34 0.71 0.91 C
6243 4123 Star
LTw
% End plot #7
% Begin plot #8
1.000 UP
1.000 UL
LTb
LCb setrgbcolor
[] 0 setdash
0.90 0.62 0.00 C
LCb setrgbcolor
1.000 UP
1.000 UL
LTb
0.90 0.62 0.00 C
6243 3903 Box
LTw
% End plot #8
2.000 UL
LTb
LCb setrgbcolor
[] 0 setdash
1.000 UL
LTb
946 4819 N
946 704 L
5857 0 V
0 4115 V
-5857 0 V
Z stroke
1.000 UP
1.000 UL
LTb
stroke
grestore
end
showpage
%%Trailer
